97

8
Maria Delgado
Linda Delgado
Clark Hardin
Carla Cross
Maria Benson
Maria Oleson
Julian Rivers
Maria O'Connel
3 7 4 6 1 5 8 2
6 3 5 4 2 1 7 8
8 1 2 4 6 5 3 7
1 3 6 7 4 2 5 8
6 7 3 1 2 8 4 5
8 2 5 3 6 1 4 7
5 1 6 8 2 3 7 4
7 8 6 3 4 5 1 2
8 3 7 6 2 5 4 1
2 8 1 4 6 5 7 3
3 4 6 7 5 8 1 2
2 3 7 4 6 5 1 8
7 6 8 4 2 3 1 5
3 8 6 4 1 5 2 7
5 1 6 4 2 8 3 7
2 3 7 6 4 8 1 5
8 7 5 3 4 6 1 2
8 4 7 1 2 3 5 6
2 4 6 8 3 1 7 5
8 4 3 6 1 2 7 5
3 8 6 2 1 4 7 5
2 3 8 5 4 6 7 1
7 5 8 6 2 4 3 1
8 1 7 4 5 2 3 6
4 1 2 6 5 8 3 7
6 1 8 3 4 5 2 7
3 5 2 1 6 4 8 7
5 4 1 8 3 2 7 6

1
Lisa Hancock
1
1
1
1
1
1
1
1
1
1
1
1
1
1
1
1
1
1
1
1
1
1
1
1
1
1
1
1
1
1
1
1
1
1
1
1
1
1
1
1
1
1
1
1
1
1

10
Vanessa Hardin
Loretta O'Connel
Roland North
Chelsea Rubio
Caitlin Barber
Michael Delgado
Lisa Barber
Roland Jefferson
Kris Benson
Linda Hancock
5 7 8 10 2 9 3 4 6 1
1 7 9 5 3 10 6 2 8 4
7 5 1 10 4 2 6 3 9 8
3 4 7 9 6 8 1 5 2 10
2 9 6 3 1 5 10 8 7 4
5 4 10 2 7 1 8 9 6 3
9 8 6 4 7 5 10 3 2 1
3 8 2 6 1 4 10 7 9 5
4 3 1 10 8 7 2 6 9 5
6 1 2 3 5 7 9 8 10 4
2 10 9 1 7 8 5 3 4 6
5 8 2 9 4 3 1 10 6 7
10 3 1 8 4 5 6 9 2 7
4 2 5 6 10 7 8 3 9 1
4 6 1 3 7 9 2 10 5 8
7 3 9 2 4 6 5 1 10 8
2 7 10 1 5 3 4 9 8 6
4 6 10 2 3 5 9 1 8 7
9 4 1 10 8 6 5 3 7 2
2 5 1 9 3 4 10 7 8 6
8 10 2 5 6 4 3 7 1 9
1 4 2 8 6 7 3 10 9 5
1 7 9 8 2 6 5 4 3 10
1 4 9 5 8 10 2 7 6 3
6 10 8 2 1 9 3 5 7 4
9 8 7 5 6 3 2 1 4 10
4 10 9 3 8 6 2 1 7 5
1 2 7 3 8 5 9 4 10 6
3 5 2 7 8 10 9 6 1 4
9 10 3 5 7 2 4 8 6 1
9 6 4 2 10 3 8 5 7 1
9 6 7 4 8 10 5 3 2 1
5 4 2 1 9 3 10 6 8 7
4 2 8 6 9 3 10 7 1 5
4 1 6 9 10 8 2 7 5 3
2 10 1 6 9 5 8 3 4 7
2 3 8 4 1 5 9 6 7 10
7 1 6 2 9 3 4 5 10 8
3 5 6 8 2 9 10 7 1 4
2 7 6 4 1 8 10 5 3 9
5 6 7 10 9 8 1 4 2 3
5 6 3 8 9 2 1 4 7 10
1 7 2 5 6 10 9 8 3 4

6
Edward Cross
Erick Moyer
Celia Dodson
Caitlin Hancock
Edward Cross
Michael Cross
3 4 6 5 2 1
4 5 1 2 6 3
5 6 4 2 3 1
3 4 1 5 2 6
4 5 3 2 6 1
1 6 2 4 3 5
3 4 6 2 5 1
2 4 5 3 1 6
1 4 2 5 6 3
4 1 6 5 3 2
6 4 2 5 1 3
3 6 2 1 5 4
3 4 2 5 1 6
1 2 6 3 5 4
4 3 1 5 6 2
4 2 1 3 5 6
6 4 5 2 3 1
6 5 3 1 4 2
4 1 5 6 2 3
6 4 3 5 1 2
6 4 3 2 5 1
2 3 4 1 5 6
1 6 3 5 4 2
5 4 3 2 6 1
6 3 2 4 5 1
2 3 5 1 4 6
1 4 2 3 6 5
2 5 4 1 3 6
4 3 2 1 6 5
6 3 4 1 2 5
3 6 1 5 4 2
2 6 5 3 4 1
3 6 5 2 4 1
1 2 5 4 6 3
2 3 1 6 5 4

5
Kris Steward
Larry Russell
Erick Mueller
Vanessa Henson
Daniel Shay
2 3 5 4 1
4 5 2 3 1
5 2 4 1 3
2 5 4 3 1
5 3 1 2 4
3 4 5 1 2
1 2 5 3 4
4 1 3 5 2
5 3 1 2 4
3 2 5 4 1
1 3 2 5 4
1 2 4 3 5
1 2 4 3 5
1 5 2 3 4
3 2 1 5 4
2 4 3 5 1
3 5 2 4 1
5 4 1 3 2
4 1 5 3 2
3 2 4 5 1
4 1 5 2 3
5 2 1 3 4
4 5 1 3 2
1 5 2 4 3
1 4 5 3 2
1 2 3 5 4
4 2 3 5 1
3 4 1 2 5
4 3 5 2 1
4 1 5 3 2
4 1 2 5 3
3 1 5 2 4
3 5 2 1 4
2 4 3 1 5
4 3 5 1 2
4 1 2 3 5
2 1 5 4 3
3 4 5 1 2
4 2 1 3 5
2 1 3 4 5
1 2 3 4 5
2 1 4 3 5
1 2 5 3 4
1 2 4 3 5
1 2 3 5 4
5 3 2 4 1
2 4 3 1 5
4 3 2 1 5

9
Vanessa Paul
Cesar North
Morgan Maynard
Roland Rubio
Cesar Henson
Cesar Paul
Caitlin Livingston
Larry Benson
Angelina Carver
5 3 4 7 1 8 9 6 2
3 4 5 7 1 2 9 8 6
6 4 9 8 7 5 2 3 1
5 1 8 9 2 6 3 4 7
8 7 6 5 4 9 1 3 2
8 1 4 6 7 5 9 3 2
9 3 5 2 8 7 4 6 1
3 7 5 4 9 2 6 8 1
7 9 5 8 4 1 6 3 2
1 7 5 9 8 6 3 4 2
3 2 8 1 7 9 4 5 6
7 8 6 9 4 3 1 5 2
8 1 4 2 3 6 5 9 7
6 9 8 5 3 7 1 4 2
2 7 4 1 3 8 6 9 5
9 2 3 8 7 5 4 6 1
2 9 4 6 8 3 5 7 1
9 1 7 6 4 2 5 3 8
4 3 1 7 8 6 2 9 5
6 9 2 7 1 3 5 4 8

1
Angelina Carver
1
1
1
1
1
1
1
1
1
1
1
1
1
1
1
1
1
1
1
1
1
1
1
1
1
1
1
1
1
1
1
1
1
1
1
1
1
1
1
1
1
1
1
1
1
1
1
1
1
1
1
1
1
1

6
Kris Maynard
Morgan Steward
Michael Jefferson
Michael Mueller
Kelsey Rubio
Angelina Rubio
4 2 5 1 3 6
1 6 2 4 3 5
4 5 2 3 1 6
3 2 1 5 4 6
6 4 5 3 1 2
3 4 1 6 2 5
2 1 6 5 3 4
1 6 3 4 2 5
4 3 6 2 1 5
2 4 5 1 6 3
2 6 3 4 1 5
6 1 2 5 4 3
1 4 3 2 6 5
3 1 5 4 6 2
2 3 6 1 5 4
6 4 1 2 5 3
1 6 5 4 2 3
1 2 4 6 3 5
6 5 4 3 2 1
1 5 2 6 4 3
4 3 2 6 1 5

6
Lindsey Delgado
Tracie Delgado
Marie Mead
Julian Goodwin
Lisa Rivers
Carla Steward
3 6 2 5 1 4
4 1 5 6 2 3
3 6 4 1 5 2
3 1 2 6 4 5
3 5 1 4 2 6
3 2 5 4 1 6
5 3 6 4 1 2
2 6 4 3 1 5
5 2 1 6 3 4
4 5 3 1 6 2
4 5 2 3 6 1
6 1 5 4 2 3
6 4 3 2 1 5
2 1 6 4 3 5
6 1 4 2 5 3
4 1 6 3 5 2
1 3 4 2 6 5
3 2 4 5 1 6
4 2 3 1 6 5
3 6 5 2 4 1
5 6 1 2 4 3
5 6 4 1 3 2
4 5 1 3 2 6
3 6 4 1 2 5
2 4 1 3 6 5
2 5 3 4 1 6
4 6 3 1 2 5
3 4 2 1 5 6
6 4 3 1 5 2
5 4 1 3 6 2
2 5 6 1 4 3
5 3 6 2 1 4
5 2 1 3 4 6
4 5 1 6 3 2
4 1 5 3 2 6

5
Loretta Rubio
Michael North
Chelsea Maynard
Julian O'Connel
Larry Hancock
1 4 2 3 5
3 5 2 1 4
3 2 5 4 1
4 5 3 1 2
4 1 2 5 3
2 3 4 5 1
4 5 1 2 3
4 2 3 1 5
5 4 1 2 3
5 2 1 3 4
4 5 1 2 3
1 5 4 3 2
4 3 5 2 1
2 3 5 4 1
3 5 4 2 1
5 2 4 1 3
5 3 1 4 2
5 2 3 1 4
4 3 2 1 5
2 1 4 3 5
3 2 5 1 4
2 3 4 1 5
3 5 4 2 1

3
Loretta North
Floyd Steward
Chelsea Henson
1 2 3
1 3 2
2 1 3
3 1 2
2 3 1

9
Angelina Goodwin
Vanessa Steward
Lisa Shay
Lisa Benson
Tracie Goodwin
Tracie Delgado
Edward Mercer
Caitlin Rivers
Larry Jefferson
2 8 4 3 7 1 9 6 5
1 9 6 4 7 3 8 5 2
5 8 2 7 1 9 6 3 4
8 4 9 1 7 3 2 6 5
6 1 7 5 2 9 4 8 3
6 4 1 5 2 8 7 3 9
3 1 8 5 9 7 4 6 2
6 4 5 7 1 2 9 8 3
8 7 4 5 6 3 2 9 1
4 7 9 6 5 3 2 1 8
7 6 5 8 3 9 2 1 4
3 8 7 1 6 4 9 5 2
1 3 4 6 5 8 2 9 7
2 4 8 7 1 3 6 5 9
9 4 5 7 2 1 6 8 3
7 8 2 4 6 1 9 3 5
7 8 9 6 2 5 3 1 4
3 5 7 9 2 8 4 1 6
2 8 6 1 5 7 4 9 3
3 8 9 4 2 1 7 5 6
3 8 7 6 9 2 4 5 1
4 6 3 7 8 2 5 1 9
8 6 4 3 1 9 2 5 7
7 8 2 4 3 6 5 1 9
5 1 2 8 7 6 3 4 9

2
Celia Hardin
Vanessa Henson
2 1
2 1
2 1
2 1
2 1
1 2
2 1
1 2
2 1
1 2
2 1
2 1
2 1
2 1
1 2
2 1
2 1
2 1
2 1
1 2
2 1
1 2
1 2
1 2
2 1
2 1
2 1
1 2
2 1
1 2
1 2
2 1
2 1
1 2
1 2
1 2
2 1
1 2

4
Delgado Shay
Tracie Rubio
Marie Hancock
Maria Hardin
4 1 2 3
3 1 2 4
2 3 1 4

6
Linda Bright
Roland North
Carla Mercer
Carla Bright
Marie Oleson
Michael Bright
3 5 6 2 1 4
2 3 5 4 6 1
3 6 1 2 5 4
2 5 6 3 1 4
6 1 2 4 3 5
3 4 6 2 1 5
2 3 6 5 4 1
1 6 4 2 3 5
5 1 6 3 2 4
6 2 5 1 4 3
6 1 4 3 2 5
6 4 3 1 5 2
4 2 5 1 3 6
6 2 4 5 3 1
5 1 4 3 6 2
6 1 2 3 5 4
2 5 6 3 1 4
2 3 4 5 6 1
4 1 6 2 5 3
4 5 6 1 2 3
4 2 5 1 3 6
1 3 4 6 5 2
3 1 4 5 6 2
3 6 1 2 5 4
4 5 6 3 2 1
4 2 3 5 1 6
3 6 1 2 5 4
5 3 4 2 6 1
1 5 4 3 6 2
4 1 2 5 3 6
2 3 5 6 1 4
3 1 5 6 2 4
1 6 4 2 3 5
6 4 1 2 3 5
2 5 4 3 1 6
1 5 6 3 4 2
3 2 4 5 1 6
1 5 4 6 2 3
3 2 6 5 1 4
6 1 5 4 2 3
1 5 3 6 4 2
5 2 4 6 3 1
2 4 1 5 6 3
4 5 1 6 3 2
1 3 2 6 4 5
5 3 1 6 2 4
6 3 2 5 4 1
2 3 6 5 4 1
2 3 5 6 1 4

1
Julian Russell
1
1
1
1
1
1
1
1
1
1
1
1
1
1
1
1
1
1
1
1
1
1
1
1
1
1
1
1

8
Linda Rivers
Erick Maynard
Larry Delgado
Larry Barber
Loretta Mead
Loretta Hardin
Floyd Mercer
Michael Livingston
4 2 6 8 1 5 3 7
4 7 2 6 1 3 5 8
6 1 5 3 2 8 4 7
1 3 6 7 5 4 2 8
1 4 2 6 5 8 3 7
3 7 8 2 6 4 1 5
7 3 5 1 2 6 8 4
4 8 5 3 1 6 7 2
1 2 7 6 4 3 5 8
7 5 8 4 3 2 6 1
5 1 4 3 2 8 6 7
8 1 3 6 2 5 4 7
5 3 1 2 8 7 6 4
8 3 2 6 4 1 5 7
8 3 4 7 2 6 1 5
7 1 4 8 6 5 2 3
7 5 4 6 1 3 2 8
5 1 3 8 6 2 7 4
3 7 2 6 5 4 8 1
7 1 6 4 2 5 8 3
4 5 1 6 2 8 3 7
4 1 7 3 5 8 2 6

4
Clark Benson
Tracie Moyer
Lindsey Dodson
Lindsey Mueller
1 4 3 2
4 2 1 3
1 4 2 3
1 3 4 2
2 1 4 3
1 3 2 4
1 3 2 4
1 2 4 3
1 4 2 3
2 3 4 1
3 1 4 2
3 1 4 2

9
Julian Moyer
Daniel Proctor
Angelina Goodwin
Erick Bright
Morgan Maynard
Larry O'Connel
Loretta Steward
Cesar Proctor
Loretta Goodwin
5 9 8 3 7 4 1 2 6
3 9 2 5 1 8 6 4 7
6 7 8 9 4 1 3 5 2
9 6 5 2 8 3 7 4 1
8 7 4 3 1 5 6 9 2
8 3 1 5 2 6 4 7 9
5 6 9 8 2 3 7 4 1
7 5 8 4 3 9 6 2 1
4 1 3 9 7 2 8 6 5
9 1 4 2 7 5 6 8 3
4 6 7 9 8 3 5 1 2

7
Floyd Maynard
Lindsey Moyer
Erick Henson
Roland Rubio
Carla Mercer
Linda Hancock
Cesar Rubio
5 6 7 3 2 4 1
7 6 4 2 1 5 3
2 5 3 7 4 1 6
4 5 2 7 3 6 1
5 3 1 6 2 4 7
1 5 6 7 2 3 4
7 6 2 1 5 3 4
4 5 7 6 2 3 1
5 4 3 6 2 1 7
2 3 4 6 1 5 7
1 7 4 5 6 2 3
5 2 3 7 4 6 1
3 7 4 2 5 1 6
2 4 1 3 6 7 5

3
Floyd Maynard
Caitlin North
Caitlin Steward
1 2 3
2 3 1
2 1 3
2 1 3
2 3 1
1 3 2
1 3 2
1 3 2
3 2 1
1 2 3
1 2 3
2 1 3
2 1 3
3 2 1
2 1 3
2 1 3
2 1 3

2
Caitlin Dodson
Linda Mercer
2 1
1 2
2 1
2 1
2 1
2 1
2 1
1 2
1 2
2 1
2 1
2 1
2 1
2 1
1 2
1 2
1 2
1 2
1 2
1 2
2 1
2 1
1 2
2 1
2 1
1 2
2 1
2 1
1 2
2 1
1 2
2 1
1 2
2 1
2 1
1 2
2 1
1 2
1 2
2 1
2 1
2 1
1 2
2 1
1 2
2 1
2 1
1 2
2 1
1 2

8
Chelsea Russell
Celia Rivers
Edward O'Connel
Maria Paul
Maria Bright
Loretta Proctor
Celia Paul
Julian Rivers
1 3 6 7 4 2 5 8
5 4 8 7 1 3 6 2
4 1 2 8 6 5 3 7
4 1 6 7 5 2 3 8
3 8 5 6 1 7 2 4
2 4 8 3 5 1 7 6
1 3 2 6 4 7 8 5
2 3 1 7 6 5 8 4
8 3 2 4 7 1 5 6

9
Floyd Hardin
Roland Shay
Maria Goodwin
Celia Livingston
Loretta Shay
Cesar Hancock
Morgan Russell
Kris Steward
Larry Russell
1 8 7 6 4 2 9 5 3
3 9 6 7 2 8 1 4 5
2 7 4 5 9 1 3 8 6
7 8 4 1 5 9 3 2 6
5 1 9 2 8 3 7 4 6
5 3 7 6 9 8 4 1 2
8 6 1 3 5 4 2 9 7
4 1 8 5 9 3 6 2 7
9 6 3 2 4 1 8 5 7
4 8 2 1 3 6 9 5 7
8 4 7 3 9 2 6 1 5
8 9 4 2 6 1 5 3 7
1 3 6 7 2 5 9 8 4
6 1 8 9 4 5 3 7 2
2 6 5 9 8 3 4 1 7
1 3 2 4 7 6 9 5 8
3 6 8 4 5 1 7 2 9
2 5 6 4 1 3 8 9 7
4 9 6 3 5 8 1 2 7
7 4 6 8 5 2 3 1 9
1 4 7 2 8 3 5 6 9
8 4 3 6 2 9 7 1 5
4 2 1 9 5 8 6 7 3
8 2 9 7 4 6 1 3 5
9 3 7 6 1 5 2 4 8
5 2 9 8 7 4 1 6 3
9 3 2 6 7 8 4 1 5
3 7 2 4 5 6 8 1 9
5 6 1 8 4 9 2 7 3

4
Lindsey Livingston
Carla Mead
Larry Proctor
Erick Mercer
3 4 1 2
4 3 2 1
3 1 2 4
4 2 3 1
1 4 2 3
1 2 3 4
1 3 2 4
1 2 3 4
2 3 1 4
4 1 2 3
1 2 3 4
2 1 3 4
3 2 4 1
2 4 3 1
3 4 2 1
3 4 1 2
4 3 1 2
1 3 4 2
4 1 2 3
3 1 2 4
3 1 2 4
4 2 1 3
2 1 4 3
1 3 2 4
3 1 4 2
3 1 4 2
2 1 4 3
3 2 1 4
3 2 1 4
2 3 4 1
1 3 4 2
4 1 3 2
3 2 4 1
3 4 2 1
4 1 3 2
4 2 1 3
2 4 1 3
3 1 4 2

6
Tracie Goodwin
Cesar Mead
Kris Oleson
Julian Paul
Maria Barber
Tracie North
2 4 6 3 5 1
4 3 1 5 2 6
1 5 6 4 2 3
4 2 1 3 5 6
3 6 1 4 5 2
2 3 4 5 1 6
1 6 2 4 3 5
1 6 4 2 5 3
2 6 5 3 1 4
5 3 2 1 4 6
5 3 6 4 2 1
4 2 1 3 5 6
6 2 1 4 3 5
2 1 3 6 5 4
1 6 2 5 3 4
1 6 2 3 5 4
4 2 6 5 3 1
2 1 6 3 4 5
2 5 4 6 3 1
5 3 2 4 1 6
6 1 3 2 4 5
3 2 4 6 5 1
4 1 2 3 5 6
1 5 2 4 6 3
5 3 1 4 6 2
3 2 5 6 4 1
4 6 2 5 1 3
6 1 3 4 5 2
3 4 2 1 5 6
6 1 4 5 3 2
5 4 2 1 3 6
2 4 6 1 3 5
3 1 6 2 4 5
1 4 2 3 5 6
6 1 4 3 5 2
1 3 4 6 5 2
5 4 2 6 1 3
4 2 1 5 3 6
4 5 2 6 1 3
4 1 3 6 5 2
1 3 5 4 2 6
4 5 6 3 1 2
2 6 3 4 5 1
2 1 6 4 3 5
5 1 4 6 2 3
3 1 4 6 2 5

8
Caitlin Dodson
Lisa Moyer
Kris Dodson
Linda Shay
Vanessa Hardin
Marie Rubio
Carla Steward
Linda Livingston
4 1 7 6 2 5 8 3
4 6 2 5 3 7 1 8
5 8 6 7 4 1 3 2
1 6 8 3 5 7 2 4
3 6 8 1 7 4 5 2
4 1 7 2 8 6 3 5
8 4 1 5 6 7 2 3
6 7 2 1 3 4 5 8
2 6 4 1 3 7 5 8
7 8 5 1 6 3 2 4
8 6 5 4 7 1 3 2
1 7 5 4 6 3 2 8
3 1 7 8 6 5 4 2
6 2 7 4 5 3 1 8
5 1 6 4 2 7 8 3
6 1 3 7 2 5 8 4
5 3 7 4 2 6 8 1
6 2 5 4 7 3 1 8
6 2 1 5 7 4 8 3
6 8 3 1 2 5 4 7
1 3 5 6 4 8 2 7
5 1 4 6 2 8 7 3
5 3 2 6 7 4 8 1
2 5 6 3 7 8 1 4
3 1 2 8 6 5 7 4
8 5 2 4 1 3 6 7
3 1 6 2 8 7 4 5
5 7 1 2 3 4 8 6
3 8 2 6 7 4 5 1
2 5 6 7 1 4 8 3
2 8 7 6 3 1 5 4
2 4 8 7 6 1 3 5
1 6 3 2 7 8 5 4
2 8 1 6 7 5 4 3
3 5 7 4 1 8 2 6
6 7 4 5 8 1 2 3
3 1 4 6 5 8 7 2
1 6 3 7 2 5 4 8
6 5 7 4 1 8 2 3

3
Linda Russell
Carla Cross
Edward Barber
3 1 2
3 1 2
3 2 1
1 2 3
3 2 1
3 2 1
2 3 1

2
Julian Jefferson
Julian Jefferson
2 1
1 2
1 2
1 2
1 2
2 1
2 1

10
Edward Livingston
Angelina Shay
Cesar Barber
Tracie Hardin
Erick Jefferson
Kris O'Connel
Edward Livingston
Kris Moyer
Linda Carver
Carla Mead
8 2 5 6 4 10 1 7 9 3
9 10 6 5 7 1 8 3 2 4
8 9 3 6 4 7 2 5 1 10
2 9 7 10 4 5 6 3 8 1
7 3 5 6 2 9 1 8 10 4
3 2 10 5 6 7 4 9 1 8
3 9 7 8 10 6 2 5 4 1
1 10 3 6 5 7 4 9 2 8
3 7 8 2 4 10 5 6 1 9
3 10 7 5 2 9 8 1 4 6
5 8 4 9 2 6 10 3 7 1
1 5 10 4 3 8 6 9 2 7
10 9 3 8 1 7 4 5 2 6

3
Kris Moyer
Linda Paul
Angelina Mead
3 1 2
2 3 1
2 1 3
3 1 2
2 1 3
1 2 3
2 1 3
1 2 3
1 3 2
1 3 2
1 3 2
3 2 1
3 2 1
3 1 2
1 2 3
1 3 2
1 3 2
3 2 1
1 3 2
2 1 3
2 3 1
1 2 3
3 2 1
1 3 2
2 1 3
3 1 2
3 2 1
1 2 3
3 1 2
1 2 3
2 3 1
2 3 1
2 3 1
3 1 2
1 2 3
2 1 3
3 1 2
1 3 2
3 1 2
1 3 2
3 2 1
3 1 2
2 3 1
3 1 2

6
Angelina Oleson
Angelina Maynard
Vanessa Oleson
Celia Steward
Marie Hancock
Marie Rivers
5 6 2 3 4 1
4 2 5 3 6 1
6 3 4 1 5 2
5 6 4 3 1 2
3 6 4 2 1 5
5 2 4 1 6 3
1 2 4 5 6 3
3 6 4 1 5 2
2 6 4 1 5 3
2 6 5 4 3 1
6 2 3 1 4 5
3 5 2 4 6 1
3 6 2 1 4 5
5 4 1 3 6 2
2 3 4 1 6 5
6 5 1 2 3 4
4 2 1 6 5 3
2 5 3 6 4 1
5 3 1 4 2 6
5 1 3 6 2 4
6 2 3 4 1 5
1 2 5 4 6 3
6 4 1 3 5 2
1 4 6 3 5 2
4 1 2 5 6 3
6 3 5 4 2 1

2
Julian Rubio
Carla Proctor
1 2
1 2
2 1
1 2
2 1
2 1
1 2
2 1
1 2
2 1
1 2
1 2
2 1
2 1
1 2
2 1
1 2
1 2
2 1
1 2
1 2
2 1
2 1
2 1

5
Marie Dodson
Tracie Goodwin
Erick Proctor
Delgado Maynard
Delgado Maynard
3 2 5 4 1
4 1 3 5 2
5 2 3 1 4
1 3 2 4 5
3 4 2 5 1
5 4 2 1 3
1 2 3 5 4
5 3 1 2 4
4 2 3 1 5
2 5 1 4 3
5 3 4 2 1
2 1 5 4 3
5 4 1 3 2
4 1 5 3 2
1 2 5 3 4
5 3 2 4 1
1 5 3 2 4
1 2 4 3 5
1 3 2 4 5
3 1 2 5 4
2 3 4 1 5
5 4 1 2 3
4 2 3 5 1
1 4 2 3 5
2 4 5 1 3
5 3 2 1 4
5 4 1 2 3
3 2 4 1 5
3 4 5 2 1
2 3 4 5 1
5 4 1 2 3
2 5 4 1 3
1 2 5 3 4
5 3 4 2 1
3 1 5 2 4
3 5 1 2 4
5 1 4 2 3
2 3 4 1 5
3 1 5 2 4
5 1 2 3 4
3 5 4 2 1
2 5 4 3 1
2 4 1 3 5
3 1 4 2 5
5 4 3 2 1

3
Caitlin Henson
Larry Mueller
Roland Benson
3 2 1
2 3 1
2 1 3
2 1 3
1 3 2
2 3 1
1 3 2
1 2 3
1 3 2
1 3 2
2 3 1
1 2 3
1 3 2
1 2 3
3 2 1
2 3 1
3 1 2
2 3 1
1 2 3
1 2 3
2 1 3
2 3 1
3 2 1
1 3 2
2 3 1
2 3 1
3 1 2
2 3 1
1 2 3
1 2 3
1 3 2
1 2 3
2 1 3
3 2 1
3 2 1
3 1 2
3 1 2
1 2 3
3 1 2
2 1 3
3 1 2
1 3 2
1 3 2
3 2 1
1 2 3
2 1 3
2 1 3
1 2 3
2 3 1
2 3 1
1 2 3
1 2 3

9
Marie Proctor
Clark Benson
Clark Hardin
Julian Carver
Roland Rivers
Kelsey Paul
Erick Mueller
Julian Hancock
Julian Bright
6 5 8 9 4 7 1 3 2
3 2 8 4 9 1 6 7 5
8 7 5 6 3 4 2 9 1
7 1 3 9 8 4 6 2 5
7 5 6 9 8 3 2 4 1
4 2 7 6 5 1 9 3 8
4 7 8 3 1 2 9 5 6
1 9 7 3 6 4 5 8 2
4 7 9 5 6 8 3 1 2
3 2 5 1 7 6 8 9 4
6 1 5 8 3 7 4 9 2
9 3 2 1 7 5 6 4 8
3 7 9 5 6 2 8 4 1
3 8 9 6 7 1 2 5 4
7 2 9 5 4 8 3 1 6
8 2 1 7 4 5 9 3 6
4 8 7 1 2 5 9 3 6
7 5 2 9 4 3 6 8 1
3 5 2 6 9 4 7 1 8
2 9 3 6 4 5 7 8 1
8 6 2 5 4 3 9 7 1
6 4 5 3 9 1 7 2 8
5 8 9 1 7 6 3 4 2
3 6 9 8 4 1 5 2 7
3 1 8 7 5 4 2 6 9
1 6 2 9 4 3 5 7 8
9 5 4 7 3 2 1 6 8
8 9 4 1 7 3 5 6 2
7 8 4 9 5 6 3 1 2
6 3 1 8 4 5 7 9 2
6 3 7 5 9 4 1 8 2
6 1 2 3 7 8 9 5 4
4 5 3 6 2 9 7 8 1
3 6 7 5 4 1 9 2 8
9 7 5 6 2 3 4 8 1
8 4 6 7 1 3 9 5 2
3 7 5 6 2 8 4 1 9
9 8 7 2 5 6 3 1 4
7 1 4 8 6 2 9 3 5
9 2 5 7 4 3 1 8 6

9
Edward Cross
Maria Steward
Clark Rivers
Celia Benson
Linda Hancock
Clark Livingston
Maria Proctor
Tracie Benson
Kelsey Benson
3 4 9 8 5 7 6 2 1
6 2 5 1 9 7 8 4 3
7 9 6 5 2 8 4 1 3
6 2 4 7 3 9 5 1 8
8 9 5 2 4 1 3 6 7
7 6 4 2 9 3 5 1 8
9 3 5 6 1 8 4 7 2
2 4 6 8 9 5 3 7 1
2 6 5 1 3 9 4 8 7
8 7 4 5 3 6 1 2 9

2
Daniel Dodson
Roland Mercer
1 2
2 1
1 2
1 2
2 1
2 1
1 2
2 1
2 1
1 2
2 1
2 1
2 1
1 2
1 2
1 2
1 2
2 1
1 2
2 1
2 1
2 1
2 1
1 2
1 2
2 1
2 1
2 1
1 2
1 2
2 1
2 1
2 1
1 2
2 1
1 2
1 2

9
Cesar Bright
Vanessa Russell
Kris Benson
Tracie Dodson
Kelsey Mead
Kris Hancock
Carla Russell
Daniel Barber
Celia Carver
8 4 1 9 6 3 7 2 5
8 7 9 3 4 2 5 1 6
9 3 6 8 1 2 7 4 5
8 4 6 5 9 1 3 2 7
6 3 2 1 9 7 4 8 5
2 4 6 9 1 7 5 3 8
9 3 4 6 1 7 8 5 2
4 2 3 7 6 8 1 5 9
4 7 5 8 2 9 3 1 6
8 1 5 7 4 2 9 3 6
3 5 8 6 2 9 4 7 1
9 8 7 2 4 6 1 3 5
1 8 5 7 2 6 4 3 9
1 2 5 7 9 3 4 6 8
9 1 6 4 7 2 5 3 8
2 4 6 9 5 7 8 1 3
4 6 5 3 7 1 2 8 9
5 8 4 3 6 1 9 7 2
9 8 7 6 4 2 5 1 3
1 4 3 2 5 9 6 8 7
2 4 7 5 3 9 6 1 8

4
Kris Steward
Clark Cross
Daniel Cross
Marie Proctor
2 4 3 1
1 3 2 4
1 3 2 4
2 3 1 4
4 3 2 1
1 3 2 4
2 3 1 4
1 3 4 2
4 2 3 1
1 4 2 3
1 3 4 2
3 4 2 1
2 3 4 1
4 3 2 1
1 4 3 2
2 1 3 4
3 4 1 2
1 3 4 2
3 2 4 1
4 2 3 1
2 3 1 4
3 4 2 1
1 4 2 3
4 1 2 3
3 2 4 1

10
Edward Dodson
Loretta Hancock
Linda Carver
Larry Rivers
Erick Mead
Cesar Paul
Cesar Dodson
Vanessa Steward
Carla Goodwin
Cesar Moyer
4 1 6 7 10 9 5 8 3 2
5 3 4 8 2 10 1 6 7 9
10 5 2 6 9 7 4 3 1 8
1 5 4 6 3 2 9 8 7 10
1 9 2 3 8 10 7 5 6 4
7 1 5 10 4 6 2 3 9 8
2 9 10 3 8 4 5 6 7 1
8 7 6 3 1 4 2 10 5 9
10 2 3 7 1 4 6 8 9 5
8 6 9 5 1 3 7 2 10 4
1 9 5 6 4 3 2 8 10 7
9 10 1 7 4 2 6 3 5 8
8 1 4 3 2 10 7 9 5 6
1 2 9 7 10 3 6 5 8 4
4 6 1 9 10 2 3 5 7 8
7 9 5 1 2 3 10 8 6 4
4 6 1 5 9 10 8 3 7 2
8 6 7 3 2 1 9 10 5 4
1 8 4 10 5 6 3 7 2 9
4 7 5 3 10 2 9 8 1 6
4 5 6 10 1 7 9 2 3 8
7 6 2 1 4 9 5 10 3 8
10 5 9 3 6 8 7 1 4 2
8 5 1 7 6 4 3 10 2 9
7 10 5 3 2 9 6 1 4 8
6 2 4 10 5 1 7 8 9 3
4 7 3 6 8 2 10 5 1 9
7 2 4 5 8 10 3 1 9 6
5 10 2 6 4 8 9 7 3 1
1 8 7 2 6 5 3 10 9 4
9 5 7 8 3 10 1 4 6 2
4 1 5 3 7 8 9 2 10 6
6 10 1 3 2 5 4 8 9 7
9 6 3 8 2 7 10 5 1 4
6 8 10 2 5 3 9 4 7 1
3 6 5 10 7 8 4 9 1 2
8 6 5 3 7 2 10 1 4 9
4 8 10 7 6 3 1 9 5 2
9 3 1 8 5 10 2 6 4 7
5 9 2 4 10 3 7 6 8 1
3 10 8 7 6 1 9 4 5 2
10 4 2 7 8 5 3 6 1 9
3 9 7 6 8 4 5 2 1 10
1 8 9 3 7 2 6 4 10 5
3 8 2 9 7 5 6 10 1 4
2 6 9 3 8 5 4 7 10 1
7 2 3 4 10 9 6 1 5 8
3 5 1 4 6 7 8 10 2 9
10 5 8 6 3 7 9 4 2 1
8 1 2 4 9 7 5 3 6 10

10
Julian Mercer
Kris Moyer
Linda Proctor
Michael Bright
Angelina Carver
Delgado Jefferson
Roland Bright
Edward Carver
Caitlin Steward
Erick Rivers
2 7 9 6 1 5 3 8 4 10
7 3 2 10 6 4 5 9 1 8
6 7 2 1 10 8 5 4 9 3
10 4 3 7 5 8 1 2 6 9
7 2 9 4 1 8 5 3 6 10
4 2 7 5 8 3 6 9 10 1
6 10 1 4 8 3 2 9 5 7
2 9 3 7 1 5 4 6 10 8
4 7 10 2 8 6 1 3 5 9
9 3 6 5 7 4 1 8 10 2
3 6 9 8 2 1 10 7 5 4
9 5 3 7 2 10 6 8 4 1
5 9 2 1 3 6 4 10 7 8
4 10 7 3 8 2 9 5 1 6
3 2 5 10 6 1 9 4 7 8
10 9 8 3 5 4 6 2 7 1
5 6 9 10 8 2 7 3 4 1
4 2 7 10 6 9 1 3 5 8
9 2 3 6 4 1 8 5 7 10
4 5 6 3 1 7 8 9 2 10
10 4 3 2 5 1 6 9 8 7
6 2 7 10 5 9 4 3 1 8
1 8 6 5 7 2 3 10 4 9
6 9 3 2 8 5 10 7 4 1
5 10 2 8 4 3 7 6 1 9
9 2 3 7 5 4 8 10 6 1
9 10 3 4 7 1 2 8 6 5
8 7 4 5 10 9 2 1 3 6
1 9 8 6 2 5 3 7 4 10
4 5 1 7 9 3 8 2 6 10
4 10 9 8 6 7 3 5 2 1
9 6 8 4 5 2 7 10 1 3
9 6 7 4 8 10 3 1 2 5
4 6 8 9 5 3 2 1 7 10
10 8 7 2 6 1 4 3 9 5
2 1 9 5 10 6 4 7 3 8
3 1 7 2 10 8 5 6 9 4
8 7 4 9 1 2 10 3 5 6
9 3 5 10 7 8 1 2 4 6
3 6 2 1 4 10 9 7 8 5
9 6 4 7 3 1 8 2 10 5
5 7 10 6 4 9 8 1 2 3
7 2 9 8 1 4 3 6 5 10
9 2 4 8 5 3 7 10 1 6
9 2 10 6 8 3 4 1 5 7
2 5 6 9 3 1 4 8 10 7
1 2 3 8 5 6 10 9 7 4
6 3 2 5 9 4 7 8 1 10
4 9 3 2 5 1 10 6 8 7
5 9 10 6 8 7 2 4 1 3
1 9 4 10 3 8 5 2 7 6
1 3 5 9 8 4 2 7 6 10

3
Morgan Dodson
Delgado Mercer
Delgado Delgado
2 1 3
2 1 3
2 3 1
3 2 1
2 3 1
2 1 3
3 1 2
3 2 1
3 2 1
2 3 1
1 3 2
3 2 1
2 1 3
2 1 3
3 2 1

10
Linda Maynard
Larry North
Maria North
Morgan O'Connel
Clark Dodson
Erick Shay
Erick O'Connel
Morgan Benson
Loretta Benson
Linda Bright
3 5 9 6 7 1 4 8 10 2
9 7 6 1 8 10 4 3 2 5
1 2 10 6 4 9 7 3 8 5
8 2 10 1 9 3 5 4 6 7
4 2 5 3 1 6 10 7 8 9
7 6 10 3 5 1 9 8 2 4
3 1 8 6 10 2 9 5 7 4
10 6 4 7 9 3 5 1 2 8
3 7 1 8 2 9 4 10 5 6
5 2 1 6 8 4 3 7 10 9
8 3 1 10 6 5 7 2 4 9
8 5 2 4 6 10 9 7 1 3
4 8 6 3 1 10 9 5 2 7
2 6 4 1 8 3 7 9 5 10
2 9 6 5 4 1 8 10 7 3
1 2 9 4 3 8 5 6 7 10
6 9 8 7 1 4 3 2 5 10
2 3 4 10 6 9 8 1 5 7
5 1 10 8 9 7 3 2 6 4
5 1 9 4 8 10 2 7 3 6
8 4 3 6 5 2 7 1 9 10
5 10 2 4 8 9 1 6 7 3
9 7 8 10 4 6 2 5 1 3
1 3 7 5 10 4 9 8 6 2
7 8 9 2 10 5 4 1 3 6
2 4 10 7 8 5 3 1 9 6
8 6 2 10 4 9 7 5 3 1
3 6 8 7 2 1 4 5 9 10
5 9 3 8 7 10 4 2 6 1
9 2 1 7 4 8 10 6 3 5
5 1 7 4 10 8 2 9 3 6
2 5 4 10 9 7 8 6 3 1
10 2 1 3 6 8 5 4 9 7
8 3 9 6 7 5 10 2 4 1
7 1 5 9 4 3 6 8 2 10
7 4 3 9 10 5 2 6 1 8
6 3 5 8 7 4 9 1 2 10
4 1 2 9 3 8 6 5 10 7
1 5 4 7 8 10 6 9 3 2
5 3 1 4 2 9 10 7 8 6
2 9 4 5 1 10 8 7 6 3
8 9 6 7 3 5 10 1 2 4
3 5 10 8 1 4 7 2 6 9
9 6 7 5 3 4 8 2 1 10
4 7 3 1 8 6 9 5 2 10

5
Daniel Dodson
Loretta Hancock
Cesar Cross
Lisa Shay
Lindsey Mead
2 5 1 4 3
3 1 5 4 2
2 3 1 5 4
2 3 5 1 4
5 1 3 4 2
1 3 2 4 5
4 5 3 2 1
3 5 4 1 2
4 3 2 1 5
1 3 4 5 2
1 3 4 5 2
1 2 4 3 5
5 1 2 3 4
5 1 3 4 2
3 1 4 5 2
5 2 1 4 3
4 5 1 2 3
4 2 5 1 3
3 1 2 5 4
3 4 5 1 2
4 1 3 5 2
3 2 4 1 5
3 4 2 5 1
1 4 3 2 5

5
Clark Mueller
Vanessa Cross
Delgado Oleson
Delgado Rivers
Delgado Oleson
4 5 2 3 1
5 1 2 4 3
3 1 4 5 2
5 2 4 3 1
4 2 1 3 5
4 2 5 3 1
4 1 3 5 2
1 2 4 3 5
3 4 2 1 5
2 4 5 1 3
5 4 3 2 1
5 3 4 2 1
5 3 4 1 2
3 2 5 4 1
3 4 2 5 1
4 2 1 3 5
1 3 2 4 5
5 3 4 1 2
5 1 2 4 3
2 3 5 4 1
3 2 1 5 4
4 3 1 5 2
4 2 1 3 5
4 3 5 1 2
2 4 1 3 5
5 1 2 4 3
5 4 3 1 2
4 3 1 2 5
2 3 1 4 5
4 5 1 2 3
4 3 1 5 2
3 5 1 4 2
3 4 1 2 5
3 4 5 2 1
3 5 4 2 1
4 5 1 2 3
4 1 3 5 2
5 3 2 1 4
3 1 5 2 4
5 1 4 2 3
4 1 5 3 2
5 2 3 1 4
1 2 3 5 4
5 3 2 4 1
1 3 2 4 5
5 4 2 1 3
5 3 2 4 1

3
Tracie Mueller
Loretta Hardin
Floyd Barber
2 3 1
1 2 3
3 2 1
3 1 2
1 3 2
2 3 1
1 3 2
1 3 2
3 1 2
2 1 3
3 1 2

3
Lindsey Hancock
Caitlin Bright
Marie Rivers
1 3 2
2 1 3
1 3 2
3 2 1
3 2 1
1 3 2
2 1 3
1 2 3
1 2 3
2 3 1
2 3 1
2 3 1
2 1 3
3 2 1
3 1 2
1 3 2
2 1 3
1 3 2
2 3 1
2 3 1
2 3 1
3 1 2
3 2 1
3 2 1
3 1 2
2 1 3
1 3 2
2 1 3
1 2 3
3 1 2

6
Tracie Paul
Lindsey Mueller
Caitlin Hancock
Morgan Proctor
Marie Dodson
Angelina Delgado
1 2 3 4 6 5
5 6 3 1 2 4
6 3 2 4 1 5
6 1 3 2 5 4
5 4 3 2 6 1
1 3 2 5 4 6
4 6 1 5 2 3
1 6 2 4 3 5
5 4 1 3 6 2
1 2 6 3 5 4
3 4 2 6 1 5
1 6 5 2 3 4
5 3 6 2 4 1
6 5 1 2 3 4
2 4 1 5 3 6
3 1 2 4 6 5
5 4 2 1 3 6
2 6 3 5 1 4
2 6 5 4 3 1
6 5 4 1 2 3
6 3 1 2 5 4
6 4 5 1 3 2
5 6 1 2 4 3
6 4 5 1 2 3
2 3 5 6 4 1
6 4 5 2 3 1
4 5 1 6 3 2
1 2 4 3 5 6
5 4 6 1 2 3
1 6 5 3 4 2
1 4 3 5 6 2
4 2 5 3 6 1
4 6 3 1 2 5
1 5 3 2 6 4
2 6 1 4 3 5
2 1 6 5 3 4

9
Edward Livingston
Caitlin Dodson
Kris O'Connel
Carla Mueller
Caitlin Hardin
Erick Steward
Michael Goodwin
Linda Barber
Larry Mead
8 9 2 6 4 7 3 1 5
1 7 5 8 3 4 6 9 2
5 2 3 7 6 1 9 8 4
8 4 5 6 3 7 2 1 9
2 9 6 8 4 5 7 1 3
6 4 9 2 1 7 3 5 8
2 8 4 6 1 5 7 3 9
4 7 8 3 1 6 5 2 9
7 6 8 2 5 1 3 9 4
1 4 7 6 5 8 9 3 2
1 9 4 7 6 5 2 8 3

5
Daniel Delgado
Cesar Russell
Chelsea Mueller
Edward Jefferson
Clark Jefferson
4 3 1 2 5
5 1 2 4 3
2 3 1 4 5
1 2 4 5 3
2 4 5 3 1
2 4 1 3 5
4 3 1 5 2
5 2 1 4 3
5 1 4 2 3
1 5 2 3 4
3 4 2 5 1
2 4 3 1 5
3 1 2 5 4
2 4 1 3 5
5 4 2 1 3
4 5 2 1 3
5 4 1 3 2
3 5 4 1 2
5 1 4 2 3
4 5 3 1 2
1 4 5 3 2
3 5 1 2 4
2 5 4 1 3
5 3 4 1 2
3 2 5 1 4
1 3 4 2 5
1 3 4 2 5

6
Larry Cross
Julian Carver
Kris Rivers
Clark Carver
Julian Oleson
Loretta Mercer
3 1 6 4 5 2
6 1 3 4 5 2
4 5 2 6 1 3
6 2 3 1 5 4
2 5 1 3 6 4
1 2 5 4 6 3
4 2 6 3 5 1
2 1 4 3 6 5
4 1 6 3 5 2
3 6 4 5 1 2
2 1 6 4 5 3
1 6 5 3 4 2
3 6 2 5 1 4
3 4 5 1 2 6
2 1 6 5 4 3
2 3 5 4 1 6
4 6 1 3 5 2
4 6 1 2 3 5
2 1 6 3 4 5
4 6 5 2 3 1
5 1 4 6 2 3
2 5 3 4 6 1
6 3 1 2 5 4
4 1 3 5 6 2
3 4 1 5 2 6
6 1 2 4 5 3
6 5 2 3 4 1
2 4 1 6 5 3
2 6 1 4 5 3
1 3 4 6 5 2
5 1 3 2 6 4
1 2 3 4 5 6
4 2 1 3 6 5
3 5 4 1 2 6
1 5 6 4 3 2
3 6 1 4 2 5
1 2 4 5 3 6
6 4 2 3 1 5
3 5 1 2 4 6
1 2 3 6 5 4
4 6 1 3 5 2
2 5 3 6 4 1
1 4 5 3 2 6
4 1 5 3 6 2
4 5 3 1 6 2
5 3 4 6 1 2
3 6 2 1 4 5
3 6 4 2 5 1
1 2 3 4 5 6
3 6 5 2 4 1
3 4 2 6 5 1
6 4 2 3 1 5
1 5 4 2 6 3
3 5 6 4 1 2

9
Erick Livingston
Floyd Rubio
Loretta Livingston
Carla Hardin
Edward North
Carla Henson
Lisa Russell
Cesar Carver
Kelsey Delgado
9 7 4 5 2 3 1 8 6
5 4 3 2 6 8 9 7 1
9 2 5 1 4 6 3 8 7
3 9 1 7 5 4 8 2 6
7 4 3 8 9 1 2 6 5
9 4 6 7 2 5 8 1 3
9 8 5 7 6 2 4 1 3
8 5 1 9 7 2 6 4 3
6 3 7 1 4 9 8 2 5
1 8 6 7 3 2 4 9 5
1 5 3 4 8 7 9 6 2
8 2 7 9 5 6 3 1 4
9 8 5 3 2 1 6 7 4
4 9 2 5 7 3 1 6 8
9 8 2 3 7 6 1 4 5
7 3 5 1 9 6 2 4 8
8 2 5 4 7 6 1 9 3
3 7 5 4 1 8 9 6 2
7 8 2 3 4 5 6 1 9
6 8 3 4 5 2 1 7 9
3 4 8 5 2 7 1 6 9
3 5 2 9 7 1 4 8 6
6 1 4 8 5 2 7 3 9
8 1 4 6 9 3 7 2 5
1 5 6 8 7 2 9 4 3
4 8 5 9 2 3 7 1 6
1 9 4 3 8 7 6 2 5
8 2 3 6 5 9 7 4 1
4 6 1 9 3 5 8 2 7
4 9 2 6 5 1 3 8 7
5 3 6 7 1 2 9 8 4
5 1 9 6 4 2 7 3 8
1 2 9 5 4 6 8 7 3
3 9 1 5 4 8 2 6 7

2
Delgado Paul
Cesar Barber
1 2
2 1
1 2
2 1
1 2
2 1
2 1
2 1
1 2
2 1
1 2
2 1

1
Tracie Oleson
1
1
1
1
1
1

6
Linda Jefferson
Cesar O'Connel
Chelsea Rubio
Lisa Hardin
Angelina Dodson
Vanessa Jefferson
4 1 3 5 2 6
1 6 5 4 3 2
2 6 5 3 1 4
1 6 2 3 4 5
2 4 5 1 3 6
3 2 1 6 5 4
3 1 5 6 4 2
3 6 1 5 4 2
6 5 3 1 2 4
2 6 1 5 3 4
3 4 1 2 5 6
1 2 6 4 3 5
5 3 4 6 2 1
2 5 6 1 3 4
3 4 5 2 1 6
6 2 3 4 1 5
3 4 1 6 2 5
6 1 3 4 2 5
1 4 5 2 6 3
3 2 4 5 6 1
3 2 5 6 4 1
6 4 1 2 3 5
1 2 4 6 3 5
3 4 5 1 2 6
2 4 6 1 5 3
5 4 2 1 6 3
5 3 6 2 1 4
2 5 4 6 1 3
2 3 6 4 1 5
3 5 1 2 6 4
2 4 6 1 3 5
5 6 3 2 4 1
5 2 1 6 4 3
5 1 6 3 2 4
2 4 6 5 3 1
3 5 4 2 6 1
6 5 2 1 3 4
6 2 4 5 3 1
5 3 1 2 6 4
6 2 4 3 1 5
4 2 6 1 5 3
5 4 6 3 2 1
1 5 6 3 4 2
5 3 2 1 6 4
3 5 1 6 2 4
5 2 1 3 6 4
5 1 2 3 6 4
5 3 4 1 6 2
1 2 3 6 4 5
6 4 5 2 1 3
2 5 1 6 3 4
2 6 3 4 1 5

1
Larry Oleson
1
1
1
1
1
1
1

6
Tracie Shay
Morgan Mueller
Chelsea Shay
Angelina North
Angelina O'Connel
Marie Rivers
6 4 5 3 2 1
2 5 4 1 6 3
5 4 2 3 6 1
4 2 3 6 1 5
2 6 5 1 4 3
5 2 4 6 3 1
4 1 3 5 2 6
3 6 1 5 4 2
3 2 4 1 6 5
6 1 4 2 5 3
1 3 4 2 5 6
1 2 6 3 4 5
1 2 3 6 4 5
2 5 3 4 6 1
6 2 3 4 5 1
5 1 4 2 6 3
6 1 2 5 3 4
5 3 4 1 2 6
5 2 6 4 1 3
1 4 5 2 6 3
2 6 4 1 3 5
3 6 4 5 1 2
3 5 4 2 1 6

3
Chelsea Shay
Delgado Proctor
Kelsey Carver
1 3 2
1 2 3

8
Cesar Jefferson
Morgan North
Maria Hancock
Linda Proctor
Lisa Oleson
Marie Hardin
Maria Hancock
Delgado Hardin
7 3 4 8 2 1 6 5
1 5 4 2 3 6 8 7
3 5 2 7 8 1 6 4
6 2 8 3 5 1 4 7
2 7 6 3 4 8 1 5
6 7 2 5 1 4 3 8
2 5 1 6 3 4 8 7
7 6 3 4 5 2 1 8
6 3 1 8 5 2 4 7
1 5 2 4 6 8 3 7
6 4 8 7 5 1 2 3
1 4 3 2 7 5 6 8
7 6 2 5 4 1 8 3
7 4 6 2 8 5 1 3
1 2 3 8 7 4 5 6
3 7 4 2 1 5 6 8
6 8 3 2 1 7 5 4
2 7 4 6 3 1 8 5
3 7 8 4 1 2 6 5
1 4 7 3 2 6 5 8
5 3 1 6 2 4 7 8
1 4 8 5 7 6 3 2
4 6 5 7 1 3 8 2
6 4 7 5 1 2 8 3
1 7 6 3 5 2 8 4
5 1 6 2 4 8 7 3
4 7 2 6 1 8 5 3
8 3 1 5 7 4 6 2
8 2 6 7 1 4 5 3
8 7 2 6 4 1 3 5
1 6 7 2 4 8 3 5
1 7 4 8 6 2 5 3
6 4 5 7 8 1 3 2
3 4 2 1 6 8 7 5
5 6 3 4 8 2 1 7
4 8 1 3 5 7 2 6
6 1 7 2 5 8 3 4
2 4 8 3 5 1 6 7
1 8 7 3 5 6 4 2
8 5 2 7 3 6 4 1
3 2 1 8 4 7 5 6
8 1 5 7 6 4 2 3
7 6 4 1 3 8 2 5
2 3 1 4 7 5 6 8
2 5 3 8 6 7 1 4
3 5 4 1 6 2 7 8
8 7 2 6 5 4 3 1
8 1 4 6 7 5 2 3
1 2 4 6 7 3 5 8
7 2 6 5 4 1 3 8
2 6 1 4 3 7 5 8

9
Angelina Barber
Floyd Henson
Loretta Barber
Carla North
Maria Steward
Morgan Rivers
Lisa O'Connel
Morgan North
Lindsey Benson
3 2 4 9 6 8 5 1 7
7 3 4 1 9 8 2 6 5
9 7 6 2 5 4 1 3 8
8 5 6 2 9 3 1 4 7
6 4 9 7 2 5 1 3 8
1 9 8 4 7 5 2 6 3
7 4 8 5 2 9 1 6 3
8 5 6 7 4 1 9 2 3
5 1 9 3 7 4 8 2 6
6 1 4 2 9 3 7 5 8
8 3 7 4 9 5 1 6 2
2 5 8 3 1 9 4 6 7
9 3 8 5 4 2 1 6 7
7 1 3 2 5 8 9 6 4
9 3 1 4 8 2 6 5 7
5 3 2 9 7 4 6 1 8
3 8 1 4 5 2 6 9 7
7 4 8 5 6 9 1 3 2
5 6 7 2 4 9 3 1 8
7 8 3 6 5 4 9 1 2
7 4 8 6 9 5 3 2 1
4 8 3 7 6 1 2 9 5
5 8 2 6 3 1 7 9 4
7 1 4 3 8 5 9 2 6
6 4 5 8 9 7 1 2 3
1 3 4 7 8 6 5 2 9
6 1 9 4 3 8 2 5 7
8 9 3 1 5 7 4 6 2
9 5 1 4 2 7 6 8 3
9 7 2 8 1 5 4 6 3
8 2 4 6 7 1 5 3 9
2 1 8 3 4 9 5 6 7
8 1 7 6 2 9 5 3 4
4 7 5 2 8 6 1 3 9
7 2 6 1 5 3 9 4 8
6 1 7 9 5 4 3 8 2
3 4 8 9 7 6 5 1 2
3 4 1 9 2 6 8 7 5
3 2 7 6 8 4 1 9 5
4 6 5 1 7 9 8 2 3
8 1 7 4 5 6 3 2 9
6 4 1 9 7 3 2 5 8
6 4 7 5 8 2 3 1 9
1 9 8 6 2 5 3 4 7
5 4 9 7 8 2 3 6 1
9 5 3 7 1 4 2 8 6
4 2 6 5 9 3 8 7 1
8 9 3 6 7 5 1 2 4
8 2 5 9 4 3 1 7 6
8 9 1 7 2 3 4 5 6
8 1 3 9 6 4 5 2 7
3 2 6 4 1 7 5 8 9

7
Clark Steward
Julian Goodwin
Cesar Moyer
Kris Proctor
Caitlin Mercer
Loretta Moyer
Kelsey Mercer
6 5 3 7 1 2 4
6 1 5 2 3 7 4
1 5 6 3 4 7 2
5 6 2 1 4 7 3
1 2 6 3 7 4 5
1 7 2 3 6 4 5
2 5 6 1 7 4 3

2
Kris Goodwin
Maria Maynard
2 1
2 1
1 2
2 1
2 1
1 2
1 2
2 1
1 2
1 2
2 1
1 2
2 1
2 1
1 2
1 2
2 1
1 2
2 1
2 1
2 1
1 2
2 1
1 2
2 1
1 2
1 2
1 2
1 2

10
Morgan Cross
Edward Proctor
Lindsey Moyer
Kris Benson
Erick Dodson
Celia Mead
Erick Moyer
Morgan Rubio
Angelina Hardin
Floyd Rubio
3 5 7 8 1 2 10 6 4 9
1 8 9 5 2 6 3 10 7 4
10 3 4 2 7 9 8 5 6 1
2 5 6 3 9 4 8 7 10 1
2 3 8 4 6 9 10 5 1 7
10 8 1 6 3 9 5 4 7 2
5 1 7 6 8 3 10 9 4 2
8 3 9 1 10 4 6 7 5 2
4 7 2 1 6 3 9 8 10 5
9 5 7 10 4 1 2 8 3 6
4 5 1 7 8 9 2 3 6 10
1 4 3 5 10 7 8 2 6 9
6 2 7 1 4 9 10 8 3 5
10 5 4 6 1 8 7 3 9 2
3 8 7 10 2 5 4 6 9 1
2 4 1 9 7 8 10 3 5 6
6 10 4 5 1 2 3 9 8 7
3 5 10 4 9 8 2 1 6 7
1 7 10 2 6 3 8 5 4 9
10 9 2 7 5 1 4 6 3 8
2 8 4 1 5 6 9 10 3 7
10 6 2 9 8 7 1 5 3 4
1 10 6 7 4 3 9 5 2 8
1 8 7 5 10 3 6 4 9 2
4 6 1 9 5 7 3 2 10 8
8 6 4 1 5 7 3 2 10 9
5 2 10 3 7 9 8 4 1 6
6 8 3 7 4 1 9 2 10 5
9 5 1 3 10 7 2 6 4 8
2 4 8 9 7 5 1 6 3 10
10 8 5 6 3 7 9 2 1 4
7 4 10 5 9 3 6 1 8 2
4 8 10 1 5 2 9 6 3 7
6 7 10 3 4 9 2 1 8 5
4 2 1 6 9 5 8 3 7 10
10 2 7 4 9 8 6 1 3 5
8 2 4 1 10 5 7 9 6 3
8 9 10 1 7 6 2 3 4 5
7 8 3 6 9 1 10 4 5 2
5 10 3 9 7 8 4 2 1 6
4 5 1 10 3 8 2 7 6 9
10 6 5 4 3 9 7 1 2 8
10 7 8 4 2 9 3 6 5 1
10 8 3 2 5 4 1 7 9 6
7 5 3 4 10 1 9 2 6 8

2
Vanessa Hancock
Kris Hancock
2 1
1 2
2 1
2 1
1 2
1 2
1 2
2 1
1 2
2 1
1 2
2 1
1 2
2 1
1 2
1 2
2 1
1 2
2 1
1 2
1 2
1 2
2 1
1 2
1 2
1 2
2 1
2 1
1 2
1 2
2 1
1 2
2 1
2 1
2 1
1 2
1 2
1 2
1 2
1 2
1 2
2 1
1 2
2 1

4
Celia Maynard
Chelsea North
Floyd Carver
Larry Hardin
3 4 1 2
1 2 4 3
3 1 2 4
3 1 2 4
1 3 2 4
3 2 1 4
1 4 2 3
3 1 4 2
3 2 1 4
1 3 4 2
2 3 1 4
4 2 1 3
3 1 4 2
1 4 2 3
2 4 3 1
1 4 2 3
1 4 2 3
4 2 3 1
1 4 2 3
4 3 2 1
1 2 3 4
3 4 1 2
1 2 3 4
1 4 2 3
4 3 2 1
4 1 3 2
3 4 2 1
4 1 2 3
2 3 4 1
3 2 1 4
1 4 2 3
2 3 1 4
4 3 1 2
4 1 2 3
2 1 3 4
3 4 1 2
2 3 1 4

8
Michael Moyer
Michael Delgado
Clark Cross
Daniel Mueller
Kelsey Mueller
Erick Russell
Clark Russell
Floyd Delgado
4 7 3 1 6 8 2 5
7 6 3 2 5 4 1 8
7 4 5 1 3 2 6 8
7 4 6 2 8 5 3 1
4 8 7 6 1 5 3 2
4 2 1 7 8 5 6 3
1 2 3 7 4 6 8 5
4 7 5 2 8 6 3 1
1 3 2 6 8 5 4 7
7 3 8 4 1 2 5 6
1 8 6 5 2 7 4 3
5 3 7 4 8 6 1 2
5 1 3 4 6 7 2 8
1 2 8 6 3 4 5 7
1 5 4 2 8 7 3 6
4 7 8 3 5 1 6 2
7 6 2 1 3 5 4 8
7 3 8 2 5 4 6 1
3 2 8 7 4 5 6 1
5 2 7 8 6 4 1 3
2 8 5 3 7 1 4 6
5 1 4 3 7 8 2 6
8 5 1 7 2 4 6 3
2 5 1 6 4 7 3 8
7 8 2 1 5 6 4 3
2 7 6 8 3 5 1 4
4 8 5 7 1 6 2 3
6 5 3 7 8 2 1 4
8 2 3 6 5 7 4 1
5 7 4 2 6 1 8 3
8 1 7 3 2 5 4 6
5 3 8 6 7 2 4 1
4 3 5 8 7 6 2 1
4 2 7 5 1 6 8 3
1 7 4 8 3 5 6 2
3 5 1 6 8 7 2 4
8 3 5 1 2 6 4 7
2 3 7 5 4 8 1 6
4 5 8 7 6 1 3 2
5 8 3 7 1 4 6 2
3 6 5 2 8 4 1 7
7 2 4 8 1 3 5 6
2 8 3 7 1 6 4 5

1
Caitlin Delgado
1
1
1
1
1
1
1

6
Cesar Shay
Kris Moyer
Tracie Moyer
Cesar Mead
Celia Hancock
Angelina Hancock
3 2 5 6 1 4

5
Morgan Livingston
Edward Rivers
Erick Rivers
Daniel Jefferson
Roland Maynard
5 2 1 3 4
1 2 5 4 3
4 5 2 1 3
2 1 5 4 3
2 4 3 5 1
2 4 5 1 3
3 2 4 1 5
4 1 2 5 3
4 3 2 5 1
4 2 5 3 1
3 5 4 2 1
5 4 1 3 2
4 1 5 3 2
4 3 1 2 5
2 4 3 1 5
5 2 4 3 1
2 5 4 3 1
1 5 3 2 4
4 1 2 3 5
3 1 4 2 5
1 3 5 2 4
2 4 5 1 3
1 3 2 5 4
1 4 2 3 5
5 1 3 4 2
2 5 3 1 4
1 2 4 5 3
1 4 5 2 3
2 3 5 4 1
2 5 4 1 3
4 3 1 2 5
1 2 3 4 5
3 5 4 2 1
3 4 5 1 2
2 5 3 4 1
1 4 2 3 5
3 5 4 1 2
3 1 2 4 5
4 1 5 2 3
1 3 2 4 5
2 4 5 3 1
1 2 4 3 5
2 5 3 1 4
5 3 4 2 1
4 1 3 2 5
3 1 2 4 5
3 1 2 4 5
4 5 3 2 1
3 1 5 2 4

10
Edward Barber
Tracie O'Connel
Michael Paul
Kris Rubio
Lisa Benson
Floyd O'Connel
Daniel Proctor
Morgan Henson
Chelsea North
Maria Delgado
9 3 7 2 8 5 4 6 1 10
6 2 3 4 5 7 10 8 1 9
1 5 4 10 8 9 2 7 3 6
9 6 3 5 2 10 4 7 1 8
5 6 7 1 8 3 10 9 2 4
9 6 1 10 5 8 3 4 7 2
8 9 7 6 1 2 10 3 4 5
7 8 10 9 2 3 5 6 4 1
7 8 2 3 6 9 1 10 4 5
1 7 6 10 4 9 3 5 8 2
2 3 6 5 8 1 4 7 9 10
3 10 7 6 8 9 2 1 4 5
8 3 6 9 2 5 10 4 1 7
6 1 5 9 7 8 4 2 3 10
1 7 9 6 8 5 4 2 3 10
9 6 8 1 7 3 4 5 10 2
2 6 9 10 7 8 1 5 3 4
5 1 8 3 9 4 2 7 10 6
1 2 10 5 9 8 4 7 6 3
7 4 2 1 3 10 8 9 6 5
7 8 10 2 5 1 6 3 4 9
4 7 9 6 2 3 5 1 8 10
5 10 2 8 6 4 7 9 1 3
2 4 7 5 6 8 1 10 3 9
1 7 10 5 9 8 2 6 4 3
4 10 5 6 7 1 3 2 9 8
6 4 3 1 7 5 10 8 2 9
9 7 6 5 3 2 1 8 10 4
6 9 5 7 8 4 1 2 10 3

2
Vanessa Mead
Caitlin Barber
2 1
2 1
2 1
2 1
2 1
2 1
1 2
1 2
2 1
1 2
1 2
1 2
1 2
1 2
1 2
1 2
1 2
2 1
2 1
2 1
2 1
2 1
2 1
2 1
2 1
1 2
2 1
2 1
1 2
1 2
2 1
1 2
2 1
1 2
1 2
2 1
1 2
2 1
2 1
1 2
1 2
2 1
1 2
2 1
1 2
2 1
1 2
1 2
1 2
2 1
2 1

3
Clark Proctor
Julian Mueller
Linda Jefferson
1 2 3
2 1 3
3 1 2
3 2 1
3 1 2
2 3 1
3 2 1
1 2 3
2 1 3
1 2 3
1 3 2
1 2 3
2 1 3
1 2 3
2 3 1
2 1 3
3 2 1
3 1 2
3 2 1
1 3 2
2 3 1
3 1 2
1 2 3
1 2 3
1 3 2
2 1 3
3 1 2
2 3 1
3 2 1
2 3 1
2 1 3
2 1 3
2 1 3

10
Cesar Carver
Caitlin Benson
Erick Shay
Cesar Steward
Larry Proctor
Loretta Delgado
Vanessa Mead
Maria Hardin
Tracie Moyer
Kelsey Mercer
6 8 9 5 4 2 10 1 7 3
9 10 7 8 5 3 2 4 6 1
5 10 9 1 2 3 4 7 8 6
9 8 3 10 2 1 7 4 6 5
4 6 7 9 2 8 3 5 10 1
2 9 6 1 8 7 5 3 4 10
9 4 1 10 8 5 3 6 2 7
5 8 3 2 10 7 9 4 1 6
2 6 7 10 4 8 3 1 5 9
3 10 6 1 4 9 7 8 2 5
10 2 1 7 8 4 5 9 3 6
2 5 1 3 10 7 9 6 4 8
2 4 1 6 3 10 8 5 9 7
8 6 1 3 5 2 10 7 9 4
4 3 2 5 9 7 8 6 10 1

8
Marie North
Caitlin Carver
Cesar Rubio
Kris Livingston
Kris Bright
Kris Hancock
Tracie Proctor
Chelsea Mead
6 5 3 7 4 2 8 1
2 7 1 8 5 4 3 6
4 6 8 2 5 3 1 7
1 5 3 8 7 4 6 2
6 3 7 8 1 4 5 2
3 4 1 7 5 2 6 8
4 1 8 3 2 6 7 5
8 1 7 4 6 5 3 2
5 6 4 8 3 1 2 7
7 5 4 1 6 3 8 2
8 6 5 4 3 7 2 1
1 3 6 5 8 4 7 2
8 3 1 5 7 4 6 2
8 5 4 6 7 3 1 2
1 6 7 4 5 3 2 8

1
Carla Steward
1
1
1
1
1
1
1
1
1
1
1
1
1
1
1
1
1
1
1
1
1
1
1
1
1
1
1
1
1
1
1
1
1
1
1
1
1
1
1
1
1
1
1
1

1
Linda Bright
1
1
1
1
1

5
Linda Steward
Lisa Rivers
Lisa Rubio
Michael North
Lindsey Mueller
2 3 4 1 5
1 5 3 4 2
4 3 5 1 2
1 2 5 3 4
2 1 3 4 5
4 3 2 5 1

1
Lisa Steward
1
1
1
1
1
1
1
1
1
1
1
1
1
1
1
1
1
1
1
1
1
1
1
1
1
1
1
1
1
1
1

5
Michael Livingston
Marie Delgado
Clark Maynard
Morgan Goodwin
Roland Hancock
1 3 5 4 2
4 1 5 3 2
4 3 2 1 5
1 4 2 5 3
4 2 5 3 1
4 3 2 5 1
1 2 4 5 3
4 5 1 2 3
3 2 4 5 1
5 1 3 4 2
5 4 3 1 2
5 3 1 4 2
1 5 2 4 3
5 2 4 3 1
3 5 1 2 4
3 4 1 5 2
2 3 5 1 4
4 2 1 3 5
4 2 1 5 3
5 2 1 3 4
1 5 3 2 4
2 4 3 1 5
3 5 2 1 4
5 1 3 2 4
3 5 1 2 4
4 1 5 2 3
5 2 4 1 3
5 1 4 3 2
2 4 1 3 5
2 1 3 4 5
3 2 5 1 4
3 5 1 2 4
4 5 1 2 3
5 1 2 4 3
1 5 2 4 3
3 1 4 2 5
5 4 2 3 1

10
Floyd Benson
Maria Cross
Michael Rubio
Michael Carver
Lindsey Benson
Loretta Proctor
Loretta Oleson
Tracie Rubio
Marie Delgado
Linda Rubio
9 10 3 4 5 7 1 2 8 6
10 8 7 6 2 1 3 5 9 4
9 1 3 6 4 10 7 5 8 2
4 7 1 6 9 10 3 2 8 5
1 7 2 3 9 5 8 6 4 10
8 4 10 7 2 5 3 6 9 1
1 6 5 4 9 3 8 2 7 10
1 8 7 2 3 6 9 10 5 4
2 7 6 5 8 10 3 9 1 4
10 8 7 9 5 3 4 2 6 1
1 10 8 2 5 6 9 3 4 7
3 2 5 10 9 4 6 8 1 7
6 10 4 2 3 7 8 5 9 1
1 3 2 5 7 8 6 9 4 10
10 2 3 1 6 5 7 8 4 9
5 1 3 2 9 6 7 4 10 8
10 3 8 7 4 9 5 1 2 6
10 9 1 5 8 3 6 2 4 7
1 5 6 4 9 7 10 2 8 3
8 7 3 5 9 1 10 6 2 4
5 10 2 6 7 9 8 3 1 4
3 9 10 5 4 2 1 8 7 6
2 1 6 8 4 7 5 9 10 3
10 9 2 5 4 1 6 8 7 3
5 9 1 8 10 6 4 7 2 3
3 8 5 1 4 7 2 6 10 9
1 2 9 7 10 3 5 6 4 8
7 9 10 5 8 4 1 6 3 2
3 2 8 4 10 9 5 1 6 7
10 3 7 6 1 4 5 9 8 2
7 10 4 9 3 5 1 6 8 2
4 8 5 3 6 2 9 7 1 10
4 10 8 2 6 5 9 1 3 7
2 10 9 3 4 8 7 1 5 6
5 7 8 2 6 4 1 9 3 10
7 8 10 4 6 5 2 1 3 9
1 9 8 7 6 4 2 3 5 10
5 1 3 9 8 4 6 7 2 10
1 9 4 6 7 5 10 8 3 2

4
Caitlin Mercer
Daniel Barber
Roland Russell
Linda Proctor
2 3 4 1
4 1 2 3
2 1 4 3
1 2 4 3
2 1 3 4
4 2 1 3
4 1 3 2
4 1 3 2
1 2 4 3
4 1 3 2
4 3 2 1
2 1 3 4
3 1 2 4
4 2 3 1
3 4 2 1
4 2 1 3
4 1 2 3
4 1 3 2
3 2 4 1
2 4 3 1
3 2 1 4
2 3 1 4
4 1 2 3
2 4 3 1
4 1 3 2
1 2 3 4
1 4 3 2
4 2 3 1
2 3 1 4
4 2 1 3
2 1 4 3

9
Cesar Benson
Cesar Mead
Michael Goodwin
Daniel Goodwin
Maria Livingston
Carla Cross
Tracie Cross
Lindsey Russell
Kelsey Jefferson
3 6 2 1 5 4 7 8 9
9 7 4 6 8 3 2 5 1
5 2 6 1 8 4 9 7 3
7 1 4 9 2 6 8 3 5
3 2 4 6 8 9 5 1 7
1 8 5 7 2 4 6 3 9
4 9 7 8 3 2 1 6 5
8 3 9 6 1 2 7 4 5
3 5 4 7 1 6 2 8 9
7 9 1 5 3 4 2 6 8
8 1 4 9 7 5 3 2 6
1 9 2 4 3 5 6 8 7
3 7 8 1 5 6 9 2 4
7 1 9 6 2 4 8 5 3
2 4 5 7 9 6 1 3 8
4 2 7 3 8 5 1 6 9
4 6 2 7 1 8 9 3 5
5 8 6 7 4 9 1 3 2
3 1 6 7 2 8 5 9 4
5 6 8 7 9 2 3 1 4
4 5 6 8 2 9 7 1 3
4 3 8 9 5 6 1 7 2
7 2 6 1 3 9 5 4 8
2 9 7 5 8 4 3 6 1
3 5 4 9 2 1 8 7 6
6 2 9 8 5 4 7 3 1
3 7 4 5 9 6 8 2 1
9 4 5 3 7 2 1 8 6
4 5 2 1 6 8 3 9 7
5 1 8 7 3 2 4 9 6
1 9 5 8 2 4 3 6 7
2 6 1 7 5 8 4 3 9

3
Michael North
Celia Goodwin
Caitlin Goodwin
3 2 1
3 1 2
1 2 3
1 2 3
3 2 1
1 2 3
2 1 3
1 3 2
3 2 1
3 2 1
2 3 1
1 3 2
2 3 1
3 2 1
2 3 1
1 2 3
1 3 2
2 1 3
2 3 1
1 2 3
1 2 3
3 2 1
3 1 2
2 1 3
3 2 1
2 3 1
2 1 3

3
Carla Henson
Clark Maynard
Kelsey Rubio
2 3 1

5
Celia Paul
Larry Oleson
Tracie Carver
Loretta O'Connel
Edward Hancock
4 5 2 1 3
3 1 4 2 5
1 4 2 3 5
1 5 3 4 2
2 3 5 1 4
5 2 4 1 3
1 3 2 5 4
5 4 3 2 1
3 1 4 5 2
4 1 5 3 2
5 4 1 2 3
4 2 5 3 1
1 3 4 2 5
1 5 2 3 4
4 1 5 3 2
1 3 2 5 4
4 5 3 2 1
5 4 1 3 2
1 4 2 3 5
5 1 4 2 3
3 5 1 4 2
4 2 5 3 1
5 1 2 4 3
5 1 3 4 2
1 3 4 5 2
4 3 2 5 1
1 3 5 2 4
2 5 4 3 1
2 5 1 4 3
3 4 2 5 1
2 3 1 4 5
2 4 1 3 5
4 5 1 2 3
2 4 3 5 1
1 3 5 2 4
4 1 5 2 3
3 2 1 4 5
3 2 4 1 5
2 1 3 5 4
4 5 2 3 1
4 1 2 3 5
3 1 4 2 5
1 3 2 4 5
3 1 5 4 2
5 4 3 2 1
2 5 3 1 4
3 4 5 1 2
2 4 5 3 1
1 2 3 4 5
3 4 1 2 5
4 5 3 2 1
3 1 2 4 5
3 1 4 2 5

10
Maria Hardin
Edward Bright
Celia Benson
Larry Mueller
Daniel Barber
Clark Rubio
Kelsey Paul
Tracie North
Linda Henson
Vanessa Dodson
7 9 2 1 10 6 8 3 5 4
1 9 3 7 6 4 8 10 5 2
1 2 10 7 3 5 6 9 4 8
3 7 8 10 5 1 6 2 9 4
1 3 4 10 8 9 2 7 6 5
3 8 1 6 9 10 4 2 7 5
2 4 7 10 8 5 6 1 9 3
2 9 1 6 5 3 8 4 7 10
9 3 5 2 10 7 6 1 4 8
6 3 8 1 9 7 10 4 2 5
6 3 5 9 10 7 8 1 2 4
2 1 9 10 6 7 3 4 5 8
7 10 3 2 5 1 9 6 4 8
8 2 7 9 10 5 4 1 3 6
6 9 3 7 10 5 4 2 1 8
4 7 5 6 2 9 10 8 3 1
5 4 2 7 6 9 10 1 3 8
2 5 1 4 6 7 10 8 3 9

3
Floyd Moyer
Clark Dodson
Carla North
1 2 3
3 2 1
3 2 1
2 1 3
2 3 1
3 1 2
1 2 3
2 3 1
3 2 1
2 1 3
2 3 1
3 2 1
1 3 2
3 1 2
3 1 2
3 1 2
2 1 3
3 1 2
2 3 1
1 2 3
1 3 2
1 2 3
1 3 2
2 1 3
3 2 1
1 2 3
1 3 2
3 1 2

9
Daniel Oleson
Chelsea Moyer
Kris Paul
Caitlin Moyer
Larry Mercer
Erick Rubio
Larry Russell
Marie Russell
Vanessa Cross
1 4 5 9 8 6 7 3 2
2 7 5 4 8 1 9 3 6
6 4 1 9 3 8 5 7 2
6 3 4 8 1 5 2 9 7
9 5 3 8 6 7 4 1 2
3 9 5 4 1 8 2 6 7
1 5 9 7 3 4 2 8 6
7 5 1 3 2 9 6 4 8
5 1 2 4 3 9 6 8 7
8 4 2 7 6 5 1 3 9

1
Lisa Hardin
1
1
1
1
1
1
1
1
1
1
1
1
1
1
1
1
1
1
1
1
1
1
1
1
1
1
1
1
1
1
1
1
1
1
1
1
1
1
1

6
Caitlin Barber
Linda Paul
Kris Shay
Edward Barber
Morgan Mueller
Morgan Hancock
3 2 4 6 1 5
2 1 3 6 5 4
4 5 2 3 1 6
2 1 4 3 6 5
1 5 6 2 4 3
3 5 1 2 4 6
4 1 5 3 2 6
4 6 3 2 5 1
3 4 5 2 1 6
4 6 5 2 1 3
6 5 3 1 2 4
6 2 3 1 5 4
2 4 6 3 5 1
2 5 1 6 4 3
2 1 4 6 3 5
6 4 1 5 2 3
2 6 1 4 5 3
2 6 4 3 1 5
1 6 4 3 5 2
6 3 2 1 5 4
3 2 5 4 1 6
2 3 1 5 4 6
2 1 5 3 6 4
2 4 1 5 6 3
6 1 2 5 3 4
4 3 6 5 2 1
2 4 5 1 3 6
3 2 6 4 5 1
1 4 2 5 3 6
3 4 5 6 2 1
5 2 4 1 3 6
6 1 5 2 3 4
3 1 4 6 5 2
4 6 3 1 2 5
2 1 3 5 6 4
5 3 2 1 6 4
2 1 5 4 6 3
3 1 4 5 2 6
2 5 6 4 1 3
1 5 6 3 4 2
2 1 6 3 5 4
2 4 1 6 3 5
5 3 1 4 2 6
2 3 6 1 4 5
5 6 1 3 2 4
1 3 5 6 2 4
1 2 6 3 4 5
4 1 6 3 2 5
4 6 5 1 3 2

6
Delgado O'Connel
Morgan Jefferson
Delgado Cross
Larry Russell
Kelsey Hancock
Tracie Henson
1 6 2 5 3 4
4 3 2 5 1 6
4 6 2 1 5 3
3 6 1 5 2 4
3 6 5 1 2 4

3
Delgado Mead
Larry Bright
Clark Rivers
3 1 2
2 3 1
2 1 3
1 3 2
2 3 1
3 1 2
3 1 2
3 1 2
3 2 1
3 1 2
1 3 2
2 3 1
1 2 3
1 2 3
2 3 1
1 2 3
3 1 2
3 2 1
3 1 2
2 1 3
2 3 1
3 2 1
3 2 1
2 1 3
3 1 2
3 1 2
1 3 2
3 2 1
3 1 2
2 3 1
3 1 2
3 2 1
3 1 2
3 1 2
2 3 1
1 2 3
3 2 1
2 1 3
1 2 3
3 1 2
2 1 3
3 1 2
3 2 1
3 2 1
2 3 1
1 3 2
2 3 1
3 2 1
2 3 1
2 1 3
3 1 2
1 2 3
2 3 1
3 2 1

7
Floyd Rivers
Linda Livingston
Marie Cross
Tracie Rivers
Loretta Jefferson
Lisa Steward
Morgan Jefferson
5 4 6 2 1 3 7
2 3 6 4 5 1 7
1 4 3 6 7 5 2
4 5 2 7 6 1 3
5 6 1 2 7 3 4
5 7 2 6 1 3 4
7 6 1 5 4 2 3
7 1 4 2 6 5 3
5 1 2 3 6 7 4
5 6 3 2 4 7 1
6 7 2 5 4 3 1
4 3 7 2 6 1 5
1 7 6 4 5 3 2
2 1 5 7 4 6 3
2 3 4 5 7 1 6
1 4 7 3 5 6 2
6 3 4 7 2 1 5
2 6 7 4 3 5 1
6 1 3 2 7 5 4
4 6 1 7 3 5 2
5 7 3 1 6 4 2
1 7 2 3 4 6 5
7 4 6 5 3 1 2
5 1 6 4 3 2 7
5 7 4 2 6 1 3
3 6 2 7 5 1 4
6 2 4 3 5 7 1
6 1 3 7 4 2 5
2 3 5 7 1 6 4
4 1 3 5 6 7 2
6 2 5 4 3 7 1
4 6 1 7 3 5 2
3 5 2 6 7 4 1
5 7 6 3 1 4 2
5 1 6 2 4 7 3
3 5 6 2 1 7 4

7
Kelsey Rubio
Caitlin Carver
Angelina Livingston
Larry Dodson
Edward O'Connel
Chelsea Steward
Celia Benson
6 4 5 7 2 1 3
3 1 4 5 6 7 2
1 3 4 5 2 7 6

6
Marie North
Kris Mueller
Loretta Mercer
Delgado Mercer
Daniel Jefferson
Chelsea Carver
4 5 6 2 1 3
2 4 5 3 6 1

1
Daniel Steward
1
1
1
1
1
1
1
1
1
1
1
1
1
1
1
1
1
1
1
1
1
1
1
1
1
1
1
1
1
1
1
1
1
1
1
1
1
1
1
