82

10
Clark Goodwin
Michael Rubio
Larry Carver
Julian Maynard
Linda Livingston
Floyd Mueller
Erick Cross
Loretta Goodwin
Linda Rubio
Linda O'Connel
3 1 8 5 10 4 9 6 7 2
4 7 10 5 8 3 6 1 9 2
3 4 7 10 8 2 5 6 9 1
7 2 1 8 3 6 4 9 5 10
7 3 10 6 9 5 2 8 1 4
8 6 7 1 9 4 5 2 3 10
4 1 3 6 2 5 9 7 8 10
10 1 7 8 9 2 5 4 3 6
5 4 8 2 3 1 9 7 6 10
9 1 4 7 8 3 6 5 2 10
2 8 9 10 1 5 3 4 7 6
8 3 9 4 10 6 1 5 2 7
3 1 10 2 8 7 5 6 4 9

1
Chelsea Proctor
1
1
1
1
1
1
1
1
1
1
1
1
1
1
1
1
1
1
1
1
1

8
Julian Delgado
Morgan Livingston
Caitlin Rubio
Clark Hancock
Erick Dodson
Celia Hancock
Edward Maynard
Vanessa Livingston
8 1 3 6 7 2 5 4
1 2 6 3 7 8 5 4
7 6 5 3 1 2 4 8
5 8 4 1 2 7 3 6
5 4 8 2 1 6 3 7
7 3 8 5 6 2 1 4
2 7 8 1 5 4 3 6
2 7 1 3 8 5 4 6
6 1 4 7 8 5 3 2
2 5 6 7 8 1 4 3
4 7 5 2 3 8 6 1
2 8 5 6 4 3 7 1
5 8 3 7 6 4 2 1
3 6 2 5 7 4 1 8
3 4 7 1 8 6 2 5
3 4 1 7 8 2 6 5
4 8 2 6 7 5 3 1
1 5 7 3 4 6 2 8
3 2 1 5 6 4 7 8
1 6 2 8 5 4 3 7
2 8 5 7 4 3 6 1

5
Marie Rubio
Erick Livingston
Lisa Benson
Clark Proctor
Celia Mueller
5 4 2 1 3
2 5 4 1 3
2 5 1 4 3
3 5 2 1 4
2 1 5 3 4
4 5 3 2 1
5 2 4 3 1
2 3 4 5 1
4 3 5 1 2
1 5 4 3 2
4 2 3 1 5
4 1 5 3 2
2 3 5 1 4
1 2 3 5 4
4 5 1 2 3
1 4 3 5 2
2 1 4 3 5
2 4 5 3 1
4 3 1 5 2
5 3 1 4 2
4 1 2 3 5
1 4 3 2 5
1 3 4 5 2
1 2 3 4 5
1 4 2 3 5
5 4 1 3 2
5 1 2 3 4
4 1 5 3 2
4 5 3 2 1
4 2 5 3 1
5 2 1 4 3
3 5 2 1 4
5 3 2 1 4
4 1 5 2 3
2 1 3 5 4
3 1 2 4 5
5 3 1 2 4
4 2 1 3 5
2 5 3 4 1
4 5 3 2 1
2 4 1 3 5
1 3 5 2 4
2 4 5 3 1
2 1 4 3 5
2 5 1 3 4
4 2 5 1 3
2 4 1 5 3
1 4 2 5 3
3 1 5 2 4
1 4 5 2 3
4 5 3 1 2
5 3 4 1 2
5 3 2 4 1
4 5 1 3 2
3 5 2 4 1
2 5 1 4 3
4 2 1 5 3
1 4 3 5 2
5 1 2 4 3
3 2 4 1 5
4 5 3 2 1
5 2 4 1 3
2 4 1 5 3
3 5 4 1 2
5 2 1 3 4
3 5 1 2 4

10
Morgan Maynard
Larry O'Connel
Roland Hancock
Lindsey Bright
Larry North
Floyd Benson
Cesar Paul
Kelsey Rivers
Loretta Rubio
Kelsey Delgado
4 9 5 3 6 10 7 2 8 1
8 1 5 9 4 6 7 3 2 10
5 3 6 4 10 9 8 7 1 2
6 10 1 5 4 2 9 7 8 3
4 6 3 5 1 2 9 7 10 8
7 3 5 6 4 10 1 8 9 2
5 10 9 2 4 3 1 8 7 6
5 1 3 6 7 8 10 4 9 2
9 1 10 5 7 6 3 2 8 4
8 3 1 5 2 4 9 6 7 10
3 2 9 8 10 6 7 1 5 4
1 9 10 7 4 2 3 6 5 8
6 1 10 2 9 3 4 5 7 8
2 7 3 10 1 6 4 8 9 5
6 3 4 9 10 5 8 1 2 7
2 5 4 9 7 10 1 6 8 3
3 1 10 5 8 4 2 6 7 9
8 10 9 7 1 5 4 2 6 3
8 5 7 6 1 10 2 4 9 3
5 2 10 6 4 7 1 9 3 8
4 6 8 9 2 3 10 1 7 5
2 8 10 5 6 9 7 3 1 4
2 7 8 3 10 1 4 6 5 9
2 6 7 9 8 4 3 5 1 10
7 3 4 2 5 6 1 10 9 8
3 1 6 9 7 10 5 4 2 8
1 6 5 7 10 8 9 3 4 2
4 3 1 2 8 5 10 6 9 7
8 7 1 10 9 5 3 6 2 4
6 8 5 9 3 7 2 1 4 10
5 9 1 7 4 10 3 6 8 2
5 2 3 8 9 6 10 1 7 4
3 2 1 5 10 8 6 9 7 4
4 9 1 10 7 3 2 5 6 8
7 2 6 4 3 5 10 9 8 1
2 4 5 9 1 8 7 6 3 10
4 2 5 10 1 6 3 8 7 9
1 7 9 3 8 2 4 10 5 6
10 3 2 9 4 6 7 8 5 1
3 5 6 10 2 8 9 7 4 1
2 9 6 10 7 8 1 3 4 5
10 5 2 3 1 7 9 8 6 4
3 4 6 8 10 9 2 1 7 5
9 1 4 7 3 10 8 2 5 6
10 9 4 1 5 3 6 2 8 7

3
Lindsey O'Connel
Tracie O'Connel
Caitlin North
1 3 2
1 2 3
2 3 1
2 3 1
3 2 1
3 1 2
1 3 2
3 2 1
1 3 2
1 3 2
2 1 3
3 1 2
1 3 2
1 3 2
3 1 2
2 3 1
2 1 3
2 1 3
2 3 1
2 3 1
1 3 2
1 3 2
2 3 1
2 3 1
2 1 3
1 3 2
3 1 2
3 2 1
2 3 1
1 3 2
3 1 2
2 1 3
1 3 2
1 2 3
1 2 3
3 2 1
1 2 3
2 1 3
2 1 3
2 3 1
1 3 2
2 1 3

4
Angelina Goodwin
Loretta Rubio
Tracie Steward
Tracie Goodwin
2 4 1 3
1 2 4 3
4 2 1 3
4 1 3 2
1 2 4 3
1 3 2 4
4 1 2 3
4 2 3 1
2 4 1 3
2 4 3 1
1 4 3 2
2 4 1 3
4 3 2 1
1 3 2 4
4 1 3 2
4 1 2 3
4 2 3 1
3 2 1 4
1 2 3 4
2 3 4 1
2 4 3 1
3 4 2 1
1 2 3 4
1 2 3 4
4 2 3 1
4 3 1 2
3 1 4 2
4 1 2 3
4 1 3 2
1 2 4 3
3 1 2 4
4 1 2 3
4 1 3 2
2 3 1 4
4 3 2 1
1 2 3 4
1 4 3 2
2 1 3 4
3 4 1 2

8
Marie Mead
Marie Rivers
Vanessa Oleson
Vanessa Oleson
Julian Oleson
Delgado Paul
Kelsey Barber
Morgan Rivers
1 8 4 3 5 7 2 6
8 3 2 1 5 6 4 7
1 8 4 6 2 7 3 5
4 2 6 7 1 5 8 3
5 3 4 8 2 1 7 6
2 8 4 3 7 1 5 6
7 2 6 4 8 1 3 5
3 5 4 1 2 6 8 7
6 7 3 2 8 5 1 4
2 3 7 4 1 5 8 6
5 8 3 6 2 4 7 1
3 4 7 5 6 8 1 2
2 7 5 3 8 6 1 4
1 3 6 4 7 2 5 8
8 6 1 3 4 7 5 2
7 4 1 2 3 6 5 8
5 3 6 1 7 2 4 8
8 4 2 3 6 5 1 7
6 1 2 5 8 7 3 4
2 3 7 1 8 4 5 6
4 3 7 5 1 2 6 8
7 2 5 6 8 1 4 3
8 1 2 7 4 3 5 6
5 4 6 3 2 7 1 8
5 1 4 8 6 2 7 3
1 8 5 4 7 6 3 2
7 3 2 8 6 4 5 1
8 7 6 4 3 1 2 5
7 3 5 1 2 6 4 8
1 3 5 4 2 6 8 7
3 2 7 4 6 8 1 5
4 3 8 6 1 7 5 2
3 1 8 7 6 5 2 4
8 6 1 3 2 7 5 4
6 2 1 5 8 3 7 4
2 7 8 6 1 4 5 3
8 5 3 7 1 2 4 6
6 4 1 3 5 7 2 8
2 7 3 8 4 1 6 5
3 1 2 5 8 4 7 6
6 5 2 3 8 7 1 4
8 1 4 7 2 5 3 6
7 3 1 6 4 5 8 2

6
Angelina Henson
Morgan Hancock
Kris Hardin
Delgado Jefferson
Roland Shay
Celia Delgado
6 4 3 2 5 1
1 6 4 5 2 3
1 4 5 6 3 2
1 2 6 3 4 5
2 4 3 1 6 5
2 4 3 1 5 6
1 6 5 4 2 3
1 3 4 6 2 5
6 5 4 1 3 2
3 2 1 6 4 5
1 4 3 2 6 5
3 6 1 5 2 4
6 5 1 3 4 2
6 1 2 5 4 3
2 3 5 4 6 1
5 2 1 3 6 4
5 6 3 1 4 2
1 3 2 5 6 4
6 4 2 3 5 1
6 1 2 5 4 3
3 1 5 6 4 2
4 1 6 3 5 2
3 1 4 5 6 2
1 2 3 5 4 6
4 2 5 3 1 6
4 1 2 5 6 3
6 1 4 5 3 2
2 4 3 1 5 6
1 5 2 6 4 3
2 3 1 5 4 6
1 4 5 6 3 2
1 4 6 5 3 2
1 4 3 5 2 6
6 2 5 3 4 1

9
Linda Moyer
Larry Moyer
Tracie Maynard
Michael Russell
Clark Russell
Loretta Mercer
Cesar Jefferson
Vanessa Hardin
Morgan Shay
1 3 9 7 8 5 2 6 4
2 4 1 5 6 9 7 3 8
2 6 7 4 1 3 9 5 8
9 6 2 7 8 4 5 1 3
1 3 2 6 4 7 5 8 9
8 6 7 3 1 9 5 4 2
7 2 1 8 5 9 3 6 4
5 9 3 2 4 6 1 8 7
1 4 6 3 8 2 7 5 9
9 3 7 8 1 2 4 5 6
8 1 5 6 3 4 2 7 9
9 6 7 8 5 2 3 4 1
9 8 1 3 4 7 2 5 6
1 3 4 9 8 2 7 5 6
4 6 2 9 5 8 3 1 7
9 6 1 2 4 8 5 3 7
3 4 8 6 1 9 7 5 2
7 2 6 3 5 8 4 9 1
6 4 9 1 5 8 2 3 7
9 3 2 7 4 5 8 6 1
3 6 4 1 7 5 2 8 9
3 4 6 5 1 8 7 9 2
6 7 3 5 2 1 8 9 4
2 6 1 3 5 4 9 7 8
5 7 6 3 8 4 2 9 1
3 9 4 6 5 7 1 2 8
5 2 1 4 8 7 3 9 6
4 6 8 5 2 9 3 1 7
9 5 7 3 1 2 6 4 8
3 8 9 7 6 1 4 2 5
4 3 5 8 2 7 1 9 6
5 2 1 9 3 8 6 4 7
7 3 9 2 8 4 1 5 6
9 5 7 4 6 3 2 1 8
3 5 4 1 2 7 8 6 9
3 5 7 2 9 1 4 6 8
3 5 1 8 6 4 2 7 9
6 7 2 1 3 4 9 8 5
8 3 9 7 2 4 5 1 6
8 1 5 6 2 3 7 9 4
3 6 9 2 8 5 7 1 4
4 9 6 2 1 5 8 3 7
4 9 1 2 3 8 7 6 5
2 9 3 4 7 1 8 5 6
8 1 2 6 5 9 7 4 3
6 3 2 5 9 8 7 4 1
9 7 4 2 3 8 6 1 5

8
Marie O'Connel
Larry Bright
Kelsey Mercer
Clark Paul
Cesar Oleson
Roland Goodwin
Lindsey Benson
Michael Steward
5 1 8 2 6 3 4 7
2 4 6 8 3 5 1 7
3 2 7 8 5 6 1 4
6 4 2 1 8 7 3 5
7 5 4 2 3 1 6 8
6 1 2 3 7 5 4 8
4 1 5 8 3 2 6 7
7 1 3 5 8 2 6 4
1 5 8 4 2 7 6 3
1 4 7 3 8 2 6 5
8 6 5 2 3 7 1 4
8 6 4 2 3 5 7 1
7 4 5 2 3 6 8 1
2 8 3 5 4 7 6 1
1 7 6 5 3 8 2 4
6 8 4 3 7 5 2 1
4 7 5 6 2 1 3 8
8 4 6 5 7 3 2 1
4 8 2 1 7 6 3 5
6 5 7 2 8 4 1 3
7 2 1 8 6 3 4 5
8 2 6 5 7 3 1 4
6 7 8 1 2 4 3 5
1 5 2 8 4 7 6 3
7 3 2 1 4 5 8 6
8 1 6 4 5 2 7 3
7 3 8 5 1 4 2 6
1 2 8 6 7 3 4 5
3 6 1 7 8 4 2 5
3 7 6 2 8 1 4 5
4 8 2 5 6 1 7 3
4 7 6 5 3 2 1 8
1 2 5 4 3 8 6 7
1 8 3 7 2 5 6 4
4 7 1 6 3 8 2 5
4 5 1 2 3 6 8 7
6 3 8 5 7 2 1 4
8 6 1 4 5 2 7 3
6 8 2 1 3 5 4 7
8 2 4 3 1 5 7 6
5 3 7 6 4 1 2 8
8 4 7 6 5 2 3 1
8 5 7 2 1 3 4 6
7 5 8 6 3 2 1 4
7 3 6 8 5 4 1 2
1 5 4 7 3 2 6 8
1 2 3 8 7 5 4 6
4 3 7 5 8 1 2 6
8 3 6 5 1 4 2 7
6 5 3 7 1 4 2 8
1 7 8 6 2 5 4 3
6 7 3 5 4 2 8 1
7 6 1 3 4 5 8 2
2 6 1 5 3 4 8 7
8 1 6 5 7 4 3 2
2 5 4 1 6 7 8 3
8 4 2 5 7 3 1 6
3 4 6 7 1 2 8 5
4 3 2 7 1 5 8 6
1 2 5 6 8 4 3 7

7
Clark Carver
Erick Benson
Daniel Goodwin
Clark Bright
Clark Jefferson
Larry Mead
Carla Rubio
4 5 2 3 7 1 6
4 6 5 7 2 1 3
5 4 2 7 3 6 1
6 3 5 7 4 2 1
7 1 5 2 4 6 3
2 3 7 1 5 6 4
7 1 4 2 5 3 6
4 5 6 7 1 3 2
4 7 2 5 3 1 6
2 1 6 7 4 5 3
7 3 1 4 5 2 6
3 7 5 1 4 2 6
1 2 7 4 6 5 3
4 7 1 2 3 6 5
2 5 4 1 7 6 3
2 7 3 4 1 5 6
4 6 7 1 5 2 3
5 4 7 2 1 3 6
5 6 7 4 2 3 1
1 7 2 4 6 3 5
4 5 2 7 1 3 6
6 2 1 3 4 5 7
1 2 5 6 4 3 7
6 7 3 4 2 5 1
4 2 1 6 5 7 3
2 1 5 4 3 7 6
4 3 6 2 1 5 7
1 6 3 5 4 7 2
2 7 1 6 3 4 5
3 1 2 4 5 7 6
2 1 5 3 7 4 6
1 3 4 5 7 6 2
6 2 3 7 5 1 4
3 1 7 4 2 6 5
3 2 5 1 4 7 6
6 2 5 4 1 7 3
5 7 4 6 1 3 2
4 6 7 3 1 5 2
4 2 7 6 3 5 1
3 4 7 5 6 1 2
5 2 4 6 1 3 7
3 2 6 5 7 4 1
6 4 2 5 1 3 7

4
Maria Livingston
Lisa Dodson
Marie Rubio
Caitlin Delgado
3 1 2 4
3 2 4 1
3 2 4 1
4 1 3 2
3 1 4 2
3 1 4 2
3 4 1 2
1 4 2 3
3 1 4 2

3
Daniel Paul
Caitlin Moyer
Marie Steward
2 3 1
2 1 3
1 3 2
3 2 1
2 3 1
1 3 2

6
Lindsey Mueller
Lindsey Rubio
Julian Mercer
Michael Paul
Cesar Hancock
Larry Henson
4 5 2 3 1 6
1 4 6 5 3 2
4 1 3 6 2 5
1 2 5 6 3 4
6 2 3 5 1 4
1 6 5 3 4 2
2 6 1 4 5 3
5 3 2 6 4 1
1 2 5 4 3 6
2 5 1 4 3 6
4 5 6 3 1 2
5 6 2 4 3 1
1 6 5 2 4 3
2 5 4 3 1 6
4 6 2 3 5 1
6 1 4 3 2 5
6 2 1 5 3 4
6 3 4 5 1 2
6 4 2 3 1 5
6 3 2 4 1 5
3 2 6 1 5 4
4 2 6 1 3 5
6 2 5 1 3 4
4 5 2 6 3 1
1 3 5 4 6 2
3 2 4 5 6 1
5 2 4 1 3 6
6 5 2 4 1 3
6 2 5 4 3 1
5 3 2 1 4 6
4 5 1 3 2 6
2 6 4 3 1 5
3 6 1 4 5 2
3 2 6 4 1 5
3 2 5 4 1 6
3 1 2 5 4 6
6 5 3 1 2 4
2 6 4 5 3 1
1 2 6 4 5 3
1 4 5 2 3 6
3 4 6 5 1 2
3 5 2 4 1 6
6 4 5 2 3 1
6 5 3 4 1 2
4 6 1 2 3 5
6 3 2 4 5 1
1 3 5 4 2 6
6 2 3 1 4 5
3 1 2 4 5 6
1 5 3 2 4 6
6 5 1 4 2 3
2 3 1 6 4 5
5 2 6 1 3 4
4 3 6 2 1 5
1 6 2 4 5 3
4 3 6 2 1 5
1 2 3 6 4 5
3 1 6 2 5 4
1 2 4 3 5 6

1
Caitlin O'Connel
1
1
1
1
1
1
1
1
1
1
1
1
1
1
1

3
Roland Dodson
Morgan Dodson
Marie Goodwin
3 1 2
3 1 2
2 3 1
2 1 3
3 1 2
1 2 3
2 1 3
3 1 2
3 1 2
2 3 1
1 2 3
3 1 2
1 2 3
3 1 2
1 2 3
1 2 3
1 2 3
3 1 2
3 2 1
2 3 1
1 3 2
1 3 2
3 2 1
3 2 1
2 3 1
3 2 1
3 2 1
3 2 1
3 1 2
1 3 2
2 3 1
1 2 3
1 3 2
2 3 1

10
Lindsey Jefferson
Angelina Oleson
Loretta Proctor
Celia Goodwin
Celia Carver
Edward Delgado
Tracie Mead
Angelina Livingston
Edward Rivers
Roland Mueller
10 3 7 9 1 8 2 6 4 5
4 8 1 6 5 9 10 2 7 3
10 2 1 6 3 8 4 5 9 7
9 7 8 10 2 5 6 4 1 3
4 7 5 1 8 3 10 2 6 9
1 4 5 10 2 7 9 8 6 3
7 9 10 3 8 4 6 5 2 1
7 2 9 3 1 6 4 8 5 10
9 1 3 7 4 5 6 10 2 8
7 2 8 4 5 1 10 3 6 9
7 10 2 4 3 6 5 8 1 9
5 3 6 7 4 9 8 10 2 1
7 5 9 4 6 2 1 8 10 3
5 3 4 6 8 2 9 10 1 7
10 6 8 7 1 5 4 3 9 2
1 5 10 7 3 6 8 2 9 4
2 3 5 8 1 4 6 9 7 10
10 1 7 9 4 2 5 3 6 8
10 6 8 2 9 3 7 1 4 5
7 5 4 3 9 10 8 2 6 1
1 2 8 4 7 10 5 3 9 6
10 3 7 8 2 5 9 1 6 4
6 5 10 7 4 8 3 1 9 2
9 1 2 7 4 8 10 6 3 5
6 7 9 4 10 1 8 5 3 2
1 3 6 2 4 5 7 10 9 8
8 3 10 7 5 2 6 1 4 9
3 10 7 1 9 4 5 2 6 8
10 6 7 5 1 9 8 3 2 4
9 1 7 2 8 5 10 3 4 6
5 9 10 7 6 1 3 4 8 2
2 6 8 1 7 3 9 4 5 10
10 4 2 9 8 7 5 3 6 1
7 4 3 9 5 2 6 8 1 10
2 9 6 7 10 3 5 1 4 8
3 4 9 5 1 8 10 2 7 6
10 3 9 8 6 4 1 7 2 5
7 2 3 10 1 5 6 8 4 9
8 4 5 1 10 6 2 7 9 3
5 1 9 4 8 6 7 3 2 10
5 9 10 3 7 4 1 6 2 8
9 6 8 4 7 3 5 10 2 1
4 9 10 3 8 7 2 1 5 6

3
Larry Goodwin
Carla O'Connel
Clark Paul
1 3 2
1 2 3
1 3 2
1 3 2
1 2 3
3 2 1
1 2 3
3 1 2
2 1 3
1 3 2
2 1 3
2 3 1
3 2 1
1 3 2
2 3 1
1 3 2
3 2 1
3 2 1
2 3 1
1 3 2
2 1 3
2 1 3
3 2 1
3 2 1
3 1 2
1 3 2
2 1 3
1 2 3
3 2 1
1 3 2
3 1 2
1 2 3
2 1 3
2 1 3
2 3 1
1 2 3
2 1 3
1 2 3
1 2 3
3 2 1
1 2 3
2 3 1
2 1 3
3 2 1
3 1 2
1 3 2
3 2 1
3 2 1
1 2 3
3 2 1
1 3 2
1 3 2
3 2 1
2 1 3
2 1 3
3 1 2
1 3 2
3 1 2
3 2 1
2 3 1
2 3 1
1 3 2
3 1 2
2 3 1
2 3 1
2 3 1
1 3 2
1 3 2
1 2 3
2 1 3
2 1 3
2 3 1

3
Clark Russell
Delgado Mead
Morgan Rivers
2 3 1
1 2 3
3 2 1
2 3 1
1 3 2
2 3 1
1 3 2
2 1 3
3 2 1
1 3 2
3 1 2
2 3 1
3 2 1
3 1 2
3 2 1
1 3 2
2 1 3
2 3 1
2 3 1
3 2 1
1 2 3
1 3 2
1 2 3
1 2 3
1 3 2
2 1 3
2 3 1
3 1 2
3 1 2
3 1 2
1 3 2
1 3 2
1 2 3
2 3 1
3 2 1
1 2 3
3 1 2
1 3 2
2 3 1
3 1 2
2 1 3
2 1 3
1 2 3
2 1 3
2 3 1
2 3 1
3 1 2

9
Linda North
Cesar Shay
Erick Maynard
Larry Jefferson
Linda Russell
Tracie Benson
Erick Russell
Lindsey Oleson
Kelsey Livingston
4 9 8 2 7 3 6 5 1
7 2 1 4 9 5 8 3 6
8 3 2 5 1 4 9 6 7
7 5 3 1 6 2 8 4 9
5 9 2 1 3 7 8 6 4
7 5 1 8 9 3 2 6 4
6 3 7 4 1 2 8 9 5
4 7 8 5 1 2 9 3 6
3 9 7 6 8 4 1 2 5
8 2 7 4 3 6 5 1 9
8 7 2 1 9 6 4 5 3
7 8 4 1 9 6 2 5 3
5 3 6 2 4 1 9 8 7
4 7 9 3 2 5 6 8 1
1 2 5 4 8 3 6 7 9
7 9 2 3 1 8 6 4 5
7 1 3 8 6 2 9 5 4
7 8 3 4 2 6 1 9 5
5 2 3 9 1 6 8 7 4
1 9 3 2 5 8 6 4 7
9 7 1 6 5 2 4 8 3
2 3 6 5 7 8 1 9 4
1 2 3 9 6 5 4 7 8
7 8 6 2 5 1 4 9 3
5 2 6 7 4 9 3 1 8
2 8 7 5 1 4 6 3 9
4 7 8 3 5 2 1 9 6
1 6 3 4 2 8 5 7 9
1 8 2 5 7 3 6 4 9
1 3 7 9 8 2 4 5 6
5 4 7 8 6 1 3 2 9
2 1 6 8 5 4 3 7 9
3 1 5 2 7 9 6 8 4
4 1 9 3 6 8 7 5 2

8
Michael Barber
Celia Rivers
Linda Rivers
Marie North
Maria Cross
Tracie Bright
Floyd Mercer
Morgan Mead
4 2 3 5 6 1 7 8
6 4 5 7 8 1 2 3
7 3 2 6 4 8 5 1
1 2 8 3 4 6 7 5
8 3 6 4 1 7 5 2
3 4 5 1 8 2 6 7
8 7 5 4 3 6 1 2
8 6 3 2 4 1 7 5
6 7 1 4 8 2 3 5
4 7 3 6 5 2 1 8
7 1 3 2 4 8 5 6
4 6 7 3 2 8 5 1
8 1 7 4 5 2 3 6
8 5 7 1 2 4 3 6
1 8 5 2 6 7 4 3
1 3 2 8 5 7 6 4
8 5 3 7 2 1 6 4
5 2 1 8 4 7 3 6
5 6 8 2 4 7 1 3
6 5 7 4 2 3 1 8
8 6 3 2 7 4 5 1
6 2 8 4 7 5 1 3
8 3 5 6 1 7 4 2
6 3 8 1 2 7 5 4
2 3 8 7 6 4 5 1
6 4 2 5 8 1 7 3
4 3 8 1 5 6 7 2
6 1 5 3 8 4 2 7
1 8 5 4 2 6 3 7
2 8 5 3 6 1 4 7
8 6 7 5 1 4 3 2
5 8 4 1 2 7 6 3
5 2 1 7 4 8 3 6
4 7 2 3 5 1 8 6
5 3 2 6 4 7 8 1
8 4 7 5 6 1 2 3
4 7 3 6 1 8 5 2
5 3 6 7 1 2 8 4
3 6 7 1 8 4 2 5
3 5 8 4 1 6 7 2
5 6 3 8 1 4 7 2
3 2 6 8 1 7 5 4
1 3 6 5 8 7 4 2
3 1 7 6 2 4 8 5
1 4 5 3 2 8 6 7
6 2 1 8 7 3 5 4
8 5 3 1 2 4 6 7
6 1 2 8 5 3 7 4
1 3 4 8 6 5 7 2

4
Carla O'Connel
Michael O'Connel
Lindsey Barber
Julian Mercer
1 4 3 2

1
Clark Shay
1
1
1
1
1
1
1
1
1
1
1
1
1
1
1
1
1
1
1
1
1
1
1
1
1
1
1
1
1
1
1
1
1
1
1
1
1
1
1
1
1
1
1
1
1
1
1
1
1
1
1
1
1
1
1

6
Clark Delgado
Caitlin Benson
Erick Livingston
Loretta Henson
Carla Maynard
Cesar Paul
1 3 4 5 6 2
3 4 1 6 2 5
6 4 5 2 1 3
5 6 3 4 1 2
4 3 6 2 5 1
5 2 6 3 1 4
1 5 3 2 4 6
5 6 3 4 2 1
3 1 2 5 4 6
5 6 4 2 3 1
3 4 6 5 2 1
3 6 2 5 4 1
6 4 3 1 2 5
5 3 2 4 1 6
6 3 5 2 1 4
1 6 3 5 4 2
3 2 1 4 6 5
5 1 3 4 6 2
4 3 2 5 6 1
3 1 4 6 2 5
4 6 2 5 1 3
6 4 2 1 5 3
2 6 3 4 5 1
6 1 4 2 3 5
1 4 5 3 2 6
6 2 5 1 4 3
3 5 6 2 4 1
6 2 5 3 1 4
5 2 6 4 3 1
3 5 4 6 1 2
2 1 4 3 6 5
4 5 2 6 3 1
2 3 6 4 1 5
6 5 1 3 4 2
2 1 6 5 3 4
2 1 4 6 3 5
4 1 3 2 5 6
4 1 6 3 5 2
1 4 6 2 3 5
6 1 3 4 2 5
3 5 6 2 1 4
6 1 3 2 5 4
1 3 5 6 2 4
4 2 5 1 3 6
4 1 6 3 2 5
6 1 5 4 3 2
5 3 1 4 2 6
2 1 5 4 6 3
2 6 4 5 3 1
1 5 6 3 2 4
2 1 5 6 3 4
4 2 1 3 5 6
6 2 4 1 3 5
3 2 1 4 5 6
4 1 5 6 2 3
4 1 5 6 2 3
6 2 4 5 1 3
6 1 3 2 4 5
2 6 5 4 1 3
5 6 2 3 4 1
2 3 1 4 5 6
2 1 6 5 4 3
1 2 4 5 6 3
5 4 1 2 6 3
1 6 4 5 2 3
6 4 2 1 3 5
6 3 4 1 2 5
4 1 5 2 3 6
5 4 2 3 1 6
5 6 1 4 3 2
2 4 3 5 6 1
3 6 1 4 5 2
5 4 6 2 1 3

1
Tracie Cross
1
1
1
1
1
1
1
1
1
1
1
1
1
1
1
1
1
1
1
1
1
1
1
1
1
1
1
1
1
1
1

10
Carla Steward
Cesar O'Connel
Daniel Oleson
Marie Henson
Kris Oleson
Delgado Henson
Julian Maynard
Caitlin Henson
Kris Moyer
Floyd Henson
7 5 10 8 1 9 3 6 4 2
7 1 9 4 5 10 2 3 6 8
2 3 8 6 4 5 9 1 10 7
6 9 5 4 1 10 7 8 3 2
4 7 6 9 3 8 2 1 5 10
10 8 7 6 5 9 2 1 3 4
7 10 6 1 3 4 5 9 2 8
10 4 3 6 5 1 7 8 9 2
3 7 2 5 6 9 10 8 1 4
4 9 6 5 7 3 2 10 1 8
8 10 3 9 5 4 2 1 7 6
6 3 9 2 4 8 1 7 5 10
5 2 10 7 3 8 6 9 1 4
9 8 7 2 10 4 1 5 3 6
7 4 5 8 1 2 6 9 3 10
3 2 6 8 1 4 10 5 7 9
4 2 6 8 9 10 3 1 7 5
10 3 9 8 1 5 7 2 4 6
5 8 2 4 10 7 9 1 6 3
9 2 4 3 7 10 1 5 8 6
4 3 7 1 6 8 9 2 10 5
8 6 3 10 1 4 7 5 2 9
2 10 9 5 8 1 4 6 7 3
3 10 6 5 2 9 8 4 1 7
1 4 9 2 10 3 5 6 8 7
5 1 3 4 9 10 6 7 8 2
10 6 5 7 2 3 9 1 4 8
2 1 10 6 7 5 9 4 3 8
9 6 2 10 5 1 7 8 3 4
6 4 1 3 8 7 2 9 10 5
10 4 9 5 2 6 7 3 8 1
10 7 6 3 4 2 5 8 9 1
3 9 10 2 4 6 8 1 5 7
7 9 1 8 6 2 10 5 3 4
5 6 7 9 4 2 10 8 3 1
5 10 9 8 6 7 1 2 4 3
8 9 10 5 1 3 6 4 7 2
8 5 6 7 2 4 3 9 1 10
1 9 8 4 2 6 5 7 3 10
3 2 8 6 10 4 9 7 1 5
9 5 3 1 6 10 4 7 8 2
8 7 2 6 4 10 5 9 3 1
4 3 9 1 6 2 7 8 10 5
8 3 1 6 2 9 10 7 4 5
3 7 10 4 2 1 8 9 6 5
2 7 1 9 8 6 10 5 3 4
3 7 4 10 1 2 6 5 8 9
5 1 9 8 3 4 2 6 7 10
4 2 8 1 6 7 10 3 5 9
9 4 1 3 2 8 7 5 10 6
7 2 8 6 5 4 3 1 9 10
3 6 9 10 2 1 7 8 4 5
9 3 7 6 4 1 8 2 10 5
6 2 1 10 4 9 8 7 3 5
7 4 6 5 2 10 1 3 9 8

4
Cesar Mueller
Roland Proctor
Michael Paul
Lisa Carver
1 2 3 4
1 3 4 2
2 4 3 1
2 3 1 4
4 1 3 2
2 3 4 1
3 2 4 1
2 3 1 4
2 4 1 3
2 1 3 4
4 3 2 1
1 2 4 3
1 4 2 3
4 3 1 2
1 3 4 2
3 4 2 1
1 4 3 2
2 3 4 1
1 3 4 2
3 2 1 4
1 4 3 2
4 1 3 2
4 1 3 2
1 4 3 2
4 2 3 1
1 2 4 3
4 1 3 2
1 4 3 2
2 3 4 1
4 3 2 1
2 1 3 4
2 4 3 1
4 3 1 2
1 3 2 4
2 3 1 4
4 1 2 3

4
Daniel Dodson
Daniel Barber
Maria Cross
Chelsea Cross
1 3 4 2
4 2 1 3
3 4 2 1
4 2 3 1
1 2 4 3
2 4 1 3
3 2 4 1
2 4 1 3
4 1 2 3
1 4 2 3

3
Delgado Mueller
Kris Delgado
Daniel Jefferson
1 3 2
2 1 3
1 2 3
1 3 2
2 1 3
2 1 3
3 2 1
3 1 2
1 2 3
1 3 2
3 1 2
1 2 3
1 3 2
3 1 2
2 3 1
1 3 2
1 3 2
1 2 3
2 3 1
2 3 1
2 1 3
3 1 2
2 1 3
3 1 2
3 1 2
2 1 3
1 3 2
3 2 1
1 2 3
1 2 3
2 3 1
1 2 3
2 1 3
2 3 1
1 3 2
1 2 3
1 3 2
2 3 1
3 2 1
1 2 3
3 2 1

5
Angelina Maynard
Floyd Maynard
Delgado Mercer
Loretta Maynard
Delgado Hancock
1 4 5 2 3
1 2 5 3 4
3 2 4 5 1
2 4 3 5 1
4 2 1 3 5
1 3 4 5 2
2 5 1 3 4
3 5 1 4 2
2 3 4 5 1
1 4 2 3 5
3 4 5 2 1
5 3 1 4 2
2 4 1 5 3
1 3 4 2 5
4 1 2 5 3
2 5 3 4 1
5 4 1 2 3
4 1 3 5 2
3 2 5 1 4
3 1 4 2 5
5 1 3 2 4
1 4 5 2 3
3 1 4 2 5
1 3 5 2 4
3 1 5 2 4

5
Cesar Bright
Chelsea Delgado
Kris Shay
Michael Jefferson
Larry Mercer
1 2 5 3 4
3 2 5 1 4
1 4 2 3 5
3 1 4 5 2
2 5 1 3 4
1 4 2 5 3
5 4 1 3 2
2 4 3 5 1
3 1 4 2 5
5 2 3 4 1
4 2 1 5 3
1 2 5 4 3
5 4 1 2 3
3 5 1 2 4
3 1 2 4 5
1 3 5 4 2
4 3 1 5 2
4 2 5 3 1
5 1 4 2 3
2 1 3 4 5
2 4 1 3 5
4 5 2 1 3
1 3 2 4 5
3 1 4 5 2
1 4 2 3 5
5 3 4 1 2
1 5 3 4 2
3 5 4 1 2
3 4 2 5 1
1 3 5 2 4
1 4 5 2 3
4 5 1 3 2
4 2 3 1 5
1 5 2 3 4
5 4 3 1 2
4 2 1 3 5
1 5 2 4 3
4 1 3 5 2
4 1 5 2 3
1 5 3 2 4
3 4 1 5 2
1 5 4 2 3
3 1 5 4 2
3 5 4 2 1
5 4 3 2 1
2 4 3 1 5
1 4 3 5 2
5 4 2 3 1
4 5 3 1 2
2 4 1 3 5
5 4 2 1 3

6
Morgan Delgado
Roland Moyer
Caitlin Mead
Marie Shay
Lindsey Mercer
Caitlin Carver
3 5 2 6 4 1
1 5 6 4 3 2
1 2 6 4 3 5
6 5 2 3 4 1
2 5 1 6 4 3
6 2 3 1 4 5
6 3 4 5 2 1
1 4 3 2 6 5
5 3 2 1 6 4
3 4 2 1 5 6
6 1 4 2 3 5
2 4 6 1 3 5
6 4 2 1 5 3
6 2 4 3 1 5
6 1 5 4 3 2
3 1 4 6 2 5
6 2 4 3 1 5
4 3 2 5 1 6
2 1 5 6 4 3
6 4 1 5 3 2
6 4 3 2 5 1
4 3 6 5 2 1
6 4 3 2 1 5
5 1 4 2 6 3
1 2 4 3 5 6
3 1 5 6 2 4
6 3 5 4 2 1
5 3 4 1 2 6
3 5 1 2 4 6
4 1 3 5 2 6
6 5 2 1 4 3
2 6 5 1 3 4
4 5 1 2 6 3
6 5 2 4 1 3
5 4 2 3 1 6
2 3 5 4 1 6
6 2 4 1 5 3
2 5 6 4 3 1
5 4 3 1 6 2
4 2 3 5 6 1
6 5 1 3 2 4
4 5 6 2 1 3
1 5 6 4 3 2
5 1 4 6 2 3
1 3 5 2 6 4
4 1 6 5 2 3
1 3 5 2 4 6
1 2 6 4 3 5
6 1 2 4 3 5
5 3 4 6 2 1
2 6 1 4 5 3
2 1 3 4 6 5
1 6 3 5 2 4
6 2 4 5 1 3
2 1 6 4 5 3
3 2 4 6 5 1
2 3 6 1 5 4
5 3 6 1 4 2
4 6 3 5 1 2
5 3 1 2 4 6
2 3 4 5 6 1
2 1 6 5 3 4
4 3 2 6 1 5
1 2 4 5 6 3
2 1 4 3 5 6

6
Vanessa Carver
Michael Shay
Clark Paul
Erick Mueller
Celia Oleson
Erick Cross
4 6 3 2 1 5
1 3 4 5 2 6
3 4 5 2 6 1
6 2 3 4 5 1
2 6 4 5 3 1
4 1 2 3 6 5
6 1 2 3 5 4
1 2 6 3 4 5
2 5 1 6 4 3
6 2 1 5 3 4
2 1 6 5 3 4
5 6 3 2 1 4
5 4 1 3 6 2
1 6 5 2 4 3
4 3 6 5 1 2
3 4 5 6 1 2
4 5 6 3 2 1
2 4 5 6 3 1
2 1 4 5 6 3
1 6 5 4 3 2
6 3 1 4 5 2
5 6 2 3 1 4
5 3 6 1 4 2
5 6 1 3 2 4
3 5 4 6 2 1
2 5 4 6 3 1
2 4 6 5 3 1
3 4 1 6 2 5
2 1 6 5 4 3
5 3 4 6 2 1
5 2 3 4 6 1
6 5 4 1 3 2
3 2 5 4 1 6
4 5 2 1 6 3
3 1 5 6 4 2
4 5 1 2 3 6
6 5 4 3 1 2
5 3 1 4 2 6
2 4 6 5 1 3
1 6 2 4 3 5
5 4 1 3 6 2
5 2 1 4 3 6
3 1 5 4 6 2
2 3 5 6 1 4
4 1 6 2 3 5
1 6 4 2 5 3
6 2 4 3 5 1
5 4 6 3 1 2
1 4 3 6 2 5
4 6 1 2 3 5
5 3 4 2 1 6
3 4 5 2 1 6
2 6 5 1 4 3
1 5 3 6 2 4
6 2 4 1 5 3
3 2 1 6 4 5
3 4 6 2 1 5
6 1 2 5 4 3
2 5 6 1 3 4

1
Chelsea Barber
1
1
1
1
1
1
1
1
1
1
1
1
1
1
1
1
1
1
1
1
1
1
1
1
1
1
1
1
1
1

4
Carla Hancock
Loretta Barber
Delgado Mercer
Morgan Henson
1 4 3 2

5
Lindsey Shay
Lindsey Carver
Kris Jefferson
Edward Dodson
Loretta Delgado
3 5 2 1 4
4 2 3 1 5
3 5 1 4 2
4 3 1 2 5
1 3 4 2 5
2 1 4 5 3
2 3 1 5 4
1 5 4 2 3
4 2 3 5 1
2 4 5 3 1
5 3 2 4 1
1 4 2 3 5
1 2 3 5 4

7
Kris Hancock
Caitlin Paul
Lindsey Henson
Marie Mueller
Daniel Mead
Floyd Jefferson
Maria Shay
2 1 3 4 7 5 6
1 5 4 7 3 2 6
2 5 6 3 4 7 1
3 6 4 5 2 7 1
5 1 7 6 3 4 2
5 2 1 4 3 7 6
7 6 2 3 5 4 1
4 5 2 1 6 7 3
1 6 2 4 5 3 7
1 7 4 2 5 6 3
2 3 5 1 7 4 6
6 2 4 7 3 5 1
3 1 6 7 4 2 5
7 2 5 1 6 4 3
4 1 3 2 6 7 5
5 3 4 7 2 6 1
7 1 5 4 2 3 6
6 2 3 1 7 4 5
7 4 5 1 2 6 3
6 3 7 4 5 2 1
6 4 3 1 7 2 5
3 5 6 7 2 4 1
3 1 7 5 4 2 6
6 2 5 7 1 4 3
1 3 5 4 6 7 2
6 4 5 2 1 7 3

4
Angelina Livingston
Erick Hardin
Kelsey Rivers
Chelsea Barber
2 1 3 4
3 4 1 2
3 4 1 2
3 2 1 4
1 4 2 3
2 4 1 3
2 1 3 4
2 4 1 3
3 1 2 4
3 2 1 4
3 4 1 2
4 1 2 3
1 4 2 3
2 3 4 1
1 2 3 4
2 4 1 3
4 1 3 2
4 3 2 1
4 1 2 3
4 2 3 1
3 2 1 4
2 1 4 3
1 3 4 2
3 1 4 2
1 4 3 2
1 2 4 3
2 3 1 4
1 4 2 3
3 4 1 2
3 1 4 2
1 4 2 3
2 3 4 1
2 1 3 4
2 4 3 1
2 1 4 3
3 1 2 4
4 3 1 2
4 1 3 2
2 4 1 3
4 2 1 3
3 2 4 1
1 4 3 2
3 4 2 1
4 2 3 1
1 4 3 2
3 1 4 2
1 4 2 3
2 3 4 1
4 3 1 2
2 3 4 1
3 2 1 4
4 1 2 3
3 4 2 1
2 4 3 1
1 4 2 3
2 3 1 4
4 1 2 3
4 1 3 2
2 1 3 4
2 1 3 4
3 2 4 1

1
Carla Henson
1
1
1
1
1
1
1
1
1
1
1
1
1

6
Michael Benson
Morgan Delgado
Maria Bright
Maria North
Kelsey Moyer
Carla Maynard
4 3 6 5 1 2
6 3 4 2 5 1
1 6 3 4 2 5
1 6 2 4 5 3
4 3 1 2 5 6
1 6 3 2 5 4
3 1 2 5 4 6
5 4 3 6 2 1
5 1 4 6 2 3

6
Larry Henson
Angelina Maynard
Roland Maynard
Lindsey Delgado
Celia Moyer
Michael Carver
5 6 1 3 2 4
5 4 6 2 3 1
1 4 5 3 2 6
5 4 1 6 2 3
4 1 6 3 5 2
1 4 3 6 5 2

4
Angelina Delgado
Lisa Mead
Julian Rivers
Edward Cross
2 3 4 1
2 4 1 3
4 3 2 1
4 1 2 3
1 3 2 4
2 1 3 4
2 1 3 4
3 4 2 1
3 2 4 1
3 4 2 1
3 2 1 4
4 1 3 2
4 3 2 1
1 4 3 2
2 4 3 1
3 4 1 2
4 2 3 1
3 4 2 1
2 1 4 3
3 1 4 2
1 2 3 4
2 4 1 3
2 3 1 4
1 2 3 4
3 2 4 1
1 4 2 3
3 2 4 1
3 4 1 2
1 4 2 3
3 2 4 1
4 1 3 2
2 1 4 3
1 3 4 2
1 4 3 2
4 1 3 2
3 1 4 2
4 1 2 3
3 1 2 4
3 2 1 4
2 3 4 1
3 4 2 1
2 3 4 1
4 1 3 2
4 3 2 1
4 3 2 1
2 4 3 1
2 1 4 3
4 3 2 1
1 2 4 3
3 4 1 2
2 3 1 4
2 3 4 1
4 1 3 2
3 2 4 1
4 1 2 3
1 3 4 2
3 2 1 4
2 3 1 4
3 1 4 2
3 2 1 4
4 3 1 2
1 3 4 2
3 2 1 4
4 1 3 2
2 3 4 1
2 1 3 4
3 1 2 4
3 1 4 2

7
Cesar North
Tracie Maynard
Julian Cross
Caitlin Steward
Maria Henson
Floyd Shay
Linda Jefferson
7 4 1 5 3 2 6
2 6 5 3 1 4 7
5 4 3 2 6 7 1
1 6 5 7 3 4 2
3 7 2 1 4 5 6
7 3 5 4 6 2 1
7 4 3 2 1 6 5
1 2 6 5 3 7 4
3 5 6 2 4 1 7
1 2 5 4 7 3 6
4 5 6 7 3 1 2
1 6 3 2 5 4 7
2 4 5 1 7 3 6
3 4 7 1 5 6 2
1 2 6 4 7 3 5
3 4 5 6 7 1 2
2 3 6 4 1 7 5
2 7 6 4 1 5 3
7 6 4 5 1 3 2
4 3 2 5 1 7 6
2 5 3 1 4 7 6
4 7 2 3 1 5 6
1 7 5 3 4 6 2
5 1 7 3 6 2 4
3 7 5 6 2 4 1
3 6 1 2 5 4 7
2 5 4 1 6 3 7
6 7 1 5 2 4 3
4 7 3 6 5 2 1
3 5 7 6 4 2 1
4 6 1 3 2 7 5
2 7 6 3 4 5 1
6 5 7 3 1 2 4
3 2 4 6 1 7 5
4 2 1 6 3 5 7
4 1 7 2 5 6 3
4 5 6 3 7 2 1
5 6 7 4 1 3 2
3 1 2 5 6 4 7
3 4 7 6 5 2 1
3 1 2 6 4 5 7
6 1 3 4 5 2 7
6 7 4 2 1 5 3
7 1 3 4 5 2 6

5
Delgado Cross
Larry Hardin
Lindsey Paul
Michael Rubio
Maria North
2 3 1 5 4
1 3 4 5 2
5 2 3 4 1
2 3 1 4 5
1 4 3 2 5
5 3 2 1 4
1 3 4 2 5
1 2 5 3 4
2 3 4 5 1
3 5 2 1 4
3 4 5 2 1
3 1 5 4 2
5 1 4 3 2
4 1 2 5 3
2 4 3 5 1
3 2 4 5 1

2
Delgado North
Michael North
1 2
2 1
2 1
2 1
2 1
1 2
1 2
1 2
1 2
1 2
1 2
1 2
1 2
1 2
1 2
1 2
1 2
1 2
1 2
2 1
2 1
1 2
1 2
1 2
2 1
2 1
1 2
1 2
2 1
2 1
1 2
2 1
2 1
2 1
2 1
2 1
1 2
2 1
2 1
2 1
1 2
2 1
1 2
2 1
2 1
1 2
2 1
2 1
2 1
1 2
1 2
1 2
2 1
2 1
2 1
2 1
2 1
1 2

6
Lisa Rubio
Marie Goodwin
Floyd Maynard
Chelsea Hardin
Marie Carver
Daniel Oleson
5 6 4 2 3 1
5 6 2 4 1 3
6 3 4 5 1 2
5 6 1 2 3 4
1 4 2 6 5 3
4 2 5 3 1 6
5 4 6 1 2 3
4 1 6 3 5 2
4 6 3 2 1 5
3 5 4 6 1 2
1 5 2 3 4 6
5 4 6 2 3 1
4 6 3 5 1 2
1 6 4 2 3 5
5 2 4 6 3 1
1 5 2 6 4 3
6 3 4 1 2 5
2 6 3 4 1 5
6 1 2 5 4 3
3 5 2 1 6 4
1 2 4 5 3 6
6 2 5 1 3 4
5 6 2 3 1 4
4 5 2 3 1 6
1 2 5 6 4 3
5 6 2 3 4 1
3 4 1 6 5 2
6 5 2 4 3 1
3 5 1 4 6 2
1 3 2 6 4 5
6 2 3 5 4 1
4 1 3 5 6 2
6 2 5 4 3 1
2 5 6 4 1 3
4 3 2 6 1 5
2 6 5 1 3 4
6 4 1 3 5 2
3 2 5 4 6 1
1 6 5 3 2 4
2 1 5 3 4 6
2 4 1 3 5 6
4 5 3 1 6 2
4 2 6 3 5 1
4 2 3 5 6 1
4 6 1 2 3 5
2 4 3 1 6 5
6 4 3 2 5 1
4 5 3 6 1 2
6 3 5 1 4 2
4 2 6 1 3 5
2 6 1 3 4 5
3 4 5 1 2 6
2 5 6 1 3 4
1 5 3 4 2 6
1 5 2 3 6 4
6 1 5 2 3 4
3 4 2 5 6 1
6 1 3 2 4 5
1 5 6 2 4 3
3 2 6 4 5 1
4 3 6 2 5 1
2 1 3 4 6 5
1 2 5 6 3 4
6 1 3 2 4 5
3 4 5 1 2 6
6 2 4 3 1 5
3 6 5 1 2 4

10
Loretta Goodwin
Angelina Henson
Loretta Henson
Floyd Proctor
Delgado Bright
Cesar Benson
Roland Oleson
Lindsey Livingston
Larry Paul
Maria Cross
7 3 6 5 8 2 9 10 1 4
4 10 2 7 8 3 5 9 1 6
2 5 1 6 9 7 10 3 4 8
5 1 2 10 7 8 9 4 3 6
5 1 3 6 10 7 9 2 4 8
1 7 4 6 3 5 2 8 10 9
5 1 10 4 9 2 3 7 8 6
4 10 8 2 5 6 3 9 7 1
9 8 5 10 3 7 1 6 4 2
7 1 4 9 5 8 6 10 2 3
2 7 4 6 1 10 8 9 3 5
5 2 3 10 9 7 8 1 4 6
2 10 4 7 6 5 9 3 8 1
6 5 9 2 8 10 7 1 4 3
3 5 4 7 2 6 8 10 9 1
4 2 9 10 1 5 8 3 6 7
8 6 5 1 3 10 2 4 7 9
4 9 2 6 3 5 7 10 1 8
2 4 10 6 7 8 3 1 9 5

2
Chelsea Shay
Michael Shay
2 1
1 2
1 2
2 1
1 2
1 2
1 2
1 2
2 1
2 1
2 1
1 2
2 1
1 2
1 2
1 2
2 1
1 2
2 1
1 2
1 2
2 1
2 1
1 2
1 2
1 2
2 1
1 2
1 2
2 1
2 1
1 2
1 2
1 2
1 2
2 1
2 1
1 2
2 1
2 1
2 1
1 2
1 2
2 1
1 2
2 1
2 1
2 1
1 2
2 1
2 1
2 1
2 1
2 1
1 2
1 2
1 2
2 1
2 1
1 2
2 1
2 1
1 2
1 2
2 1
2 1
2 1
1 2

10
Michael Carver
Cesar Maynard
Floyd Shay
Caitlin Rubio
Erick O'Connel
Kelsey Oleson
Michael Steward
Chelsea Delgado
Lindsey Henson
Michael Steward
10 3 1 8 6 7 9 2 5 4
2 4 8 5 6 9 1 7 10 3
10 3 8 9 6 4 5 2 7 1
10 2 8 5 9 4 7 1 3 6
5 6 10 2 1 9 7 8 3 4
4 3 1 6 5 7 2 10 9 8
4 5 3 1 9 6 8 10 7 2
10 2 1 7 5 8 9 6 3 4
6 5 9 1 10 8 7 3 2 4
8 9 10 5 3 7 2 4 1 6
4 5 9 8 1 2 3 10 7 6
1 5 10 7 4 2 9 3 8 6
5 3 10 2 4 6 1 8 7 9
3 4 8 5 9 2 10 1 7 6
10 6 3 1 9 5 4 8 2 7
4 9 5 1 7 8 6 2 3 10
6 8 4 5 3 10 9 1 2 7
1 2 8 6 10 4 3 7 9 5
3 1 4 2 10 6 9 7 5 8
9 7 10 2 3 8 1 6 5 4
8 9 6 2 3 4 5 10 7 1
10 9 8 7 4 5 1 6 3 2
6 2 1 4 9 5 7 8 3 10
1 2 4 9 7 3 8 6 5 10
2 1 8 3 5 10 4 9 6 7
9 3 5 8 10 2 6 1 4 7
8 5 1 3 6 7 10 9 4 2
8 3 4 1 7 2 6 10 9 5
4 6 1 8 7 2 5 10 3 9
10 6 4 7 2 8 3 9 1 5

5
Cesar Hancock
Julian Cross
Cesar Benson
Morgan Hancock
Carla Oleson
3 2 1 4 5
2 3 4 5 1
2 1 3 5 4
4 3 2 1 5
4 3 5 2 1
4 3 5 1 2
3 1 4 2 5
3 5 2 1 4
4 3 1 2 5
1 2 3 5 4
4 3 5 1 2
3 2 4 1 5
2 5 4 3 1
5 1 4 2 3
4 5 3 1 2
1 3 4 2 5
2 5 4 3 1
1 3 2 4 5
2 4 1 3 5
4 1 3 2 5
1 3 5 2 4
5 4 3 1 2
3 4 2 5 1
3 2 4 1 5
4 5 1 3 2
3 1 2 4 5
2 5 3 4 1
3 5 1 4 2
5 2 1 3 4
4 3 5 1 2
1 2 5 3 4
1 4 3 2 5
3 4 5 2 1
2 1 3 4 5
1 3 2 5 4
5 4 1 3 2
5 4 3 2 1
1 4 2 5 3
2 5 1 3 4
4 2 1 3 5
1 5 2 3 4
4 2 1 5 3
2 1 5 3 4
3 5 2 1 4
1 5 4 3 2

6
Angelina Jefferson
Erick Mercer
Chelsea Mercer
Delgado Carver
Loretta Jefferson
Cesar Livingston
4 1 6 5 3 2
5 4 3 6 2 1
6 2 5 3 4 1
6 1 4 3 2 5
6 1 2 5 4 3
6 2 5 3 4 1
3 1 6 4 5 2
3 6 1 5 2 4

2
Chelsea Shay
Edward Mercer
2 1
1 2
2 1
1 2
2 1
1 2
2 1
1 2
1 2
1 2
1 2
2 1
1 2
2 1
1 2
1 2
2 1
2 1
2 1
1 2
1 2
2 1
2 1
1 2
2 1
1 2
2 1
2 1
1 2
2 1
1 2
1 2
2 1
1 2
2 1
2 1
2 1
2 1
1 2

1
Floyd Maynard
1
1
1
1
1
1
1
1
1
1
1
1
1
1
1

1
Maria North
1
1
1
1
1
1
1
1
1
1
1
1
1
1
1
1
1
1
1
1
1
1
1
1
1
1
1
1
1
1
1
1
1
1
1
1

9
Floyd Moyer
Cesar O'Connel
Edward Barber
Lisa Carver
Larry Barber
Delgado Proctor
Chelsea Proctor
Edward Dodson
Clark O'Connel
4 5 3 6 8 2 9 1 7
7 9 4 3 2 8 1 6 5
6 9 8 4 2 1 7 5 3
9 2 8 6 5 7 3 1 4
2 1 9 4 5 3 6 7 8
2 7 6 8 1 3 5 9 4
4 8 3 2 6 9 1 7 5
7 4 5 9 3 1 8 6 2
3 6 9 2 7 1 4 5 8
4 7 2 1 9 5 3 6 8
9 6 3 2 4 7 8 1 5
4 9 5 6 8 7 1 2 3
9 1 4 8 2 7 6 5 3
1 5 4 7 3 8 2 6 9
7 9 4 8 2 5 6 1 3
2 8 9 6 3 4 5 1 7
7 2 9 6 5 4 1 8 3
4 3 1 9 5 8 7 2 6
7 8 1 6 9 5 2 3 4
6 4 7 2 1 9 5 8 3
5 7 8 4 9 6 2 3 1
7 9 3 4 1 2 5 8 6
8 1 5 7 3 6 2 9 4
5 8 3 1 2 4 6 9 7
4 7 8 1 9 5 6 2 3
8 1 2 7 4 9 5 6 3
2 1 7 6 9 3 8 5 4
6 5 9 1 7 8 3 4 2
5 1 3 6 2 7 9 4 8
2 3 8 7 5 9 1 4 6
3 9 1 6 4 5 2 8 7
3 6 2 4 7 9 8 5 1
1 9 7 3 8 4 2 6 5
9 6 5 7 3 8 4 1 2
5 2 7 4 8 9 6 1 3
7 4 5 3 1 9 8 6 2
7 4 3 2 9 6 1 8 5
3 9 7 5 8 4 2 6 1
2 7 4 3 6 5 1 8 9
5 3 4 8 2 1 7 9 6
1 7 4 8 5 3 9 6 2
6 1 4 9 5 7 3 2 8
8 1 6 5 9 3 4 2 7
4 6 3 1 2 7 9 8 5
6 7 9 3 5 2 8 1 4
2 1 8 5 4 7 6 9 3
5 7 8 2 9 1 4 3 6
7 1 4 3 6 5 2 8 9
9 1 7 8 5 6 4 3 2
6 9 5 8 4 3 1 2 7
7 9 1 8 2 5 6 3 4
8 5 3 2 7 1 9 4 6
4 3 9 8 7 2 1 5 6
3 4 6 1 8 2 9 7 5
3 5 9 7 6 4 8 1 2
3 9 1 4 5 8 7 2 6
5 1 8 6 2 9 7 3 4
4 1 9 7 2 3 5 6 8
1 9 6 2 7 4 5 3 8
9 7 8 3 6 5 1 4 2
7 8 5 1 6 3 4 2 9
3 6 5 2 4 1 7 9 8
8 9 7 1 5 4 3 2 6
3 9 6 4 5 8 2 1 7
8 7 4 3 1 5 9 2 6
7 1 2 8 3 4 5 9 6
1 5 9 8 6 2 7 4 3
7 8 3 4 9 1 5 2 6

10
Daniel Delgado
Clark North
Chelsea Shay
Caitlin Steward
Roland Jefferson
Kelsey Russell
Delgado Carver
Chelsea O'Connel
Lindsey Paul
Floyd Henson
6 10 5 7 1 2 9 8 4 3
10 3 8 4 2 1 5 9 6 7
9 8 5 10 4 1 6 3 2 7
10 5 6 1 8 4 9 3 2 7
2 8 6 3 4 5 7 9 10 1

6
Lisa Delgado
Floyd Delgado
Kelsey Russell
Linda Rivers
Angelina Steward
Roland Maynard
3 5 6 4 1 2
2 1 3 6 5 4
3 6 5 1 2 4
1 6 4 3 2 5
3 4 1 6 2 5
4 3 6 1 2 5
5 2 3 6 4 1
3 4 6 1 5 2
3 2 5 4 6 1
3 2 1 4 5 6
2 4 1 5 3 6
5 4 2 6 1 3
4 5 1 2 6 3
2 1 5 4 6 3
1 2 5 6 3 4
6 1 2 3 4 5
6 2 4 1 3 5
5 4 6 1 2 3
4 6 5 2 3 1
3 6 1 4 2 5
6 5 4 1 2 3
1 6 3 2 5 4
6 2 4 3 1 5
4 2 5 3 1 6
2 3 6 4 1 5
5 2 3 4 1 6
4 1 2 3 5 6
1 6 4 3 5 2
6 1 4 2 5 3
1 3 2 4 5 6
2 5 3 6 1 4
3 6 1 4 5 2
3 2 5 6 4 1
2 3 4 6 5 1
5 4 1 6 2 3
3 2 6 1 5 4
5 1 3 4 6 2
4 6 1 5 3 2
5 6 2 3 4 1
3 6 2 4 1 5
2 6 4 5 3 1
4 6 1 5 3 2
6 1 2 5 4 3
6 2 5 3 1 4
5 4 6 3 2 1
4 3 6 1 5 2
2 5 1 3 6 4
1 5 2 3 4 6
2 1 6 3 5 4
6 4 1 5 2 3
6 2 5 4 3 1
2 5 1 4 6 3
3 4 5 1 6 2
2 4 5 3 6 1
1 6 2 5 3 4
2 3 1 6 4 5
2 3 4 1 5 6
5 1 6 2 4 3
3 5 2 4 6 1
6 5 4 3 2 1
1 2 3 4 6 5
5 1 2 3 4 6
2 6 3 4 5 1
2 5 1 6 4 3
2 5 4 3 1 6
3 2 4 6 1 5
1 5 6 4 2 3
6 3 5 2 1 4
4 5 6 2 3 1
6 4 3 5 2 1
3 4 2 5 6 1
1 3 2 6 5 4
2 5 6 3 1 4

10
Loretta Cross
Cesar Oleson
Julian Shay
Clark Henson
Celia Bright
Morgan Maynard
Linda North
Roland Carver
Angelina Rubio
Floyd North
10 8 5 3 4 2 9 6 1 7
3 7 10 9 5 8 1 4 6 2
7 4 9 5 2 8 6 10 3 1
7 6 8 9 4 10 2 5 3 1
9 6 1 7 4 5 8 10 3 2
10 6 3 4 7 5 8 2 9 1
9 7 5 10 2 8 3 1 4 6
10 2 7 6 8 4 9 1 3 5
2 1 4 7 3 5 9 10 6 8
7 8 10 5 6 4 2 3 1 9
9 10 3 5 1 7 8 6 4 2

4
Roland North
Michael Russell
Kelsey Dodson
Marie Paul
4 3 1 2

6
Marie Benson
Caitlin Moyer
Chelsea Mercer
Floyd Barber
Marie Paul
Marie Mueller
3 4 1 2 6 5
3 6 2 4 5 1
4 2 1 6 5 3
3 4 1 5 6 2
3 4 5 2 6 1
6 3 4 1 2 5
6 1 2 3 4 5
3 4 6 5 2 1
1 5 4 3 2 6
6 4 5 2 1 3
1 6 4 2 3 5
3 2 6 4 1 5
3 5 4 2 1 6
5 1 4 6 2 3
3 4 5 2 1 6
5 1 2 3 4 6
5 4 6 3 1 2
5 2 1 3 6 4
2 5 3 1 4 6
2 6 5 1 4 3
3 2 6 4 1 5
2 6 4 1 3 5
1 2 4 5 6 3
6 3 4 5 2 1
2 3 6 4 5 1
5 2 6 3 4 1
4 1 2 3 5 6
4 2 5 6 1 3
3 4 2 6 1 5
3 1 6 5 4 2
1 3 4 2 6 5
2 6 3 5 4 1
4 1 2 3 6 5
4 1 3 5 2 6
6 1 4 2 3 5
3 6 1 5 4 2
6 4 2 3 1 5
2 1 6 4 5 3
3 5 6 4 1 2
3 5 2 1 6 4
4 3 2 6 5 1
4 3 2 6 5 1
1 6 4 2 5 3
4 5 1 6 3 2
5 3 1 2 6 4
3 6 5 1 2 4
6 2 1 4 3 5
3 2 5 4 6 1
2 3 6 4 1 5
6 5 1 4 2 3
4 2 6 5 1 3
2 1 3 4 5 6
4 2 6 1 3 5
6 4 2 1 3 5
1 2 6 5 3 4

8
Daniel Bright
Clark Delgado
Chelsea Dodson
Angelina Rubio
Michael Cross
Tracie Proctor
Morgan O'Connel
Erick Paul
7 5 3 8 6 1 2 4

10
Carla Benson
Lisa Carver
Linda Dodson
Delgado Livingston
Marie Henson
Roland Paul
Michael Jefferson
Chelsea Oleson
Marie Oleson
Chelsea Mercer
4 1 2 7 10 3 9 6 5 8
10 9 1 5 6 4 2 7 3 8
5 2 4 6 7 9 3 1 8 10
5 8 6 1 4 10 2 9 7 3
10 6 9 1 4 2 8 5 7 3
1 5 3 4 7 10 8 2 6 9
6 9 1 8 4 10 3 5 2 7
9 3 8 7 1 10 6 2 5 4
6 2 1 3 7 10 9 4 8 5
6 3 10 4 2 5 9 8 1 7
7 10 5 9 3 8 6 1 4 2
7 10 6 8 2 1 5 3 9 4
6 9 2 1 3 8 7 10 4 5
6 9 5 7 3 1 2 8 10 4
6 9 4 10 7 5 8 1 3 2
8 4 5 7 6 10 9 2 1 3
1 8 9 10 2 7 3 4 6 5
8 4 5 6 7 10 9 2 1 3
7 4 5 8 2 1 10 6 9 3
5 4 3 1 6 7 8 10 2 9
8 3 6 1 5 2 7 4 9 10
2 5 1 4 10 8 3 6 9 7
6 10 3 1 8 9 2 5 7 4
9 6 10 1 5 8 7 3 2 4
6 8 5 3 7 9 10 2 1 4
8 3 9 6 4 7 5 1 2 10
8 2 1 3 6 7 4 5 9 10
4 3 5 6 9 1 7 10 8 2
6 10 8 1 2 4 3 5 7 9
2 10 7 5 6 3 8 1 4 9
9 7 1 4 5 2 10 3 8 6

8
Lisa Barber
Cesar Dodson
Celia Paul
Lisa Dodson
Maria Oleson
Delgado Cross
Lisa Bright
Morgan Paul
7 2 4 8 6 5 1 3
3 5 4 7 1 8 6 2
3 6 7 5 2 1 4 8
3 6 7 2 8 4 5 1
6 2 7 4 3 1 5 8
8 6 2 7 3 5 4 1
1 3 7 4 2 5 8 6
3 2 4 8 1 6 5 7
2 5 3 7 1 6 4 8
8 1 2 6 4 3 5 7
2 3 4 5 8 1 7 6
3 8 5 4 7 2 6 1
7 2 4 1 6 3 5 8
6 7 3 1 2 5 4 8
4 3 6 1 5 7 2 8
5 6 4 2 8 1 3 7
8 2 7 1 5 4 6 3
3 5 8 2 7 6 1 4
8 2 6 4 5 1 7 3
6 5 2 3 1 8 7 4
6 2 7 5 8 3 4 1
7 8 6 2 3 4 1 5
7 8 3 4 5 2 1 6
1 2 6 7 4 3 8 5
1 5 6 7 8 2 4 3
8 5 3 1 2 4 7 6
7 2 6 3 8 1 5 4
4 8 3 2 1 5 7 6

4
Cesar Mercer
Linda Russell
Maria Moyer
Celia Livingston
4 3 2 1
3 2 4 1
3 1 2 4
2 3 4 1
3 1 2 4
4 2 3 1
1 4 3 2
2 1 3 4
2 3 4 1
4 1 2 3
3 2 4 1
3 2 4 1
2 1 3 4
2 3 1 4

8
Erick Russell
Maria Mueller
Roland Livingston
Caitlin Rivers
Carla Shay
Delgado Paul
Lindsey Steward
Floyd Steward
6 3 2 7 4 1 8 5
7 2 6 4 3 8 5 1
8 5 2 7 3 6 1 4
7 4 5 3 8 2 6 1
5 6 1 4 2 8 7 3
2 4 7 6 1 8 5 3
6 7 5 4 8 1 2 3
2 1 4 5 8 3 6 7
5 2 4 3 8 7 6 1
1 2 5 4 7 8 6 3
7 1 6 2 5 3 8 4
6 2 7 4 8 1 3 5
1 6 3 5 4 2 7 8
3 7 6 8 1 2 5 4
3 4 5 2 8 6 7 1
5 4 1 7 3 8 2 6

4
Edward Mead
Lindsey Cross
Roland Benson
Marie Moyer
1 3 4 2
3 1 4 2
2 4 1 3
1 4 2 3
4 1 2 3
3 1 2 4
1 2 3 4
4 2 3 1
2 4 1 3
4 1 2 3
1 4 2 3
1 2 3 4
2 4 3 1
2 1 3 4
4 2 3 1
4 1 3 2

10
Floyd Russell
Floyd Henson
Michael Hardin
Larry Barber
Delgado Mead
Angelina Mercer
Clark Henson
Erick North
Celia Mercer
Marie Bright
3 10 9 4 5 7 8 1 2 6
4 5 3 6 9 2 7 10 1 8
7 5 1 6 3 4 9 10 2 8
2 10 9 6 4 5 3 1 7 8
10 2 6 4 9 1 5 7 8 3
8 6 2 3 10 7 5 1 9 4
4 10 2 9 6 1 8 7 5 3
8 2 10 7 3 5 1 6 4 9
2 10 8 5 3 9 4 1 6 7
2 4 8 7 1 5 10 6 3 9
3 8 7 4 2 1 10 6 5 9
7 4 5 10 2 6 8 3 9 1
4 8 9 2 6 7 5 1 10 3
4 7 3 8 5 2 6 10 9 1
7 1 4 3 9 8 10 5 2 6
9 5 4 2 3 1 10 7 8 6
2 1 5 4 3 6 8 7 10 9
1 2 5 8 7 4 9 6 3 10
1 3 2 6 9 4 7 10 8 5
2 5 4 10 1 9 8 7 3 6
1 5 6 7 10 4 8 9 3 2
10 2 6 7 5 3 9 4 8 1
7 2 3 5 1 4 6 9 8 10
10 6 5 2 4 3 8 1 9 7
7 9 2 3 5 1 8 4 10 6
1 7 10 4 9 3 5 6 8 2
10 5 6 8 1 3 9 4 7 2
1 2 10 8 3 4 7 6 5 9
7 1 4 3 6 8 2 9 5 10
1 2 8 6 5 7 10 3 4 9
1 8 3 4 7 2 9 6 10 5
3 1 8 2 7 5 10 6 9 4
7 10 9 1 2 8 3 5 4 6
10 1 7 3 2 8 9 6 5 4
6 7 2 10 4 1 8 5 3 9
3 4 8 10 1 9 2 6 5 7
7 1 5 4 10 3 8 2 9 6
2 6 7 4 1 8 10 9 5 3
2 9 10 3 6 4 8 5 7 1
8 9 1 2 7 5 4 6 3 10
1 5 7 8 6 9 4 3 10 2
10 4 8 1 7 9 2 6 3 5
1 2 4 10 5 7 3 8 9 6
10 3 5 2 7 8 6 1 4 9
2 6 4 1 7 10 5 3 9 8
2 4 8 7 10 9 6 1 5 3
7 1 6 10 5 8 4 9 2 3
6 7 3 9 8 5 4 2 10 1
8 6 10 7 2 9 1 5 4 3
8 4 3 5 9 1 10 6 7 2
6 4 7 3 10 5 8 9 1 2

3
Larry Hardin
Edward Benson
Maria Rubio
1 2 3
3 1 2
2 1 3
1 2 3
2 1 3
1 3 2
1 2 3
1 3 2
2 1 3
3 2 1
2 3 1
2 1 3
2 1 3
2 1 3
3 1 2
2 3 1
3 1 2
2 1 3
1 2 3
2 3 1
2 1 3
1 3 2
3 2 1
3 1 2
3 2 1
3 1 2
3 2 1
2 1 3
1 3 2
1 3 2
1 3 2
1 3 2
1 3 2
2 3 1
2 1 3
1 3 2
2 1 3
2 3 1
3 2 1
3 1 2
2 3 1
3 2 1
2 1 3
1 3 2
2 1 3
1 2 3
1 2 3
3 1 2
1 3 2
3 2 1
2 3 1
1 3 2
3 1 2
1 2 3
3 2 1
1 3 2
3 2 1
3 1 2
2 1 3
1 2 3
1 2 3
2 1 3
2 3 1
2 1 3
3 2 1
2 1 3

2
Julian Benson
Carla Bright
1 2

6
Kris Hancock
Delgado Mueller
Chelsea Moyer
Caitlin Carver
Carla Delgado
Kelsey Bright
1 6 4 3 5 2
3 2 4 6 5 1
4 3 1 6 2 5
2 1 3 5 4 6
4 5 6 1 2 3
2 3 4 5 1 6
3 2 6 4 5 1
6 2 5 1 3 4
6 4 1 5 3 2
2 4 1 3 6 5
3 4 5 1 6 2
6 2 4 3 5 1
4 6 2 3 5 1
6 2 3 1 5 4
3 6 4 5 1 2
6 2 5 4 1 3
5 2 4 1 3 6
1 6 4 3 2 5
6 4 5 3 1 2
4 1 5 6 3 2
2 1 3 4 6 5
3 5 6 4 2 1
3 1 4 2 5 6
4 2 3 5 6 1
6 3 2 4 5 1
5 1 4 3 2 6
5 6 3 2 4 1
1 3 5 4 2 6
1 6 3 2 4 5
3 2 5 4 6 1
2 6 3 4 5 1
2 5 4 3 1 6
6 1 2 3 4 5
6 4 2 5 3 1
1 2 3 4 5 6
4 2 1 3 5 6
5 3 4 1 6 2
3 2 1 4 6 5
4 6 5 3 1 2
2 3 5 6 4 1
4 1 3 2 6 5
6 1 5 4 3 2
5 6 1 3 4 2
1 4 2 5 3 6
4 6 3 1 5 2
1 2 6 3 4 5
1 3 5 4 2 6
1 5 4 6 2 3
1 5 3 2 6 4
1 6 2 3 4 5
3 4 6 5 2 1
2 5 1 6 3 4
4 1 2 5 6 3
2 4 5 6 1 3
6 5 3 2 4 1
1 2 5 4 3 6
5 1 2 4 6 3

5
Celia Oleson
Chelsea Mead
Morgan Carver
Lisa Cross
Lisa Benson
5 1 2 3 4
2 5 4 1 3
3 2 1 5 4
3 4 5 2 1
3 4 5 2 1
5 4 2 3 1
4 2 3 1 5
5 4 3 1 2
4 3 2 1 5
2 1 4 5 3
1 5 2 3 4
5 1 3 4 2
4 2 1 5 3
3 1 2 5 4
1 5 2 4 3
1 5 4 2 3
4 1 3 5 2
1 4 2 5 3
3 1 2 5 4
4 5 1 3 2
2 1 5 4 3
3 5 4 2 1
3 1 4 5 2
1 5 2 3 4
1 3 4 2 5
4 1 2 5 3
1 5 3 4 2
4 3 1 5 2
4 1 2 3 5
4 5 1 3 2
2 3 1 4 5
4 2 3 5 1
3 5 2 1 4
1 2 3 5 4
1 5 4 3 2
4 2 3 1 5
5 3 4 1 2
3 4 5 2 1
5 1 4 3 2
5 3 2 4 1
1 5 4 3 2
3 1 4 5 2
4 5 3 2 1
3 4 2 5 1
4 3 5 1 2
2 1 4 3 5
5 2 3 4 1
2 5 3 4 1
5 1 3 4 2
5 2 4 1 3
2 4 3 5 1
1 3 4 2 5
4 2 1 5 3
3 5 4 2 1
3 5 1 4 2

4
Larry Proctor
Vanessa Hancock
Lindsey Hardin
Larry Hancock
2 1 4 3
3 4 1 2
4 3 2 1
1 2 3 4
4 2 1 3
1 4 2 3
1 3 4 2
1 3 2 4
1 3 2 4
4 1 2 3
4 1 2 3
4 2 3 1
2 1 3 4
1 3 2 4
1 2 4 3
4 2 1 3
4 2 3 1
2 1 3 4
3 2 4 1
2 4 1 3
1 4 3 2
4 1 2 3
3 4 1 2
2 4 1 3
1 2 3 4
2 3 4 1
2 3 1 4
1 4 2 3
4 3 1 2
1 4 3 2
4 2 1 3
4 3 2 1
3 4 1 2
2 3 1 4
4 1 3 2
4 1 2 3
3 2 4 1
2 1 3 4
3 2 1 4
4 2 1 3
1 2 4 3
4 1 3 2
1 4 2 3
1 2 4 3
4 2 1 3
3 2 1 4
3 2 4 1
3 1 2 4
1 4 2 3
3 2 4 1
2 3 4 1
4 2 3 1
2 1 4 3
3 2 1 4
4 3 1 2
1 3 4 2
4 3 1 2
2 3 4 1
3 4 1 2
2 4 3 1
3 1 2 4
4 1 3 2
2 1 4 3
4 3 2 1
2 3 4 1
1 4 2 3
4 3 1 2
2 3 4 1
4 1 2 3
2 1 3 4
4 1 3 2

8
Tracie Henson
Vanessa Rubio
Linda Carver
Maria Mercer
Erick Goodwin
Marie Hancock
Michael Moyer
Clark Rivers
2 5 1 8 3 7 6 4
7 6 4 3 1 5 2 8
4 1 3 2 6 8 5 7
1 2 5 7 3 8 6 4
8 3 4 7 6 1 2 5
6 5 2 4 7 8 1 3
3 5 7 4 1 6 2 8
4 7 5 8 1 6 3 2
7 8 1 4 5 3 6 2
4 8 5 6 2 3 1 7
6 2 7 3 1 4 8 5
1 7 2 5 8 3 4 6
1 6 8 7 3 5 4 2
8 2 7 1 4 6 5 3
5 6 8 4 7 1 3 2
8 6 5 4 2 1 3 7
1 7 8 3 4 2 6 5
6 7 4 1 8 5 2 3
6 5 8 4 7 3 1 2
1 5 2 3 6 7 8 4
2 8 5 3 4 6 7 1
4 6 7 5 1 3 2 8
4 5 2 6 1 7 8 3
4 5 7 2 3 1 8 6
5 2 7 1 6 8 4 3
6 5 4 7 3 1 8 2
7 2 6 3 8 4 5 1
3 8 1 2 6 7 5 4
8 5 2 4 6 7 3 1
7 5 6 1 8 4 3 2
3 4 1 5 7 2 8 6
6 2 8 5 4 1 3 7
5 6 3 7 4 1 2 8
1 7 2 4 3 8 6 5
7 1 4 6 8 3 2 5
5 4 8 3 2 1 7 6
3 7 8 1 5 6 2 4
3 1 6 5 8 7 2 4
8 6 7 4 3 2 1 5
2 5 6 3 7 1 8 4
6 7 5 2 8 4 1 3
8 1 4 3 6 5 2 7
5 4 6 2 8 7 1 3
4 3 6 2 8 7 5 1
7 6 8 1 3 2 4 5
7 8 3 6 1 5 2 4
5 6 1 4 8 2 7 3
8 5 3 1 2 6 7 4
5 1 4 2 3 7 6 8
2 3 6 8 5 4 1 7
3 4 8 5 1 7 6 2
3 5 7 1 8 6 2 4
7 6 2 1 4 3 8 5
8 3 6 1 2 4 5 7
2 7 6 5 4 3 1 8
6 1 7 2 4 3 5 8
7 1 4 2 5 8 3 6
2 5 7 4 6 1 8 3
4 8 2 5 6 3 7 1
7 4 1 3 2 8 5 6
3 6 4 7 5 2 8 1
7 1 2 6 5 4 8 3
5 1 2 7 8 4 3 6
6 3 5 1 2 4 7 8
7 3 8 4 1 5 6 2
5 3 4 6 8 1 2 7

7
Tracie Dodson
Erick Barber
Daniel Rubio
Loretta Carver
Cesar Livingston
Angelina Mercer
Angelina Moyer
1 5 7 3 2 6 4
7 3 5 1 2 6 4
2 5 6 3 1 4 7
3 7 6 2 1 5 4
3 5 7 1 6 4 2
4 1 6 2 5 3 7
1 6 2 3 4 7 5
5 4 1 3 2 7 6
4 5 1 7 2 3 6
6 5 3 2 7 1 4
3 4 6 1 7 5 2
6 4 1 2 5 7 3
3 6 5 4 7 1 2
7 6 2 5 3 1 4
1 6 3 4 7 2 5
7 2 1 5 3 4 6
4 5 7 2 6 1 3
2 7 6 1 4 5 3
3 1 4 6 5 2 7
3 1 5 4 2 6 7
2 3 1 4 6 7 5
4 7 2 6 1 3 5
7 5 2 4 6 3 1
1 3 4 5 2 6 7
4 1 2 3 5 6 7
3 1 4 5 6 2 7
3 6 7 5 2 1 4
2 1 5 3 7 6 4
1 4 2 3 5 6 7
3 6 7 5 1 2 4
6 2 5 3 1 7 4
6 4 1 3 5 2 7
1 2 7 5 6 3 4
4 2 6 3 7 5 1
2 5 6 7 1 3 4
3 4 5 2 7 1 6
6 5 4 7 3 2 1
4 5 1 2 7 3 6
2 6 4 1 5 3 7
3 7 6 4 2 1 5

8
Delgado Moyer
Clark Goodwin
Linda Henson
Floyd Goodwin
Kelsey Oleson
Kelsey Proctor
Michael Livingston
Delgado Shay
6 1 4 5 2 8 3 7
8 3 5 7 4 6 2 1
6 1 2 8 4 5 7 3
5 3 2 7 4 1 8 6
1 6 7 5 4 2 8 3
2 5 3 4 8 6 7 1
7 6 3 1 2 5 4 8
4 1 6 5 7 3 2 8

2
Lisa North
Michael Rivers
1 2
1 2
1 2
2 1
1 2
1 2
2 1
1 2
2 1
1 2
1 2
2 1
2 1
1 2
2 1
1 2
2 1
1 2
1 2
1 2
2 1
2 1
2 1
2 1
2 1
1 2
2 1
2 1
1 2
1 2
2 1
2 1
1 2
2 1
2 1
1 2
2 1
2 1
1 2
1 2
1 2
2 1
2 1
2 1
1 2
2 1
2 1
1 2
2 1
1 2
1 2
2 1
2 1
1 2
2 1
1 2
2 1
1 2
1 2
1 2
1 2
1 2
2 1
1 2
1 2
1 2
1 2
2 1
2 1
1 2
1 2
1 2
1 2
1 2

2
Celia Shay
Carla Steward
2 1
2 1
2 1
1 2
1 2
2 1
2 1
2 1
1 2
1 2
1 2
2 1
1 2
1 2
2 1
2 1
2 1
1 2
2 1
1 2
2 1
1 2
1 2
1 2
1 2
2 1
1 2
1 2
2 1
1 2
2 1
2 1
1 2
2 1
1 2
1 2
2 1
2 1
2 1
1 2
2 1
1 2
1 2
2 1
2 1
2 1
1 2
2 1
1 2
1 2
1 2
2 1
1 2
1 2
2 1

9
Floyd Dodson
Marie Moyer
Marie Cross
Carla Mueller
Morgan Delgado
Angelina Oleson
Lisa Russell
Loretta Goodwin
Julian Oleson
7 9 5 6 8 4 1 2 3
6 1 9 8 5 3 7 4 2
9 3 2 1 4 8 5 6 7
9 4 3 2 6 8 1 5 7
9 8 5 7 6 1 3 2 4
8 2 1 3 5 6 7 9 4
7 6 5 2 1 8 4 3 9
2 6 3 9 5 4 8 1 7
5 6 9 1 4 8 3 2 7
5 6 4 7 1 8 9 3 2
4 1 9 8 6 2 3 5 7
3 6 5 9 1 7 2 8 4
6 1 3 2 9 5 8 7 4
4 7 1 9 8 5 6 3 2
1 8 6 5 4 2 9 3 7
9 4 5 2 3 1 7 8 6
1 2 3 5 6 8 9 7 4
8 5 9 2 7 6 4 3 1
2 3 6 4 8 9 1 5 7
7 8 2 4 5 1 9 3 6
4 8 6 7 3 9 5 1 2
2 1 3 7 8 4 9 6 5
2 5 7 9 3 4 1 8 6
6 5 7 9 2 8 4 1 3
5 2 1 4 3 6 8 9 7
8 1 3 5 4 6 2 9 7
5 6 9 4 3 8 2 7 1
8 2 7 4 1 9 3 6 5
7 8 1 3 5 6 2 4 9
6 4 7 5 2 8 9 3 1
9 1 2 6 8 4 5 3 7
3 9 2 5 8 7 4 1 6
3 6 7 9 8 1 4 5 2
5 4 3 2 9 6 7 8 1
9 3 6 4 2 5 7 8 1
1 4 8 9 5 2 3 7 6
3 9 1 2 8 5 7 4 6
7 8 4 1 9 2 6 3 5
4 2 1 3 9 8 6 7 5
7 5 1 9 6 4 8 2 3
3 4 9 1 2 7 5 8 6
2 1 5 9 8 7 3 4 6
6 4 8 9 5 3 7 1 2
1 2 6 4 7 8 5 3 9
9 2 3 5 1 7 6 8 4
3 7 2 4 6 9 1 5 8
3 5 6 1 8 4 9 2 7
7 2 5 6 3 8 4 1 9
3 1 4 7 8 6 9 5 2
8 1 3 5 9 2 7 6 4
9 8 1 2 6 4 3 5 7
4 6 1 8 7 3 2 9 5
8 7 6 4 2 9 3 1 5
1 7 6 9 3 8 5 4 2
9 2 3 6 8 7 5 4 1
1 4 8 3 6 2 9 7 5
3 2 9 7 5 1 8 4 6
7 8 2 4 1 9 3 6 5
2 8 4 5 3 6 7 1 9
4 1 9 5 7 3 8 6 2

7
Cesar Mueller
Celia Rubio
Celia Henson
Marie Mercer
Cesar Hardin
Kris Henson
Julian Mueller
2 1 4 6 7 5 3
3 5 4 7 1 6 2
3 7 6 2 4 1 5
2 3 1 7 6 4 5
6 5 4 7 2 3 1
6 5 7 3 2 4 1
3 2 6 1 4 7 5
6 4 1 3 7 5 2
3 5 1 4 2 7 6
1 7 3 6 4 2 5
7 5 2 3 6 4 1
5 3 2 1 6 7 4
2 6 3 4 5 7 1
1 5 6 2 7 3 4
7 1 4 2 5 3 6
5 2 1 6 7 4 3
4 5 1 6 2 3 7
7 3 6 1 2 5 4
4 3 6 7 2 1 5
3 4 7 6 1 2 5
4 7 5 1 2 3 6
4 2 1 5 3 7 6
6 4 1 3 5 2 7
1 6 5 4 3 2 7
6 5 3 4 1 7 2
4 2 6 3 1 7 5
6 5 1 4 2 7 3
1 6 7 3 4 2 5
3 7 2 5 6 1 4
1 4 5 7 2 6 3
6 7 1 2 3 5 4
7 3 2 1 6 4 5
2 7 1 4 3 6 5
7 3 1 2 5 6 4
5 4 3 1 6 7 2
6 3 4 1 2 7 5
5 2 3 4 6 7 1
6 1 4 7 5 2 3
4 6 7 5 3 1 2
3 1 5 2 4 7 6
3 4 5 7 2 6 1
7 4 6 3 5 2 1
7 6 5 3 1 2 4
4 5 6 2 3 7 1
3 7 2 4 6 5 1
6 2 7 5 1 3 4
5 2 6 4 3 7 1
7 6 3 4 2 1 5
2 7 4 1 3 5 6
3 6 5 7 4 2 1
4 1 7 5 3 2 6
5 1 7 4 6 2 3
2 4 3 1 5 7 6
3 7 6 4 1 5 2
5 4 3 7 2 6 1
5 1 2 7 6 3 4

10
Cesar Maynard
Caitlin Rubio
Chelsea O'Connel
Michael Rivers
Roland Mead
Kelsey Hancock
Vanessa Steward
Delgado O'Connel
Tracie Proctor
Floyd Barber
4 2 3 7 6 10 8 5 1 9
10 1 8 7 2 6 9 4 5 3
3 9 1 8 4 2 10 5 6 7
8 4 10 2 3 7 1 9 5 6
5 10 8 7 1 4 6 9 3 2
6 7 4 9 8 3 5 1 10 2
7 4 6 9 10 8 5 2 1 3
8 2 1 9 5 3 7 4 6 10
10 4 8 3 7 5 9 6 2 1
7 1 8 6 10 3 5 2 4 9
1 9 7 10 6 2 8 5 3 4
10 2 6 8 4 3 5 7 9 1
7 2 8 6 1 3 4 5 10 9
10 2 5 4 8 1 7 9 3 6
9 3 1 4 8 5 2 6 7 10

4
Kris O'Connel
Marie Paul
Floyd Jefferson
Erick Livingston
4 1 2 3
2 1 3 4
4 2 1 3
4 3 1 2
2 1 3 4
3 1 4 2
3 1 4 2
2 4 1 3
2 3 1 4
3 2 4 1
1 4 2 3
2 3 1 4
3 2 4 1
1 4 2 3
3 1 2 4
3 1 4 2
4 2 1 3
1 4 2 3
2 4 3 1
4 3 1 2
3 1 2 4
3 2 1 4
3 2 4 1
3 4 1 2
2 1 3 4
2 4 1 3
1 3 4 2
2 3 4 1
1 2 4 3
4 2 1 3
3 2 1 4
1 3 2 4
2 3 4 1
2 4 1 3
1 4 2 3
4 3 2 1
1 2 4 3
1 3 4 2
2 4 1 3
3 1 2 4
2 1 4 3
2 4 3 1
4 2 3 1
3 1 2 4
4 1 2 3
4 2 1 3
2 4 1 3
3 2 4 1
1 3 2 4
3 1 2 4
4 1 3 2
3 1 4 2
4 3 1 2
4 2 3 1
2 4 3 1
1 4 2 3
3 1 2 4
4 3 2 1
1 3 2 4
4 1 3 2
2 1 4 3
4 2 3 1
4 2 3 1
3 2 1 4
4 3 2 1
4 1 3 2
2 1 4 3
3 1 4 2
3 4 2 1
1 3 4 2
