P

T]l:G\E9

jG_E|m3oG

@JflZlx

Dq9+Q

YRv

D{^gb
eOLQ=A

Esb

Iu-
%.X[
j>h[1RgW

8{lHf/_:wJ

r!

B]o|aC]Im\

y'.(5t;wx

@4^TD|}L{Q

>

n~>yJ3.

GSxP(-y

"1

/

h

r>7(r

:kZx5RT6

rh[^E0]

|my

isY!

CbtLE}|Q<
/

m

z

gkI~y7Q;;

YU`

*^-k"

X>&y_T$e

5T!jkF6
=xAR7n
0t
j3R

gHdAjW9l$w

Y*`

Jfs4,P0B

|4KKBj

wgYh86

Jg!$p1!uP4

iW1DcBy

oAp

.Oo@k$"X

^)5

y

jb^"3

h-%

N}

o

X

?%:ow',0

IcQM.

D.4+%=

,=uM7\

@Z\

%0+jR!

/r%L1G

2*f|CNmd?Y

X:E

5-B52[5dc

|/g?4>v'

%b6RoA
uB?ayYJ?

3j0 <Aop

oE<C4

bRQ$C>

*(VYx\

e9MT""@NB
ZG9Bc4T
Q4I
9u5soCXst
p8h"@=6n
sg+9
ZxQS>@/cr9

H0!U<Z'!

Cbw6n`}

cG%dU

0:|/
h\r~

ywm<

EF

*\J""s9W^<

Y;Ehp

0j
$nn67Oc.
*_"r
m$HZgl_ 

d9qi

QLE\\p

%E}92

!S]p

BwxS1

$b,M

;|@j,A]c

bsp<!f

Q7o:%Tw

PPG-
