90

5
Aarush
Charlie
Bob
Diana
Ayush
3 2 4 1 5
5 4 2 3 1
3 1 2 5 4
3 1 2 4 5
4 5 3 1 2
5 2 1 4 3
4 2 3 1 5
4 3 1 5 2
2 4 1 5 3
3 1 4 2 5
5 2 4 3 1
3 5 1 2 4
4 3 2 1 5
1 2 4 5 3
2 4 1 3 5
2 1 3 4 5
5 3 1 4 2
4 1 5 3 2
3 4 1 5 2

5
Charlie
Ayush
Diana
Aarush
Ethan
3 5 4 1 2
5 3 1 4 2
2 3 1 4 5
5 3 1 2 4
3 5 2 4 1
3 1 2 5 4
3 5 4 1 2
3 1 5 4 2
5 1 2 3 4
2 1 5 4 3
3 5 1 2 4
1 3 5 2 4
3 2 1 5 4
1 3 5 2 4
5 1 2 3 4
3 2 5 4 1

5
Alice
Diana
Ayush
Aditya
Bob
4 5 1 3 2
2 4 3 5 1
2 3 5 1 4
1 3 4 5 2
5 2 3 1 4
4 1 2 3 5
2 1 5 4 3
1 3 5 4 2
2 1 5 4 3
1 4 5 3 2
1 5 2 3 4
5 1 3 4 2
1 3 5 4 2

5
Ethan
Naman
Bob
Diana
Alice
1 5 3 4 2
5 2 4 1 3
1 3 5 2 4
4 5 2 1 3
2 5 3 4 1
5 4 3 2 1
1 3 5 4 2
3 2 5 1 4
3 5 2 1 4
1 5 2 4 3
3 1 2 5 4
5 2 4 1 3
4 1 2 3 5
4 5 3 2 1
1 4 2 5 3
1 4 5 3 2
1 3 5 2 4
5 1 2 4 3
1 4 2 5 3
3 2 1 4 5
4 2 5 3 1
2 4 5 1 3
5 3 4 2 1
4 3 2 1 5
5 2 3 4 1
3 4 5 2 1
1 2 3 5 4
2 3 5 4 1
1 3 2 4 5
5 4 3 1 2
4 5 3 2 1
5 2 3 1 4
3 5 1 4 2
5 4 2 3 1
1 4 3 2 5
2 3 4 5 1
1 3 2 4 5
1 5 3 4 2

4
Ayush
Charlie
Aarush
Naman
1 3 2 4
1 4 2 3
4 1 2 3
2 4 3 1
1 4 3 2
2 1 4 3
2 1 3 4
2 3 1 4
2 1 4 3
2 1 3 4
1 3 4 2
4 1 3 2
1 3 2 4
2 1 3 4
3 4 1 2
4 1 3 2
4 1 2 3
1 3 4 2
2 4 1 3
1 3 4 2
2 1 3 4
3 4 1 2
1 4 2 3
1 2 4 3
3 1 4 2
1 2 4 3
2 3 1 4
2 3 1 4
3 2 1 4
3 4 1 2

3
Charlie
Diana
Naman
2 1 3
3 1 2
2 1 3
2 3 1
1 2 3
3 2 1
3 2 1
2 3 1
2 3 1
3 2 1
3 1 2
1 2 3
1 3 2
1 2 3
1 2 3
2 1 3
2 1 3
2 1 3
2 3 1
2 1 3
1 3 2
3 1 2
2 3 1
2 3 1
3 2 1
1 2 3
2 3 1
3 2 1
3 1 2
2 3 1

7
Diana
Bob
Charlie
Naman
Ethan
Aditya
Ayush
2 7 5 3 4 6 1
5 7 4 3 6 2 1
7 3 5 2 4 6 1
2 5 1 7 4 6 3
6 5 2 1 4 3 7
3 7 4 1 5 6 2
4 2 7 5 1 6 3
5 2 3 1 6 7 4
2 3 1 5 7 4 6
6 7 2 4 1 5 3
5 6 4 2 3 7 1
7 6 2 3 1 5 4
4 3 7 2 6 1 5
5 4 1 7 2 6 3
3 7 6 1 5 4 2
2 3 7 1 6 5 4

5
Aditya
Charlie
Naman
Aarush
Bob
2 1 5 3 4
4 3 1 5 2
4 3 2 5 1
1 3 5 2 4
3 5 1 4 2
2 4 1 5 3
3 4 5 2 1
4 5 1 3 2
3 4 1 5 2
4 5 1 3 2
4 3 2 1 5
2 4 1 5 3
2 1 5 4 3
1 5 4 2 3
1 2 5 3 4
3 4 1 2 5
1 5 2 4 3
1 2 3 5 4
5 3 4 2 1
1 5 2 4 3
3 5 4 1 2
2 4 1 5 3
5 3 4 1 2
5 4 1 3 2
3 4 5 1 2
4 3 5 1 2
1 4 3 2 5
4 3 1 2 5
5 2 1 4 3
2 5 3 4 1
1 2 4 5 3
2 5 1 3 4
2 3 1 4 5
1 2 3 4 5
2 5 1 4 3
1 2 4 3 5
3 4 5 1 2
3 2 1 5 4
1 3 4 5 2
3 1 4 5 2
2 3 4 5 1
1 2 5 4 3

3
Charlie
Aditya
Ayush
3 2 1
3 1 2
1 2 3
1 2 3
1 3 2
1 3 2
3 1 2
3 1 2
1 3 2
1 2 3
1 2 3
3 1 2
2 3 1
3 1 2
1 2 3
2 3 1
1 3 2
3 1 2

6
Charlie
Diana
Naman
Aarush
Bob
Aditya
6 3 1 2 5 4
4 3 6 2 1 5
3 2 4 5 1 6
4 2 5 3 6 1
6 4 3 1 2 5
4 5 1 2 3 6
2 6 5 4 3 1
3 4 2 5 1 6
3 4 1 6 2 5
5 6 4 3 1 2
4 1 2 5 3 6
6 2 4 5 3 1
3 2 1 5 4 6
5 2 6 3 4 1
4 3 1 5 2 6
2 6 3 1 4 5
2 6 4 3 1 5
4 2 5 6 3 1
6 2 4 1 3 5
6 3 5 2 1 4
4 3 5 2 1 6
5 1 3 6 2 4
1 3 6 4 5 2
5 4 2 6 1 3
3 6 1 5 2 4
2 3 6 5 4 1
1 4 2 3 6 5
5 2 1 3 6 4
4 3 6 1 5 2
5 1 4 6 2 3
3 1 2 4 6 5
2 1 5 3 6 4
2 3 1 4 5 6
2 1 3 5 4 6
6 5 1 4 2 3
6 5 4 3 1 2
2 6 5 1 3 4
1 2 4 3 6 5
3 6 4 1 2 5
3 2 5 4 1 6
1 5 6 2 3 4
5 4 2 6 1 3
1 6 3 2 5 4
5 4 3 6 2 1
1 3 4 2 5 6
6 4 3 1 5 2
6 5 2 1 3 4
6 1 3 2 4 5
6 1 2 4 3 5
4 5 6 1 2 3
6 2 3 5 1 4
4 2 5 6 3 1
3 6 5 4 1 2
1 5 2 6 3 4
5 2 3 4 6 1
6 1 2 3 5 4
1 3 6 4 5 2
5 2 4 6 1 3
6 5 1 3 2 4

8
Charlie
Ethan
Naman
Ayush
Alice
Aarush
Diana
Bob
3 1 5 8 2 4 6 7
1 6 7 2 4 5 8 3
4 7 6 1 2 5 3 8
1 5 7 4 8 6 2 3
3 7 2 4 8 1 6 5
2 3 4 6 8 7 5 1
5 2 4 1 8 3 7 6
3 6 8 5 1 4 2 7
3 8 4 6 7 5 1 2
7 6 1 2 4 5 8 3
2 3 8 1 6 5 7 4
4 6 2 5 8 7 1 3
4 2 1 8 5 7 6 3
2 7 6 4 5 1 3 8
5 6 8 7 4 2 3 1
6 2 1 8 5 7 3 4
6 1 5 7 3 2 4 8
5 4 8 2 3 6 1 7
2 3 5 8 1 4 6 7
5 4 8 2 1 6 7 3
6 1 8 5 2 7 4 3
5 6 1 2 8 4 3 7
7 2 6 5 3 4 8 1
1 2 3 6 4 7 5 8
1 8 3 2 4 5 7 6
4 5 7 1 8 3 6 2
8 6 3 4 2 1 7 5
4 2 3 1 8 6 5 7
3 4 2 6 8 1 7 5
8 4 6 5 7 1 3 2

4
Aditya
Alice
Ayush
Ethan
3 2 4 1
3 4 1 2
2 4 1 3
3 1 2 4
4 2 3 1
4 1 2 3
4 1 2 3
3 4 2 1
4 2 1 3
3 2 4 1
4 2 3 1
4 2 1 3
1 4 3 2
2 4 1 3
3 1 2 4
3 1 2 4
2 3 4 1
2 4 1 3

5
Naman
Alice
Ayush
Ethan
Aarush
3 5 1 4 2
5 3 2 4 1
2 3 1 5 4
1 3 4 2 5
1 2 4 5 3
1 4 2 3 5
1 5 2 3 4
1 4 5 3 2
2 4 5 1 3
1 3 5 2 4
1 2 3 4 5
3 1 2 4 5
1 2 5 3 4
1 4 5 2 3
5 1 3 2 4
2 4 1 3 5
5 2 4 3 1
5 3 4 2 1
3 5 2 4 1
4 5 1 3 2
2 5 4 3 1
4 3 5 2 1

8
Aarush
Diana
Aditya
Naman
Alice
Charlie
Ayush
Ethan
5 2 6 8 3 4 1 7
2 5 7 4 3 6 8 1
3 2 5 8 4 1 6 7
2 3 1 6 5 7 8 4
8 6 5 4 1 3 7 2
5 2 4 3 8 6 1 7
6 3 8 5 7 4 1 2
1 3 7 6 8 5 4 2
6 1 5 2 7 3 8 4
2 4 7 3 5 6 8 1
7 4 1 3 6 8 5 2
3 2 5 4 6 7 8 1
6 7 8 5 1 3 4 2
4 5 2 8 3 7 6 1
5 1 7 4 8 3 6 2
5 1 3 2 8 6 7 4
8 4 7 1 6 2 5 3
3 4 8 6 1 7 5 2

4
Diana
Aditya
Charlie
Ethan
2 3 4 1
1 4 3 2
4 3 2 1
3 4 1 2
2 3 4 1
1 4 2 3
1 2 4 3
2 3 1 4
4 3 1 2
3 4 2 1
2 1 3 4
3 4 2 1
3 4 1 2
1 4 3 2
4 1 3 2
2 1 4 3
4 2 1 3
3 1 2 4
1 2 4 3
2 1 3 4
2 3 1 4
1 3 4 2
4 2 1 3
2 1 4 3
4 2 3 1
1 3 4 2
4 1 3 2
3 4 2 1
2 1 3 4
2 4 3 1
2 4 1 3
2 1 3 4
4 1 2 3

4
Ethan
Alice
Aditya
Ayush
3 4 1 2
1 2 3 4
4 1 3 2
3 4 1 2
3 2 4 1
3 1 4 2
1 4 3 2
2 1 4 3
1 2 4 3
3 1 4 2
4 3 2 1
2 4 1 3
3 1 2 4
3 1 2 4
2 1 4 3
3 1 4 2
4 3 2 1
4 1 2 3
3 2 1 4
3 4 1 2
4 3 2 1
2 3 1 4
1 4 2 3
4 2 1 3
2 4 1 3
3 4 1 2
3 1 2 4
1 4 3 2
3 2 4 1
1 3 4 2
2 1 3 4

3
Bob
Ayush
Aarush
2 1 3
2 3 1
3 1 2
2 3 1
3 2 1
2 1 3
1 3 2
3 1 2
3 2 1
1 2 3
2 3 1
1 3 2
1 3 2
2 3 1
2 3 1
2 1 3
1 2 3
3 1 2
2 1 3
1 2 3
3 2 1
3 2 1
3 2 1
2 1 3

3
Alice
Naman
Aditya
2 3 1
2 3 1
3 2 1
3 2 1
3 1 2
3 1 2
2 3 1
3 2 1
2 3 1
2 3 1
2 1 3
3 1 2
3 1 2
1 2 3
2 1 3
1 3 2
1 3 2
3 1 2
3 1 2

6
Ayush
Bob
Aarush
Naman
Aditya
Charlie
3 6 5 4 2 1
5 3 4 6 1 2
4 6 5 2 1 3
5 4 1 6 2 3
4 2 3 5 1 6
4 2 3 1 5 6
6 4 2 1 5 3
1 6 3 2 5 4
1 5 3 4 2 6
6 2 4 1 5 3
3 5 6 1 2 4
6 2 5 3 4 1
6 5 4 2 3 1
4 1 5 3 2 6
1 6 4 3 2 5
4 3 5 1 6 2
3 4 5 6 2 1
5 1 6 2 4 3
5 1 6 4 2 3
2 4 3 6 1 5
4 2 5 6 3 1
6 1 5 4 2 3
2 3 6 4 1 5
4 2 3 1 6 5
5 6 4 3 2 1
1 2 6 4 5 3
1 5 4 6 2 3
5 6 1 4 2 3
2 4 3 5 6 1
4 6 3 5 2 1
2 6 4 3 1 5
4 2 3 5 6 1
3 1 2 6 5 4
3 5 4 2 1 6
3 6 1 2 5 4
6 2 5 4 1 3
5 2 1 3 6 4
4 6 1 2 3 5
4 2 3 5 1 6
2 4 6 5 1 3
2 4 5 1 6 3
6 4 5 1 3 2
2 5 3 4 1 6
2 4 6 5 3 1
4 2 1 3 5 6
3 2 6 5 1 4
3 6 2 1 5 4
1 2 3 5 4 6

7
Ethan
Aditya
Naman
Ayush
Alice
Diana
Bob
6 3 1 5 4 2 7
1 2 3 5 4 6 7
6 4 5 2 3 7 1
7 5 6 2 1 4 3
5 1 3 6 4 7 2
4 7 2 6 1 5 3
7 1 2 6 5 3 4
7 6 2 1 5 4 3
4 3 2 6 1 7 5
1 2 4 3 5 7 6
7 3 1 6 4 5 2
7 5 2 3 1 4 6
1 2 7 3 6 4 5
1 5 7 6 3 2 4
3 6 1 7 5 4 2
1 7 2 4 3 6 5
2 5 4 3 1 6 7
3 5 7 2 1 6 4
2 5 1 4 7 6 3
2 6 1 3 5 4 7
3 4 2 5 7 1 6
2 1 4 3 5 6 7
3 4 2 5 1 6 7
3 1 2 7 4 5 6
3 2 5 7 1 6 4
2 3 6 7 5 4 1
3 6 5 2 7 1 4
2 1 5 3 6 4 7
7 1 2 4 6 3 5
5 4 6 1 2 7 3
4 3 5 1 2 7 6
1 5 3 4 7 6 2
5 3 2 1 4 6 7
1 2 3 6 4 5 7
7 6 1 3 2 4 5
5 3 2 4 1 6 7
1 6 5 3 7 2 4
2 4 6 7 3 1 5
3 5 1 6 7 2 4
6 4 5 1 7 3 2
6 7 1 5 3 4 2
4 1 2 5 3 6 7
3 5 1 7 4 2 6
6 4 3 5 1 7 2
6 1 5 3 7 4 2
4 3 2 5 7 6 1
5 4 7 6 3 1 2
2 4 1 7 3 6 5
6 5 1 3 7 4 2

6
Ethan
Naman
Ayush
Alice
Bob
Charlie
6 2 5 4 3 1
2 6 3 5 4 1
5 4 3 6 1 2
1 4 6 2 5 3
5 4 3 6 1 2
2 3 6 1 5 4
3 1 2 4 5 6
1 5 6 4 3 2
2 3 4 5 6 1
4 2 3 1 6 5
1 2 5 6 4 3
6 2 4 5 1 3
5 2 3 6 4 1
3 2 1 6 4 5
3 6 5 1 4 2
3 5 4 6 2 1
4 5 2 1 3 6
3 4 6 1 5 2
3 2 5 4 1 6
5 2 6 3 1 4
1 5 3 2 6 4
3 1 6 4 5 2
4 1 3 5 2 6
2 6 1 3 4 5
6 1 3 2 4 5
4 3 5 6 2 1
5 4 6 1 2 3
2 4 6 1 3 5
4 3 5 1 6 2
4 1 5 2 6 3
1 4 5 2 6 3
2 1 4 5 3 6
6 4 3 5 2 1
2 3 6 1 4 5
3 6 4 1 2 5
4 3 6 5 2 1
5 2 4 3 1 6
1 2 4 5 6 3
5 4 1 3 2 6
1 6 3 2 5 4
1 2 6 5 4 3
2 4 6 1 5 3
4 1 5 3 6 2
1 2 6 3 5 4
3 6 1 2 5 4
6 4 3 5 1 2
6 5 3 1 2 4
2 3 4 1 5 6
2 6 4 5 1 3

6
Diana
Ayush
Aditya
Alice
Aarush
Naman
6 1 4 5 2 3
6 2 5 4 1 3
1 5 4 3 6 2
4 3 6 1 5 2
1 6 2 3 5 4
6 2 3 1 5 4
2 3 6 5 4 1
5 4 1 6 2 3
4 3 6 1 2 5
2 1 4 6 3 5
6 1 4 3 5 2
3 6 2 1 5 4
4 2 5 1 3 6
4 6 3 1 2 5
3 2 6 5 1 4
2 1 5 3 6 4
4 6 3 5 1 2
2 3 5 4 6 1
2 3 1 4 5 6
3 5 2 1 6 4
6 5 2 3 4 1

5
Bob
Ayush
Alice
Diana
Naman
2 5 1 4 3
2 3 4 5 1
4 3 5 1 2
3 4 5 1 2
1 3 5 2 4
2 4 5 3 1
1 2 4 5 3
4 1 5 3 2
3 1 5 4 2
4 2 5 1 3
2 1 3 4 5
2 4 1 3 5
5 4 1 3 2

6
Bob
Ethan
Diana
Aarush
Alice
Ayush
6 4 1 3 2 5
3 4 2 1 6 5
3 6 1 5 2 4
6 4 5 1 2 3
1 5 3 2 4 6
6 3 2 4 5 1
3 2 1 5 6 4
4 2 6 1 5 3
3 5 1 2 4 6
6 5 1 2 4 3
2 4 5 6 3 1
6 4 5 3 2 1
5 2 6 3 4 1
5 2 6 1 3 4
4 6 5 2 3 1
5 1 2 3 6 4
5 6 1 2 3 4
2 6 1 4 3 5
2 6 1 5 3 4
6 2 5 1 3 4
5 6 2 3 4 1
6 3 2 5 1 4
2 6 5 1 3 4
4 1 5 6 3 2
3 6 5 1 2 4
1 5 6 2 4 3
2 4 6 1 3 5
2 1 6 3 5 4
4 2 5 1 3 6
3 6 2 1 4 5
5 3 2 1 4 6
6 5 1 4 2 3
2 3 1 5 6 4
2 3 5 1 6 4
5 4 2 3 1 6
3 5 4 6 1 2
3 4 6 1 5 2
3 6 5 1 2 4
3 5 2 1 4 6
2 5 3 1 6 4
4 6 5 1 2 3
6 2 5 1 4 3
2 1 3 5 6 4
6 2 4 5 1 3
2 6 1 4 5 3
2 1 4 5 3 6
3 2 5 1 4 6
4 1 2 6 3 5
5 4 3 2 1 6
5 2 6 1 4 3
2 1 3 5 4 6
5 3 6 1 2 4
2 1 5 4 6 3
2 4 6 5 3 1

7
Naman
Aditya
Bob
Charlie
Diana
Ethan
Aarush
3 1 6 2 7 4 5
7 6 5 1 2 3 4
3 1 5 4 6 7 2
3 6 2 4 1 7 5
6 5 3 7 2 1 4
2 6 7 1 4 5 3
1 2 6 5 7 3 4
3 1 5 2 7 4 6
7 6 2 3 1 4 5
3 6 5 7 1 2 4
1 5 7 6 3 2 4
4 3 7 1 2 5 6
2 5 1 3 4 7 6
5 6 1 7 3 2 4
2 5 4 6 7 1 3
1 5 3 7 2 4 6
3 7 4 6 5 1 2
3 4 1 2 7 5 6
5 3 6 2 7 1 4
4 1 7 6 5 3 2
1 4 2 7 5 6 3
2 6 5 3 7 4 1
7 3 1 5 4 2 6
3 1 5 7 4 6 2
5 2 1 3 7 6 4
2 5 7 6 3 1 4
6 1 7 2 4 5 3
6 5 4 2 1 7 3
3 1 5 7 6 2 4
4 7 5 3 2 6 1
7 1 3 6 5 4 2
6 4 1 5 7 3 2
2 3 7 6 1 4 5
5 4 7 6 3 2 1
6 3 2 4 1 5 7
6 7 4 1 2 3 5
3 2 1 7 6 4 5
7 4 5 2 3 6 1
1 5 3 2 6 4 7
5 4 2 6 7 3 1
5 3 4 1 7 2 6
5 4 6 1 7 3 2
5 7 3 4 6 2 1
5 3 7 2 6 1 4
7 2 5 6 3 4 1
6 4 5 2 7 3 1
7 4 3 1 5 2 6
3 2 5 6 4 1 7
4 6 2 1 3 5 7
5 2 3 6 7 4 1
6 3 7 1 4 2 5
3 7 4 6 5 1 2
4 3 5 2 1 7 6

8
Aarush
Alice
Naman
Diana
Aditya
Ayush
Charlie
Ethan
8 4 3 6 7 2 5 1
8 5 1 7 2 4 3 6
7 3 2 1 5 6 4 8
6 5 2 8 1 4 7 3
7 8 5 2 1 3 4 6
5 2 6 7 8 3 4 1
4 5 6 1 2 7 3 8
6 1 3 2 8 5 7 4
4 2 7 8 1 3 6 5
8 2 4 1 6 7 5 3
1 5 4 3 8 6 2 7
3 4 5 1 6 8 7 2
8 1 5 2 6 4 3 7
1 2 3 4 7 8 6 5
3 5 2 1 6 4 7 8
1 5 7 6 4 2 3 8
8 3 4 7 5 2 1 6
2 1 3 5 4 8 7 6
8 3 5 7 2 6 4 1
4 7 1 6 2 5 8 3
3 2 8 5 1 4 6 7
5 6 3 1 8 7 2 4
6 1 2 5 3 7 4 8
6 7 5 8 2 1 4 3
7 6 8 1 3 2 4 5
8 5 7 6 3 2 4 1
4 6 3 1 7 8 2 5
4 6 5 3 2 8 7 1
4 5 3 8 6 7 2 1
7 8 1 3 5 6 2 4
6 7 4 1 8 2 5 3
7 1 2 6 4 3 8 5
3 8 2 4 7 5 6 1
8 1 3 5 4 2 6 7
2 4 8 1 5 7 6 3
8 4 2 6 3 5 1 7
7 3 5 1 8 4 2 6
3 6 7 4 1 8 5 2
7 2 1 3 5 4 6 8
4 7 1 6 8 5 3 2
3 2 5 6 8 4 7 1
8 3 5 4 2 1 7 6
6 2 4 5 8 3 1 7
2 8 1 3 4 7 6 5
3 4 6 2 8 7 5 1
4 1 2 5 7 3 8 6
6 3 8 4 1 7 2 5
8 5 7 1 2 4 6 3
2 8 5 4 6 1 3 7
8 1 4 7 3 6 5 2
7 1 5 6 2 4 8 3
4 1 6 7 8 3 2 5
4 5 2 3 7 6 8 1
7 2 4 5 6 8 1 3
3 7 4 5 6 2 8 1
2 6 4 1 5 3 8 7
5 6 4 1 7 2 3 8
3 5 8 4 6 2 7 1
5 6 7 1 4 3 2 8
4 6 7 5 8 2 1 3

8
Diana
Aditya
Alice
Ethan
Bob
Aarush
Charlie
Naman
1 2 6 8 7 4 5 3
5 7 1 2 8 3 6 4
6 4 1 7 2 5 3 8
7 2 3 1 5 8 6 4
4 7 5 2 1 6 3 8
5 8 1 2 7 6 3 4
4 8 7 5 2 6 1 3
2 5 1 3 7 6 4 8
7 6 1 4 8 3 5 2
6 2 4 8 3 5 1 7
4 1 3 6 5 2 8 7
2 6 1 4 5 7 3 8
1 5 7 8 4 3 2 6
3 8 2 4 7 6 5 1
7 4 6 8 5 2 1 3
1 5 4 6 2 8 3 7
5 2 4 8 1 6 3 7
7 3 2 4 5 8 6 1
1 4 5 7 8 3 2 6
8 2 1 4 6 7 3 5
1 6 5 2 3 8 4 7
2 3 5 4 8 7 1 6
1 7 4 5 3 8 6 2
2 8 3 6 4 7 1 5
6 1 8 5 4 3 7 2
6 3 5 4 2 8 7 1
3 1 4 7 8 6 5 2
8 7 3 4 5 1 2 6
1 3 8 6 5 7 4 2
2 6 5 4 3 1 7 8
5 1 7 3 4 8 6 2
5 2 1 8 3 6 7 4
1 5 8 6 7 4 3 2
5 4 2 1 7 8 3 6
7 5 2 1 6 3 8 4
5 4 7 1 6 3 2 8
3 4 1 7 5 8 2 6
8 2 6 1 3 4 5 7
3 8 5 6 7 2 4 1
4 7 8 2 5 6 3 1
6 1 5 7 3 4 8 2
8 6 4 1 3 7 2 5
6 7 4 2 1 8 5 3
3 2 8 4 1 5 6 7
3 8 7 6 5 1 2 4
6 4 8 7 3 5 1 2
3 1 6 5 4 8 7 2
6 3 2 1 5 8 7 4
6 2 7 3 1 8 5 4
7 5 3 2 8 1 6 4
4 5 8 2 7 6 3 1
5 1 7 6 8 4 2 3
2 7 6 1 4 3 5 8
3 8 1 4 2 5 7 6
4 5 8 7 2 6 3 1
6 2 1 7 5 8 3 4
4 5 7 3 1 2 8 6
5 3 6 1 8 2 7 4
4 7 5 2 8 6 1 3
4 3 7 8 5 1 2 6
5 2 6 8 4 3 7 1
3 4 1 8 6 5 7 2
5 3 2 8 4 6 1 7
5 3 8 1 6 2 7 4
1 7 2 5 8 6 4 3
3 5 6 4 8 1 7 2
8 1 4 3 7 6 2 5
3 1 5 2 8 4 6 7
8 2 1 5 7 4 6 3
3 7 5 1 6 8 4 2

8
Charlie
Naman
Bob
Diana
Ayush
Aditya
Aarush
Ethan
3 8 5 4 1 2 6 7
8 3 6 2 4 7 5 1
1 2 4 5 6 7 3 8
1 2 8 5 4 7 6 3
4 2 8 6 5 3 7 1
3 7 4 2 8 1 6 5
1 3 7 2 6 5 8 4
2 5 4 7 1 6 3 8
1 4 5 7 2 6 8 3
4 7 5 3 8 2 6 1
7 5 6 4 1 3 2 8
6 1 4 7 5 2 3 8
1 5 2 6 4 7 8 3
8 4 2 1 3 7 5 6
7 6 5 2 4 8 1 3
7 4 3 6 1 5 2 8
5 4 7 2 1 3 6 8
5 2 6 4 8 7 1 3
4 5 3 8 2 7 6 1
3 6 1 5 8 4 2 7
6 4 1 5 3 2 8 7
5 8 3 7 6 2 1 4
7 3 1 6 4 8 2 5
2 5 1 4 3 8 7 6
5 2 3 6 8 7 4 1
1 3 4 7 5 6 2 8
3 5 1 4 2 6 7 8
7 1 4 6 3 2 8 5
5 7 8 1 4 3 2 6
6 3 1 8 5 7 2 4
3 8 4 5 7 1 2 6
5 3 6 1 7 4 2 8
1 8 2 4 7 6 5 3
8 6 5 7 4 2 3 1
8 6 5 1 2 7 4 3
6 7 4 2 5 3 1 8
2 6 4 3 7 5 8 1
8 3 6 2 4 7 5 1
3 6 8 4 7 1 2 5

6
Ayush
Aarush
Diana
Alice
Ethan
Aditya
6 1 4 5 3 2
2 1 3 4 6 5
3 5 6 1 4 2
6 4 5 1 3 2
4 6 2 5 1 3
5 3 4 6 2 1
5 4 2 3 6 1
1 6 4 3 5 2
5 1 2 3 6 4
3 1 4 6 2 5
3 6 1 4 5 2
4 1 6 2 5 3
2 6 4 3 1 5
6 4 1 3 2 5
6 5 1 2 4 3
6 5 3 4 2 1
1 6 5 3 2 4
6 1 3 5 2 4
2 1 3 5 4 6
6 1 3 2 4 5
3 5 6 1 4 2
6 4 3 5 1 2
3 6 1 4 5 2

4
Naman
Alice
Ayush
Diana
2 3 1 4
4 3 2 1
4 1 2 3
1 4 2 3
1 3 2 4
1 4 2 3
2 1 4 3
4 1 3 2
4 2 1 3
1 4 2 3
3 1 4 2
3 4 1 2
4 3 1 2
4 1 3 2
1 2 4 3

5
Bob
Naman
Ayush
Diana
Alice
3 4 1 5 2
5 1 3 2 4
2 3 5 1 4
4 3 2 5 1
1 3 4 2 5
4 5 2 1 3
1 4 2 3 5
4 1 3 2 5
5 2 4 3 1
5 4 2 1 3
5 3 2 1 4
2 1 3 4 5
2 5 1 4 3
4 2 3 1 5
4 3 2 5 1
4 1 3 5 2
3 2 1 5 4
4 3 1 2 5
1 4 2 5 3
3 5 1 2 4
1 2 4 5 3
3 4 1 5 2
1 5 4 3 2
2 4 1 5 3
5 2 3 4 1
5 4 2 3 1
1 3 2 5 4
2 5 3 4 1
3 2 5 1 4
3 4 1 5 2
5 1 3 4 2
3 1 2 4 5
3 1 4 2 5
1 3 4 2 5
1 5 2 3 4
1 4 2 5 3
2 5 1 3 4
4 1 5 3 2
4 2 1 3 5
5 3 1 4 2
1 2 4 5 3
3 2 1 4 5
5 1 2 4 3
4 2 1 5 3
2 1 5 3 4
2 1 4 3 5
5 2 3 1 4
4 5 3 2 1
1 5 2 4 3

6
Ethan
Aditya
Ayush
Bob
Alice
Charlie
2 3 6 5 1 4
6 1 4 2 3 5
2 5 1 3 6 4
4 2 3 1 6 5
2 3 4 5 1 6
5 3 2 1 4 6
6 1 5 3 2 4
6 5 1 3 2 4
2 1 6 3 4 5
1 6 4 5 3 2
4 5 1 6 3 2
2 1 6 3 4 5
5 2 4 1 6 3
5 1 4 3 6 2
3 2 5 1 4 6
4 1 3 2 5 6
3 4 2 5 1 6
4 6 5 3 2 1
4 3 1 2 6 5
4 6 5 3 1 2
4 2 5 1 3 6
1 4 5 2 6 3

5
Naman
Ethan
Ayush
Charlie
Diana
1 3 2 5 4
4 1 2 3 5
1 3 4 5 2
4 5 3 2 1
5 4 1 2 3
2 4 3 5 1
3 5 2 1 4
2 1 3 5 4
2 1 5 3 4
1 4 5 3 2
2 3 1 5 4
2 5 3 4 1
4 5 2 3 1
2 5 4 1 3
1 4 5 2 3
4 5 1 2 3
2 3 4 5 1
1 4 3 5 2
1 4 2 5 3
4 3 2 5 1

8
Alice
Aditya
Diana
Ayush
Aarush
Bob
Naman
Charlie
3 4 7 2 5 6 8 1
7 4 2 1 5 6 3 8
3 7 2 6 8 1 5 4
1 5 3 7 8 2 6 4
8 1 3 6 7 2 5 4
1 2 4 3 8 5 7 6
8 1 7 6 5 3 4 2
7 6 4 8 3 5 1 2
1 6 2 4 7 3 5 8
2 7 1 3 4 6 5 8
4 6 5 2 8 1 3 7
3 6 5 7 8 1 4 2
8 7 3 4 1 2 5 6
6 2 5 4 7 8 3 1
1 4 2 7 6 3 8 5
4 8 2 6 3 1 5 7
5 1 3 8 7 6 2 4
6 3 8 4 2 5 7 1
2 6 7 1 4 8 5 3
5 8 6 3 1 4 7 2
6 4 5 2 8 1 3 7
7 6 1 5 4 3 8 2
5 1 6 7 3 2 4 8
5 7 1 8 3 2 6 4
8 3 6 7 2 1 5 4
2 5 7 8 1 4 3 6
7 5 8 3 1 2 6 4
2 4 8 3 5 1 6 7
1 3 8 4 2 5 7 6
2 7 3 5 8 1 6 4
1 6 5 8 3 2 7 4
6 7 2 3 4 5 8 1
2 4 5 3 1 6 8 7
2 1 6 8 7 5 3 4
5 2 4 1 6 3 8 7
8 6 5 4 1 7 3 2
2 1 5 3 8 4 7 6
8 5 7 3 2 6 4 1
6 2 3 7 1 8 4 5
7 6 3 8 1 4 2 5
2 7 4 3 1 8 6 5
3 5 7 1 8 2 4 6
6 3 1 8 5 7 4 2
5 2 4 8 1 3 6 7
8 7 5 4 2 3 6 1
3 5 1 6 7 2 4 8
6 4 8 5 7 3 1 2
3 1 4 8 5 7 6 2
5 1 6 2 4 7 8 3
8 5 3 1 2 7 4 6
8 2 6 1 7 5 4 3
1 6 5 7 4 3 8 2
7 3 8 5 4 1 2 6
4 6 5 8 2 7 1 3
1 6 4 3 2 5 7 8
7 4 2 5 6 1 8 3
5 8 3 6 4 2 7 1
7 8 1 4 6 2 5 3
5 8 1 6 4 7 3 2
8 5 2 1 4 3 7 6
5 1 4 6 7 3 2 8
2 7 1 3 4 5 8 6
7 6 8 5 2 3 1 4
5 8 2 3 6 4 7 1
7 1 3 8 6 2 4 5
8 2 3 4 6 5 1 7
5 8 7 6 2 4 1 3
8 4 2 3 7 6 5 1
4 8 6 3 2 5 7 1

7
Aditya
Diana
Bob
Charlie
Naman
Alice
Ayush
2 7 3 5 4 1 6
6 5 1 3 7 2 4
6 5 1 7 4 3 2
4 5 6 7 3 2 1
7 5 2 3 4 6 1
7 1 6 2 5 4 3
7 4 5 2 6 3 1
1 7 4 2 3 6 5
5 7 3 2 4 6 1
1 2 6 7 5 3 4
4 5 3 2 1 7 6
6 3 4 1 5 2 7
5 2 4 7 3 1 6
5 6 1 7 4 3 2
3 4 1 5 7 6 2
6 7 1 2 5 4 3
5 7 2 6 1 3 4
4 6 1 2 3 5 7
3 6 7 1 4 5 2
4 5 2 1 6 3 7
6 7 5 3 2 1 4
6 4 2 7 3 1 5
1 2 3 5 6 7 4
6 7 2 4 1 3 5
6 2 1 4 3 7 5
2 1 5 4 3 7 6
3 6 4 2 7 5 1
2 1 4 6 7 5 3
6 5 4 2 1 3 7
3 5 1 2 6 7 4
1 6 4 3 2 5 7
6 3 4 5 1 2 7
5 1 6 7 2 4 3
3 5 7 6 1 2 4
3 2 6 5 1 7 4
7 3 6 5 4 2 1
1 5 7 4 2 3 6
6 5 7 1 4 2 3
6 5 1 2 4 3 7
4 3 7 6 2 5 1
6 3 7 1 5 2 4
2 6 4 1 5 7 3
4 7 2 1 6 3 5
6 3 4 7 5 1 2
2 7 1 6 3 5 4
7 4 6 3 2 1 5
6 2 7 3 5 1 4
2 1 6 5 3 7 4
2 5 4 3 7 6 1
2 4 7 6 5 1 3
2 3 7 4 5 6 1
7 4 6 3 2 1 5
3 5 2 4 1 6 7
1 5 2 3 4 7 6
3 2 4 1 6 7 5
3 4 5 7 6 2 1
3 4 6 7 5 1 2
6 2 4 7 5 1 3
5 3 6 2 4 1 7
3 1 5 2 6 4 7
3 2 1 7 4 5 6
5 2 6 3 4 7 1
6 7 5 3 2 1 4
3 4 7 1 2 5 6
7 6 3 2 1 4 5
7 5 3 1 2 4 6
2 4 6 1 3 7 5
4 7 3 6 2 5 1
1 6 7 5 3 4 2

3
Ayush
Ethan
Aditya
2 3 1
3 1 2
2 1 3
3 1 2
1 2 3
1 3 2
3 1 2
1 2 3
3 2 1
2 1 3
3 2 1
1 3 2

7
Ethan
Naman
Alice
Aarush
Diana
Ayush
Aditya
1 5 2 4 7 3 6
3 6 2 1 4 5 7
5 7 6 4 2 3 1
5 4 2 6 3 7 1
6 7 5 4 3 1 2
6 7 2 3 5 1 4
3 6 5 7 1 2 4
5 7 1 6 4 2 3
7 4 6 5 1 2 3
5 1 7 4 6 2 3
5 1 2 4 3 6 7
4 7 2 3 6 1 5
1 7 3 4 6 2 5
1 4 6 5 2 7 3
2 6 7 4 3 5 1
7 2 5 4 3 1 6
5 3 4 2 7 1 6
6 2 7 3 4 5 1
2 3 6 4 1 7 5
2 7 5 1 6 3 4
4 1 6 7 3 5 2
2 1 4 7 3 6 5
2 7 3 4 1 5 6
1 7 2 3 6 4 5
7 6 2 1 5 3 4
7 6 5 4 2 1 3
2 5 3 6 4 1 7
3 4 1 7 5 6 2
1 3 5 7 2 6 4
3 5 1 7 6 2 4
1 3 6 2 5 4 7
1 5 2 6 7 4 3
7 1 6 4 2 3 5
2 1 3 4 7 6 5
5 2 6 3 1 4 7
1 4 6 5 7 3 2
7 3 5 1 4 2 6
6 5 2 3 7 4 1
2 3 1 5 6 4 7
1 7 5 4 3 6 2
1 4 5 7 3 2 6
5 3 7 1 4 2 6
3 5 2 6 1 4 7
3 5 2 6 7 4 1
4 7 3 1 2 5 6
6 7 4 2 5 3 1
1 5 6 3 2 7 4
6 5 1 4 7 3 2
3 1 2 4 7 6 5
7 5 6 1 3 4 2
4 2 7 1 3 6 5
4 3 7 2 5 1 6
1 7 6 2 3 5 4
1 4 5 3 6 7 2
5 7 1 6 4 2 3
6 1 2 4 7 3 5
7 2 6 1 5 4 3
7 3 4 2 5 6 1
4 1 2 3 5 6 7
3 5 6 4 2 7 1
2 5 6 1 4 7 3
3 4 6 5 7 2 1
5 3 4 1 7 2 6
3 1 6 5 7 2 4

8
Charlie
Bob
Ethan
Aarush
Aditya
Diana
Ayush
Alice
1 7 2 3 6 4 5 8
2 3 8 4 6 1 5 7
1 5 4 2 7 8 3 6
5 2 7 8 3 4 6 1
8 4 3 5 7 6 2 1
8 6 2 5 4 1 7 3
1 4 6 5 2 7 3 8
2 5 4 8 6 1 7 3
6 8 5 7 1 4 3 2
1 7 5 4 6 2 8 3
5 4 8 7 6 3 2 1
6 1 8 2 3 7 5 4
3 5 4 8 6 7 1 2
5 6 1 7 4 2 8 3
6 5 3 1 4 7 2 8
5 8 6 4 2 7 1 3
4 2 5 8 3 7 6 1
6 1 7 2 8 3 4 5
8 6 2 7 3 1 4 5
7 6 3 8 4 2 5 1
1 3 7 5 4 6 8 2
6 4 3 7 2 1 8 5
2 7 5 4 8 1 6 3
8 5 3 4 1 2 7 6
1 8 2 3 5 4 6 7
8 5 6 2 7 4 3 1
4 5 2 1 8 6 7 3
8 1 7 6 5 4 2 3
2 7 6 1 4 8 5 3
1 4 6 5 3 2 7 8
1 3 4 7 5 8 2 6
2 3 4 5 7 6 1 8
7 6 2 3 4 5 1 8
2 6 7 5 3 4 1 8
2 1 4 3 5 8 6 7
4 8 7 5 1 2 3 6
8 3 4 6 1 5 2 7
2 6 3 7 4 5 1 8
7 3 5 6 1 4 2 8
8 6 7 2 4 3 1 5
4 5 3 2 8 7 6 1
2 8 4 5 3 6 1 7
4 3 6 8 1 2 5 7
7 6 2 5 4 3 1 8
4 5 2 6 3 1 7 8
1 3 4 7 6 5 2 8
1 5 2 8 6 7 3 4
8 5 3 7 1 2 6 4
2 4 3 8 6 1 5 7
3 8 7 1 2 5 4 6
5 6 1 3 7 2 8 4
6 2 3 8 1 7 4 5

3
Bob
Ethan
Charlie
1 2 3
1 3 2
3 1 2
2 1 3
3 2 1
1 2 3
3 1 2
3 1 2
3 1 2
3 1 2
2 1 3
1 3 2

6
Charlie
Ayush
Diana
Ethan
Naman
Bob
1 4 2 5 3 6
4 1 6 2 5 3
1 5 3 4 6 2
1 4 3 5 6 2
1 6 3 5 4 2
6 5 2 4 1 3
5 3 1 2 6 4
6 1 2 3 5 4
3 4 2 1 6 5
2 1 6 5 3 4
3 6 1 5 4 2
3 6 5 4 1 2
2 1 6 3 4 5
5 6 1 3 4 2
3 1 2 5 6 4
4 1 3 6 2 5
6 2 1 3 5 4
5 1 4 3 6 2
1 6 2 4 3 5
2 6 1 5 3 4
2 4 6 3 5 1
3 2 4 5 6 1
3 5 2 1 6 4
3 1 6 4 2 5
2 5 3 1 4 6
2 1 4 3 6 5
1 4 3 5 6 2
5 3 1 2 4 6
4 6 5 2 1 3
6 1 5 3 4 2
3 4 2 1 6 5
4 5 3 2 1 6
5 6 3 4 2 1
3 1 2 5 4 6
6 2 3 5 4 1
1 5 4 2 3 6
5 4 1 2 6 3
1 6 3 5 4 2
3 1 4 5 2 6
3 6 2 4 5 1

6
Alice
Aditya
Naman
Aarush
Ayush
Bob
3 2 1 6 4 5
2 6 5 1 3 4
6 3 4 2 5 1
5 1 6 2 4 3
1 2 3 4 5 6
6 2 1 3 5 4
4 2 5 3 1 6
6 5 4 1 2 3
1 2 6 4 3 5
4 1 2 6 5 3
4 1 3 6 5 2
6 3 2 4 5 1
3 6 2 5 1 4
4 2 6 3 5 1
3 5 2 6 4 1
5 1 6 4 3 2
4 5 1 6 3 2
5 1 4 3 2 6
6 1 3 4 2 5
5 2 1 6 3 4
1 4 5 3 6 2
5 2 1 3 4 6
4 1 2 3 5 6
2 5 3 1 6 4
6 2 4 5 3 1
1 5 3 2 4 6
4 1 6 3 5 2
3 2 4 5 1 6
5 6 1 2 4 3
6 1 5 2 4 3
6 2 5 1 3 4
3 5 2 6 4 1
1 3 5 4 2 6
1 6 5 2 4 3
6 1 4 3 2 5
5 1 4 2 6 3
5 6 3 1 2 4
4 2 6 5 3 1
6 2 1 3 4 5
2 1 6 5 3 4
2 6 5 3 4 1
4 5 1 6 3 2
6 5 3 4 1 2
2 4 3 5 1 6
4 3 1 5 2 6
3 1 6 2 4 5
4 1 5 2 6 3
5 4 3 1 6 2
6 2 3 4 5 1
1 6 3 4 5 2
2 3 5 6 1 4
5 3 4 2 6 1
5 6 2 3 4 1

4
Alice
Aarush
Charlie
Ethan
1 4 3 2
2 3 4 1
2 4 1 3
1 4 3 2
1 3 2 4
3 4 1 2
1 4 3 2
3 4 1 2
4 2 3 1
4 2 3 1
3 1 2 4
4 2 1 3
3 2 4 1
4 1 3 2
4 3 1 2
4 3 1 2
4 1 3 2
1 3 2 4

5
Charlie
Aarush
Ayush
Alice
Bob
3 1 4 5 2
4 3 1 5 2
3 5 1 2 4
2 3 5 4 1
3 2 5 1 4
1 4 3 2 5
4 3 2 1 5
1 3 5 4 2
1 4 3 5 2
2 4 1 5 3
4 5 2 1 3
3 1 5 2 4
4 3 1 2 5
4 5 3 2 1
3 1 5 4 2
3 5 4 1 2
4 1 3 2 5
3 5 1 4 2
4 3 2 1 5
3 4 2 1 5
5 3 1 2 4
1 2 4 3 5
2 5 1 4 3
3 2 4 5 1
2 4 5 1 3
1 2 4 3 5
5 1 3 2 4
3 2 1 5 4
5 1 2 4 3
5 2 4 3 1

5
Alice
Aditya
Bob
Ayush
Aarush
2 4 1 5 3
4 2 5 3 1
3 4 5 1 2
2 4 1 3 5
4 5 2 3 1
4 5 3 2 1
5 3 1 2 4
4 3 2 1 5
2 4 5 1 3
3 2 4 1 5
3 2 1 4 5
4 3 2 5 1
1 2 5 3 4
5 4 2 3 1
3 1 5 2 4
2 3 1 4 5
4 2 1 5 3
2 4 3 1 5
2 3 1 5 4
1 2 4 5 3
5 4 3 2 1
2 1 4 3 5
5 1 2 4 3
1 3 5 4 2
4 5 1 2 3
2 1 3 5 4
1 3 4 2 5
5 1 3 2 4
5 4 1 2 3
3 1 4 5 2
5 1 4 3 2
5 3 1 4 2
5 1 2 3 4
5 3 1 4 2
3 5 2 4 1
3 2 5 4 1
3 5 4 1 2
5 1 4 2 3
3 1 4 5 2
5 2 3 1 4
3 1 2 5 4
1 4 2 3 5
2 4 1 5 3
2 5 1 3 4
1 4 3 5 2
1 5 4 2 3
4 3 5 2 1
3 5 4 2 1
4 3 5 2 1

4
Ethan
Alice
Aditya
Diana
3 4 2 1
2 3 1 4
4 2 1 3
3 1 4 2
1 2 4 3
4 3 2 1
1 2 4 3
3 4 1 2

5
Diana
Bob
Aditya
Ethan
Aarush
1 4 3 2 5
1 2 3 5 4
1 4 3 2 5
2 3 1 4 5
5 2 1 4 3
5 4 3 1 2
1 5 4 3 2
1 4 5 3 2
4 3 2 1 5
2 5 3 4 1
5 3 2 4 1
3 4 5 2 1
1 2 3 5 4
3 1 2 5 4
4 3 5 1 2
5 1 4 2 3
2 4 1 3 5
3 2 4 1 5
3 4 2 1 5
3 5 4 1 2
2 3 4 1 5
5 2 4 3 1
5 1 2 3 4
1 5 2 4 3
2 5 4 1 3
4 3 1 2 5
5 3 4 2 1
3 4 1 2 5
4 3 1 5 2
5 4 2 1 3
4 2 1 5 3
4 3 5 1 2

4
Alice
Charlie
Aditya
Ethan
3 1 4 2
2 1 3 4
3 2 1 4
1 3 4 2
2 1 4 3
1 3 2 4
3 1 4 2
2 1 4 3
4 2 3 1
2 4 3 1
3 4 2 1
3 1 4 2
3 1 2 4
1 4 3 2
1 2 3 4
4 3 1 2

6
Alice
Diana
Ethan
Aarush
Aditya
Charlie
5 2 6 1 4 3
2 1 4 3 5 6
5 1 3 4 6 2
6 2 3 5 1 4
2 1 3 6 4 5
5 6 1 4 2 3
3 4 2 1 6 5
2 4 5 3 1 6
1 3 6 4 5 2
6 1 3 2 5 4
6 4 3 1 5 2
4 2 1 6 3 5
3 6 1 4 2 5
4 3 2 5 6 1
2 6 1 3 4 5
2 3 4 5 6 1
4 3 2 5 6 1
3 2 6 4 1 5
2 1 6 4 3 5
1 5 2 6 3 4
3 6 5 4 1 2
4 2 3 5 6 1
6 5 4 1 3 2
4 6 5 1 2 3
4 2 1 5 3 6
3 1 4 5 6 2
2 4 6 3 5 1
4 2 6 5 1 3
3 4 1 2 5 6
5 3 2 1 4 6
6 1 4 3 2 5
3 6 2 4 5 1
3 5 1 4 6 2
5 1 6 4 2 3
2 3 5 1 4 6
3 2 4 1 6 5
4 1 6 3 2 5
3 1 4 6 5 2
5 1 2 4 6 3
5 4 2 6 3 1
2 1 6 5 3 4
4 3 1 2 6 5

6
Diana
Aarush
Naman
Alice
Aditya
Ayush
6 5 1 3 4 2
4 6 2 3 5 1
1 5 4 3 2 6
6 5 4 1 2 3
1 5 6 3 2 4
4 3 2 6 5 1
6 2 4 5 1 3
6 4 5 1 2 3
3 5 6 2 4 1
1 2 3 5 4 6
2 3 4 5 6 1
5 6 4 1 3 2
4 2 3 6 5 1
1 4 2 6 3 5
3 4 2 6 5 1
5 6 4 1 3 2
3 4 5 6 2 1
1 2 3 4 5 6
5 4 3 6 1 2
6 5 2 3 1 4
3 4 5 1 2 6
5 6 4 3 2 1
6 2 5 1 4 3
3 1 6 4 2 5
5 6 2 1 4 3
6 1 2 4 5 3
6 5 4 2 1 3

8
Aditya
Alice
Naman
Aarush
Charlie
Ethan
Ayush
Diana
5 7 6 2 3 8 4 1
8 2 3 6 7 4 1 5
3 5 7 4 6 8 2 1
8 1 7 4 3 2 5 6
4 5 8 6 3 2 1 7
7 2 4 6 1 5 3 8
8 4 5 1 6 7 2 3
5 7 4 8 6 3 2 1
2 3 5 1 6 7 4 8
4 7 6 1 2 5 3 8
8 3 4 7 5 1 2 6
7 2 4 3 8 1 5 6
7 2 6 1 5 8 4 3
8 4 7 1 5 3 6 2
1 7 6 5 4 3 2 8
4 8 3 2 1 7 6 5
6 5 4 1 7 2 3 8
3 5 6 4 2 1 7 8
5 4 1 8 7 6 2 3
4 8 7 1 2 3 6 5
6 3 1 7 8 4 5 2
4 8 2 5 1 6 7 3
7 2 5 4 3 6 1 8
6 8 7 5 1 3 2 4
4 2 3 7 1 5 8 6
4 7 1 6 3 5 8 2
3 7 5 2 1 6 8 4
5 2 6 7 8 4 3 1
7 8 6 5 4 3 2 1
7 4 8 1 5 3 6 2
1 3 6 5 7 2 4 8
2 8 4 3 7 5 1 6
1 8 6 3 5 4 7 2
7 3 2 6 8 4 1 5
8 7 5 4 6 2 1 3
4 3 1 6 2 5 8 7
6 4 8 7 3 1 5 2
8 5 3 7 2 1 4 6
6 8 3 7 4 1 2 5
3 8 6 1 4 5 2 7
7 2 5 1 6 8 3 4
5 4 6 8 3 2 1 7
8 7 5 2 4 6 3 1
3 6 1 2 7 5 8 4
2 3 6 1 8 7 5 4

3
Diana
Ayush
Charlie
2 1 3
1 3 2
1 3 2
1 2 3
2 1 3
2 3 1
3 2 1
1 2 3
2 1 3
3 2 1
3 2 1
3 1 2
3 2 1
1 2 3
3 1 2
1 3 2
1 2 3
3 1 2
1 3 2
1 2 3
1 2 3
2 1 3
1 3 2

6
Alice
Ethan
Charlie
Ayush
Bob
Aditya
3 4 1 2 5 6
5 4 6 1 3 2
5 1 2 6 4 3
4 2 3 1 5 6
5 6 2 3 4 1
4 3 5 2 1 6
5 2 1 4 6 3
1 4 5 6 2 3
5 1 6 2 3 4
6 5 2 4 1 3
1 5 2 6 3 4
3 2 6 4 5 1
3 5 2 1 6 4
2 4 3 5 1 6
4 3 6 1 5 2
2 5 3 4 1 6
2 3 1 6 5 4
4 2 3 1 6 5
2 1 5 6 3 4
6 4 2 3 5 1
6 4 3 2 5 1
1 5 4 6 2 3
3 1 6 5 4 2
6 4 2 1 5 3
2 1 6 3 5 4
4 3 1 2 5 6
3 1 6 2 5 4
3 2 1 5 6 4
6 5 2 3 4 1
3 5 6 1 4 2
1 4 5 3 2 6
2 3 1 5 4 6
2 4 3 6 1 5
6 1 3 5 4 2
1 4 5 6 3 2
5 3 4 6 2 1
5 1 4 6 3 2
1 4 5 3 6 2
4 1 5 6 2 3
2 1 4 6 5 3
2 5 3 6 1 4
5 4 1 3 2 6
4 2 6 1 3 5
6 1 2 5 3 4
5 3 1 4 6 2
3 6 4 5 1 2
6 4 2 3 5 1
1 6 2 4 3 5
2 1 4 5 3 6

7
Ethan
Naman
Bob
Alice
Aarush
Diana
Ayush
5 7 2 4 1 3 6
6 4 1 5 2 7 3
3 5 7 2 6 1 4
7 2 5 6 4 3 1
6 1 4 2 5 7 3
5 1 3 2 4 7 6
5 2 3 7 6 1 4
2 6 5 4 3 1 7
1 7 2 5 6 4 3
5 7 3 4 1 2 6
4 2 3 5 7 6 1
6 4 5 1 7 3 2
1 3 4 5 6 7 2
2 7 1 3 6 5 4
3 2 7 4 1 5 6
1 3 6 5 2 4 7
3 6 4 7 2 5 1
6 7 4 5 1 3 2
2 7 1 4 6 3 5
6 3 4 1 5 7 2
7 5 3 6 1 4 2
1 7 4 5 6 3 2
5 7 2 6 3 4 1
5 3 7 2 6 4 1
2 5 7 6 3 1 4
1 7 3 6 5 2 4
4 1 5 3 6 7 2
7 5 6 3 4 2 1
2 5 4 1 7 6 3
6 5 7 3 4 1 2
1 6 5 2 4 7 3
1 4 2 6 5 7 3
2 1 7 6 4 3 5
6 1 5 4 7 2 3
2 6 3 7 1 5 4
6 2 1 5 4 7 3
3 7 6 2 5 4 1
7 1 2 6 4 5 3
3 5 7 4 1 2 6
1 4 5 2 7 6 3
5 1 4 2 7 3 6
5 4 7 3 1 6 2
1 5 6 2 7 4 3
4 1 7 3 5 2 6
6 4 1 5 7 3 2
4 2 7 1 5 6 3
4 2 1 6 5 7 3
7 1 2 4 6 3 5
4 1 2 6 3 7 5
7 1 5 3 6 2 4
5 7 3 4 1 2 6
2 3 5 4 6 1 7
4 3 2 7 1 6 5
2 5 4 6 3 1 7
2 3 5 7 4 1 6
4 3 5 1 7 2 6
3 5 6 2 4 7 1
3 6 1 5 2 7 4
6 1 2 3 5 7 4
3 7 4 1 6 2 5
5 2 6 1 4 3 7
2 4 7 3 6 5 1
7 4 1 2 3 6 5
4 5 7 3 2 6 1
5 4 3 7 1 6 2
5 6 7 1 2 3 4

7
Naman
Charlie
Alice
Ayush
Diana
Aarush
Aditya
1 5 6 7 4 2 3
7 4 5 6 3 1 2
4 3 7 6 1 5 2
1 4 5 7 2 6 3
7 6 3 1 2 5 4
7 6 2 3 1 4 5
7 6 4 1 3 5 2
2 4 7 3 1 6 5
7 4 5 3 6 2 1
1 6 7 2 4 5 3
3 2 6 7 1 4 5
7 5 6 3 2 4 1
4 6 2 7 1 3 5
6 4 3 7 2 5 1
6 3 5 4 2 1 7
6 1 4 2 7 5 3
7 1 4 2 3 6 5
4 3 7 2 6 5 1
7 5 4 3 6 1 2
1 6 7 2 5 3 4
3 4 5 7 2 1 6
5 6 4 2 3 7 1
2 6 7 1 3 4 5
2 7 6 5 3 4 1
7 2 5 3 4 6 1
4 5 1 6 2 3 7
7 3 1 4 2 5 6
7 5 1 3 6 2 4
7 6 5 3 4 1 2
7 6 2 3 5 4 1
6 2 3 7 1 5 4
3 4 1 7 6 5 2
6 5 4 1 3 2 7
5 6 2 4 1 7 3
7 6 1 4 2 5 3
7 4 1 5 2 6 3
2 6 4 1 7 3 5
7 6 1 3 4 2 5
4 1 6 7 3 2 5
6 2 7 1 3 4 5
2 6 1 7 3 4 5
4 1 5 2 3 7 6
3 2 1 5 6 7 4

4
Ayush
Aarush
Alice
Charlie
2 4 1 3
1 4 3 2
4 3 1 2
4 1 2 3
1 2 4 3
2 1 3 4
1 4 2 3
4 3 2 1
3 1 4 2
3 1 4 2
4 3 2 1
4 1 2 3
4 1 2 3
4 3 1 2
3 1 4 2
3 2 4 1
1 3 2 4
3 4 1 2
3 1 2 4
2 1 4 3
4 3 1 2
2 1 3 4
2 3 1 4
3 2 1 4
2 1 4 3
3 2 4 1
4 2 1 3
3 4 1 2
4 2 3 1
4 1 2 3

8
Charlie
Ethan
Aditya
Bob
Diana
Alice
Ayush
Aarush
4 3 2 8 7 6 1 5
4 3 5 6 8 2 7 1
6 1 4 5 8 3 2 7
3 6 2 5 1 7 4 8
7 2 8 5 1 4 3 6
3 5 7 4 1 8 6 2
3 1 8 7 5 6 2 4
8 2 5 7 4 1 3 6
8 7 2 3 6 1 4 5
4 5 1 7 6 2 8 3
3 6 7 1 2 5 8 4
5 1 6 2 8 7 4 3
6 3 5 1 7 2 4 8
2 4 6 3 5 8 1 7
7 6 5 3 1 4 2 8
2 4 1 8 3 6 7 5
2 8 4 7 1 3 6 5
7 2 6 1 3 8 4 5
1 7 2 6 3 5 8 4
6 1 2 3 7 8 5 4
7 6 4 5 3 8 1 2
1 6 2 3 7 5 4 8
6 1 8 2 4 7 5 3
1 5 6 4 2 3 7 8
4 1 6 8 7 3 2 5
7 6 4 5 1 2 8 3
2 1 7 3 8 5 6 4
7 1 4 6 2 3 5 8
3 2 1 7 8 6 4 5
6 4 8 1 7 3 2 5
8 4 3 1 5 7 2 6
4 5 2 7 8 6 3 1
7 1 2 6 8 5 4 3
2 4 3 6 8 1 5 7
8 6 5 1 2 3 7 4
1 4 8 3 2 5 7 6
7 5 1 2 8 6 3 4
6 5 1 2 3 7 8 4
3 2 4 7 6 5 8 1
6 5 8 2 4 1 3 7
4 2 6 3 1 7 5 8
2 8 3 4 5 6 7 1
2 3 5 6 1 7 8 4
4 8 2 3 6 7 5 1
5 8 7 6 2 3 1 4
6 3 4 7 1 8 2 5
5 4 3 2 6 1 8 7
2 8 7 6 5 4 3 1
1 4 7 2 3 6 8 5
7 4 2 6 8 3 5 1
5 8 4 1 7 6 3 2
6 4 8 3 5 2 7 1

6
Diana
Aarush
Ethan
Alice
Aditya
Charlie
4 6 5 1 3 2
4 3 6 2 1 5
1 3 5 4 6 2
5 3 2 1 4 6
1 2 4 3 5 6
6 4 1 5 2 3
1 6 3 4 2 5
4 1 5 2 3 6
3 6 1 2 4 5
3 6 2 5 4 1
6 3 4 5 1 2
4 5 3 2 1 6
2 6 5 3 4 1
4 3 5 6 2 1
4 1 5 3 6 2
1 3 5 4 6 2
6 3 2 5 1 4
2 3 4 5 1 6
2 5 3 4 1 6
4 2 3 1 5 6
4 5 6 2 3 1
2 1 5 3 4 6
1 6 2 4 5 3
5 3 1 4 6 2
6 5 1 3 2 4
3 4 6 5 1 2
3 1 6 5 2 4
3 1 6 4 5 2
2 5 1 4 3 6
4 3 2 5 1 6
1 4 2 6 3 5
6 3 2 4 5 1
3 6 5 1 2 4
3 4 1 6 5 2
1 6 4 2 5 3
4 6 3 2 1 5
6 1 2 5 3 4
1 3 6 4 5 2
6 1 3 4 5 2
3 2 5 4 6 1
2 5 1 4 6 3
3 1 6 4 2 5
5 4 2 6 3 1
4 5 6 3 1 2
6 4 5 3 2 1
4 3 1 5 6 2
2 1 5 4 6 3
4 5 6 3 1 2
5 6 3 1 4 2
2 5 3 6 4 1
5 4 1 3 2 6
5 4 6 1 3 2
4 2 3 1 6 5
5 4 1 6 2 3
5 2 3 4 6 1
5 2 6 4 1 3

3
Bob
Naman
Aarush
3 1 2
1 2 3
2 1 3
1 3 2
2 3 1
3 2 1
1 2 3
2 3 1
3 2 1
2 1 3

6
Alice
Ethan
Aarush
Diana
Charlie
Ayush
6 4 1 2 3 5
4 6 3 1 5 2
4 1 5 2 6 3
4 1 6 5 3 2
2 6 3 5 4 1
3 6 4 5 2 1
1 5 3 6 4 2
2 6 1 4 5 3
1 2 4 3 5 6
4 3 5 2 1 6
1 6 2 4 3 5
4 3 5 6 1 2
6 1 5 4 3 2
2 1 6 4 3 5
5 2 4 6 3 1
6 4 3 1 5 2
5 2 4 3 6 1
2 3 4 1 5 6
1 4 6 5 2 3
1 6 3 2 5 4
4 5 6 1 3 2

6
Naman
Aarush
Ethan
Charlie
Aditya
Bob
1 5 4 2 3 6
3 6 5 4 2 1
4 5 6 3 1 2
6 1 3 4 2 5
5 6 1 4 2 3
5 3 2 1 6 4
1 6 2 5 3 4
3 6 2 1 5 4
5 6 2 4 3 1
6 2 5 4 1 3
3 1 4 6 2 5
6 2 1 3 4 5
4 6 3 2 1 5
4 1 5 2 6 3
3 1 6 5 4 2
4 2 3 1 5 6

8
Ethan
Aditya
Ayush
Naman
Aarush
Diana
Bob
Alice
8 3 5 4 7 1 2 6
3 2 5 6 8 7 1 4
7 6 2 8 3 5 1 4
4 8 6 1 5 3 7 2
8 1 7 2 3 6 5 4
3 2 7 1 6 5 8 4
4 8 1 6 5 2 7 3
7 8 4 6 3 5 2 1
2 1 3 5 7 4 6 8
5 1 2 7 6 8 4 3
5 4 2 8 6 3 1 7
6 1 7 2 8 3 4 5
7 5 6 1 4 2 3 8
1 2 7 5 6 4 3 8
2 3 5 7 8 1 6 4
2 8 4 5 6 3 1 7
1 5 3 6 4 7 8 2
1 4 2 8 6 5 3 7
7 1 6 3 5 8 2 4
1 3 5 2 7 4 8 6
2 6 1 3 4 8 7 5

8
Aarush
Ayush
Naman
Charlie
Ethan
Bob
Aditya
Diana
3 5 8 4 6 2 7 1
6 7 1 4 2 8 5 3
5 1 3 6 4 8 7 2
4 3 7 1 6 8 5 2
6 7 1 5 4 8 2 3
2 6 1 7 8 5 3 4
1 4 8 7 2 6 5 3
3 5 7 1 4 8 2 6
2 1 4 7 5 3 6 8
7 6 4 1 8 5 2 3
5 8 2 7 4 6 3 1
6 7 5 8 1 4 2 3
6 3 2 4 8 5 7 1
2 4 1 5 6 3 8 7
3 8 1 5 7 6 4 2
2 1 5 8 7 4 3 6
1 5 2 4 6 3 7 8
2 3 7 8 1 4 6 5
8 6 5 4 1 3 2 7
7 1 3 5 6 8 4 2
2 6 3 8 7 5 1 4
6 1 3 8 4 5 7 2
7 4 6 1 3 8 5 2
5 4 6 1 3 7 2 8
1 2 5 4 8 7 3 6

5
Aarush
Ayush
Naman
Alice
Bob
4 3 5 1 2
1 4 2 3 5
1 4 3 5 2
3 4 5 1 2
5 2 4 1 3
2 3 1 4 5
5 4 3 1 2
4 3 2 1 5
5 1 4 2 3
4 1 3 2 5
4 3 1 2 5
1 3 2 5 4
1 2 5 4 3
5 2 3 4 1
4 5 1 2 3
4 3 1 5 2
2 3 5 4 1
4 5 2 1 3
2 5 3 4 1
5 3 2 4 1
2 5 4 1 3
3 5 1 4 2
2 1 4 3 5
4 5 1 2 3
3 5 1 2 4
1 3 4 5 2
4 1 5 2 3
1 5 4 3 2
1 5 3 4 2
4 3 1 5 2
2 4 1 3 5
2 3 1 5 4
5 4 3 2 1
1 5 3 4 2
4 5 2 1 3
3 2 1 4 5
4 2 1 5 3
5 2 4 1 3
4 5 1 3 2
2 3 5 4 1
1 2 4 5 3
1 2 5 4 3
1 3 4 5 2
3 5 1 4 2

7
Ayush
Alice
Charlie
Naman
Bob
Diana
Ethan
3 4 2 6 7 1 5
7 2 1 3 4 6 5
6 2 1 7 4 5 3
3 2 5 7 6 4 1
7 5 6 2 3 4 1
1 4 7 2 6 5 3
2 6 7 3 4 5 1
5 7 6 3 2 4 1
7 5 2 3 4 6 1
7 3 2 1 6 4 5
5 6 3 7 1 2 4
5 1 6 2 4 7 3
1 7 6 4 3 5 2
7 6 2 3 4 1 5
4 6 3 5 1 2 7
3 6 4 2 1 7 5
5 2 6 4 1 7 3
3 5 4 7 1 6 2
7 1 4 5 3 2 6
7 4 2 6 3 5 1
1 2 4 6 7 3 5
2 1 5 6 3 7 4
6 7 5 3 1 4 2
6 7 4 3 1 2 5
5 2 4 3 1 6 7
3 4 7 5 2 1 6
4 3 2 6 7 1 5
4 7 2 6 5 3 1
5 3 4 2 7 1 6
1 3 4 5 7 2 6
6 1 2 3 7 4 5

7
Charlie
Bob
Naman
Aarush
Ayush
Aditya
Ethan
2 5 3 6 7 4 1
4 2 3 6 5 7 1
7 3 6 1 5 4 2
7 3 6 2 4 1 5
1 7 3 5 6 4 2
3 6 1 7 2 5 4
5 4 3 1 6 7 2
6 2 4 5 3 1 7
1 7 5 3 6 2 4
5 7 4 3 6 2 1
2 1 7 4 3 6 5
7 6 5 1 2 3 4
3 7 2 4 6 1 5
5 2 4 1 7 3 6
2 6 1 4 3 5 7
3 1 6 2 4 5 7
6 3 4 7 5 2 1
2 1 7 3 5 4 6
7 3 6 1 5 4 2
6 2 7 1 3 4 5
4 7 2 1 5 3 6
1 6 5 2 3 4 7
6 7 4 5 1 2 3
3 6 2 4 5 1 7
4 2 7 3 6 1 5
2 6 5 7 3 1 4
5 1 4 7 3 2 6
3 5 1 7 6 4 2
4 2 3 1 6 7 5
2 3 5 7 1 4 6
1 3 5 7 4 6 2
3 2 7 6 5 4 1
1 3 5 7 2 4 6
5 4 1 7 2 3 6
3 1 2 7 6 4 5
6 2 5 1 7 3 4
2 5 6 3 7 4 1
4 5 3 7 6 1 2
6 4 5 7 3 2 1
4 7 1 6 5 2 3
1 7 6 2 3 5 4
2 1 3 6 7 4 5
2 5 6 3 4 7 1
7 6 1 5 4 2 3
1 4 7 3 5 6 2
6 7 3 1 5 4 2
4 7 1 6 5 2 3
1 6 3 2 7 4 5
7 1 6 2 3 5 4

8
Diana
Charlie
Naman
Aarush
Ethan
Ayush
Bob
Alice
2 8 4 6 1 7 5 3
1 4 2 8 3 5 6 7
6 2 3 8 5 4 1 7
8 7 3 6 5 4 1 2
7 3 1 6 2 8 4 5
5 7 6 3 8 2 1 4
4 8 5 1 3 6 7 2
8 4 3 1 5 2 6 7
3 6 1 4 7 5 8 2
7 5 6 8 2 1 3 4
5 4 6 3 1 8 7 2
7 1 2 6 5 8 3 4
4 7 3 5 8 1 2 6
2 3 4 6 5 1 8 7
3 8 2 1 4 6 5 7
1 4 5 3 8 2 6 7
2 4 8 7 6 1 5 3
5 1 4 8 6 2 3 7
1 8 4 2 7 3 6 5
5 6 7 4 8 1 2 3
4 2 1 6 5 7 8 3
5 3 8 7 4 2 1 6
7 1 5 6 4 2 8 3
5 3 4 8 2 1 7 6
7 5 1 3 4 8 2 6
7 6 5 8 2 4 3 1
1 4 7 8 3 6 2 5
5 2 1 3 8 4 7 6
3 4 8 7 2 6 5 1
2 8 7 4 3 1 6 5
7 3 5 8 1 4 6 2
5 2 4 6 3 8 1 7
1 5 6 4 8 3 2 7
6 2 3 5 8 4 7 1
4 6 1 7 5 3 8 2
2 8 7 1 4 3 6 5
7 3 5 4 2 8 1 6
5 4 1 3 2 6 8 7
4 8 2 1 3 7 6 5
7 1 4 6 5 8 2 3
7 4 3 5 2 8 1 6
3 7 4 2 6 1 8 5
4 2 6 8 7 3 5 1
3 1 5 7 2 6 4 8
3 4 1 5 7 6 2 8
2 6 4 5 8 3 7 1
8 7 2 6 5 1 4 3
1 2 7 8 6 4 3 5

5
Ethan
Diana
Ayush
Bob
Charlie
3 1 5 2 4
3 4 2 5 1
2 1 4 5 3
3 1 2 5 4
2 5 3 4 1
3 2 5 4 1
2 5 4 1 3
5 3 2 1 4
3 2 4 1 5
3 1 4 2 5
3 1 5 4 2
5 4 1 2 3
5 2 4 3 1
2 5 3 4 1

8
Charlie
Bob
Ethan
Alice
Ayush
Aditya
Aarush
Naman
5 7 8 4 1 6 3 2
6 5 3 7 8 1 4 2
4 1 8 2 5 3 7 6
5 6 8 1 7 3 2 4
8 7 3 6 1 5 4 2
1 4 2 8 7 3 5 6
1 3 8 5 4 6 2 7
6 7 3 8 1 2 4 5
5 4 1 6 3 2 7 8
7 6 2 8 4 3 1 5
1 6 4 2 7 3 5 8
5 4 3 7 8 2 6 1
1 6 5 7 2 4 3 8
8 2 5 7 3 4 1 6
4 3 2 1 6 5 7 8
4 2 6 7 3 1 5 8
5 7 3 1 6 2 4 8
6 7 4 8 2 5 3 1
4 5 8 3 6 7 2 1
5 2 7 8 6 3 4 1
8 6 1 4 3 5 7 2
4 1 6 5 7 3 2 8
5 2 1 6 4 3 7 8
6 5 1 8 4 7 2 3
1 3 4 8 2 7 6 5
5 6 8 3 7 1 4 2
5 7 3 4 8 6 2 1
4 7 8 2 3 1 6 5
4 6 5 2 1 7 3 8
7 3 1 6 2 8 4 5
6 1 4 2 3 8 7 5
3 4 5 2 6 1 8 7
5 3 7 8 4 6 2 1
7 5 8 1 4 6 2 3
1 3 7 5 2 4 6 8
7 6 2 8 1 5 4 3
4 2 8 7 3 5 1 6
7 1 8 2 4 6 5 3
6 8 3 7 1 5 2 4
4 1 6 2 8 7 5 3
1 5 7 8 4 3 6 2
4 7 5 6 1 3 8 2
5 8 1 6 4 3 7 2
1 3 7 5 8 4 6 2
2 1 5 3 6 4 7 8
2 6 5 1 8 7 3 4
3 4 8 2 1 6 7 5
4 3 8 2 1 5 7 6
1 2 6 3 5 7 4 8
5 1 3 7 8 4 6 2
3 2 6 4 7 8 5 1
1 3 7 6 4 2 5 8
2 1 8 6 5 7 3 4
1 6 4 2 3 5 7 8
8 4 3 5 6 1 2 7
6 1 5 7 2 4 3 8
7 5 4 3 2 6 8 1
4 8 7 6 5 1 2 3
8 4 5 2 3 7 6 1
3 1 7 6 4 8 5 2
8 4 3 7 2 6 1 5
7 1 2 6 8 3 4 5
8 3 4 7 1 5 2 6
2 8 7 6 4 1 5 3
7 3 6 1 5 4 2 8
6 8 3 5 7 1 2 4
5 8 1 2 4 7 6 3
2 5 3 4 7 6 8 1
2 5 6 3 7 4 1 8

6
Ayush
Naman
Diana
Ethan
Aditya
Alice
2 3 1 6 5 4
3 1 2 4 6 5
5 1 2 4 6 3
4 2 6 1 5 3
3 4 1 2 6 5
4 2 5 3 1 6
3 5 6 2 1 4
4 5 3 6 1 2
6 3 1 2 5 4
1 6 2 5 3 4
4 5 2 6 1 3
3 5 1 4 6 2
1 3 4 2 6 5
1 5 6 4 3 2
1 6 4 5 2 3
1 2 5 3 6 4
2 1 6 5 4 3
2 3 1 5 4 6
6 2 3 1 5 4
4 1 6 2 3 5
2 6 1 4 5 3
5 2 4 1 3 6
2 5 6 3 1 4
6 2 1 5 4 3
5 2 3 4 6 1
1 6 3 5 2 4
3 2 1 6 5 4
6 4 3 5 2 1
5 4 2 3 1 6
3 4 2 5 1 6
2 3 5 6 1 4
5 1 2 6 4 3
4 3 6 1 5 2
2 4 5 3 6 1
3 2 6 1 4 5
4 3 6 1 5 2
2 4 3 1 5 6
4 3 5 1 2 6
4 3 6 5 2 1
3 4 1 5 6 2
1 3 2 6 4 5
5 6 3 2 1 4
2 4 1 6 3 5
3 2 6 5 4 1
5 6 1 4 2 3
4 3 1 6 5 2
6 2 5 4 1 3
5 1 6 2 4 3
4 6 5 2 3 1
4 6 1 2 5 3
4 1 3 2 6 5
4 5 6 1 3 2
2 3 1 6 4 5
4 2 6 1 5 3
5 3 6 4 1 2
4 2 6 5 3 1
1 5 3 6 2 4

3
Aditya
Alice
Naman
3 2 1
2 1 3
3 1 2
3 1 2
1 3 2
2 3 1
3 1 2

6
Aditya
Naman
Bob
Diana
Alice
Ayush
1 4 6 2 5 3
5 2 4 3 1 6
6 1 4 5 2 3
2 1 6 4 5 3
6 5 3 1 4 2
5 6 1 2 3 4
4 2 1 3 5 6
2 3 6 1 5 4
3 6 2 5 4 1
4 5 3 1 6 2
6 2 4 5 3 1
5 3 4 1 6 2
4 2 3 1 5 6
3 4 1 6 2 5
5 2 3 6 4 1
6 3 5 1 2 4
4 3 6 2 5 1
3 2 1 4 5 6
1 3 4 2 6 5
6 1 5 3 4 2
6 2 3 1 5 4
4 1 5 2 3 6
2 5 6 4 1 3
2 1 4 3 5 6
6 3 2 1 4 5
5 6 1 4 3 2
5 3 2 1 4 6
1 2 5 3 6 4
4 3 6 1 5 2
3 2 1 4 6 5
5 3 4 6 1 2
5 1 4 2 3 6
5 1 6 3 4 2
5 2 1 6 4 3
4 5 2 3 6 1
1 4 3 2 5 6
5 1 4 6 3 2
2 6 4 1 5 3
6 3 1 5 4 2
3 5 6 1 2 4
2 4 3 6 1 5
1 4 3 6 5 2
6 4 1 2 3 5
2 3 4 1 6 5
1 4 3 5 6 2
6 2 3 5 1 4
5 3 1 4 6 2

6
Naman
Charlie
Alice
Aditya
Ethan
Aarush
4 5 2 3 6 1
6 5 1 3 4 2
6 3 4 2 1 5
3 5 2 4 6 1
3 4 5 6 2 1
1 3 6 5 2 4
6 4 5 3 2 1
3 6 2 1 5 4
6 4 3 1 2 5
2 5 3 4 1 6
3 4 2 6 5 1
1 5 3 6 2 4
4 3 1 6 2 5
5 4 1 3 6 2
5 1 4 6 3 2
4 1 6 5 3 2
4 3 1 2 5 6
5 6 4 2 3 1
2 1 3 4 6 5
2 1 3 6 5 4
4 5 3 2 6 1
3 2 1 4 5 6
3 5 2 6 4 1
6 1 3 5 2 4
3 6 1 2 4 5
5 3 6 4 1 2
3 1 2 4 5 6
1 5 4 3 6 2

6
Aarush
Naman
Charlie
Bob
Diana
Alice
3 5 1 2 6 4
5 3 2 1 6 4
3 4 2 6 1 5
5 4 3 6 1 2
4 3 1 6 2 5
2 4 5 6 1 3
2 6 3 4 5 1
4 6 5 2 3 1
2 4 5 6 1 3
6 3 5 1 2 4
3 2 5 4 1 6
1 3 6 5 2 4
5 3 2 1 6 4
6 5 1 3 2 4
5 6 3 4 2 1
1 6 3 4 2 5
5 6 1 3 4 2
6 3 5 4 2 1
4 6 3 1 5 2
5 6 4 2 1 3
1 4 5 2 6 3
3 5 2 6 4 1
6 1 3 4 2 5
3 1 6 5 2 4
6 3 2 5 4 1
3 5 4 1 2 6
5 4 1 6 3 2
2 5 4 1 3 6
5 6 2 4 1 3
4 3 6 5 1 2
2 3 5 1 6 4
1 6 2 4 5 3
4 2 3 1 6 5
4 1 2 5 6 3
4 2 5 1 6 3
6 5 4 1 3 2
2 6 1 5 3 4
1 3 4 2 6 5
1 2 3 6 5 4
6 3 2 1 5 4
3 4 2 5 6 1
4 6 3 2 1 5
2 3 6 5 1 4
1 4 6 3 2 5
3 2 1 5 6 4
6 4 5 1 3 2
6 1 5 2 4 3
6 5 3 1 4 2
5 3 4 2 6 1
1 6 3 5 2 4
6 3 2 5 4 1
1 4 5 3 2 6
5 1 6 3 4 2
6 4 3 2 1 5
4 1 5 2 6 3
6 4 3 2 5 1
4 5 3 1 6 2
4 2 1 5 3 6
2 4 6 1 5 3
2 3 1 6 5 4

3
Naman
Bob
Diana
3 2 1
2 1 3
3 2 1
2 3 1
2 1 3
1 2 3
2 1 3
3 1 2
1 3 2
1 3 2
2 1 3
1 2 3
2 1 3
3 2 1
3 2 1
2 1 3
1 2 3
1 3 2
2 3 1
1 2 3
2 1 3
3 2 1
3 1 2
2 1 3
3 2 1
2 1 3
3 2 1
3 1 2
2 3 1

5
Diana
Alice
Aditya
Ayush
Charlie
2 1 4 5 3
3 1 2 5 4
1 5 3 2 4
2 5 4 1 3
3 2 1 5 4
5 3 1 4 2
4 2 1 3 5
3 5 2 1 4
4 5 1 3 2
2 1 3 5 4
5 1 4 3 2
4 3 2 1 5
3 2 4 5 1
4 3 5 1 2
4 1 3 2 5
4 3 5 1 2
1 5 2 4 3
5 3 2 1 4
4 3 5 1 2
1 4 3 5 2
2 3 5 1 4
4 3 5 2 1
5 4 3 2 1
1 2 3 5 4
2 4 5 3 1
4 1 5 3 2
4 3 1 5 2
2 1 3 4 5
1 3 4 5 2
2 3 1 4 5
1 2 3 4 5
5 3 4 1 2
4 5 3 2 1
2 1 5 3 4
1 3 5 2 4
1 4 2 5 3
4 2 3 1 5
2 5 1 4 3
3 4 5 2 1
5 1 4 3 2
4 5 1 3 2
5 3 2 4 1
1 3 5 4 2
2 4 5 1 3
5 3 2 1 4
4 5 2 3 1
4 5 3 2 1
5 3 4 1 2
4 5 2 1 3

3
Aditya
Ethan
Diana
3 1 2
2 1 3
1 2 3
1 2 3
3 2 1
3 1 2
2 1 3
1 3 2
1 3 2
3 1 2
2 1 3
3 2 1
2 1 3
3 2 1
2 3 1
3 1 2
1 2 3
2 3 1
3 2 1
3 2 1
2 1 3
2 3 1
1 2 3
2 1 3
1 3 2
2 3 1
2 3 1
2 3 1

4
Diana
Ethan
Naman
Charlie
1 3 2 4
4 3 2 1
2 1 3 4
2 1 3 4
4 2 1 3
1 3 4 2
1 2 4 3
4 3 2 1
1 3 4 2
3 4 2 1
2 1 3 4
2 1 4 3
3 4 2 1
3 1 4 2
4 2 1 3
4 1 3 2
4 1 2 3
3 1 2 4
3 1 4 2
2 4 1 3
1 2 3 4
1 3 2 4
1 2 4 3
4 3 1 2
2 3 1 4
4 3 1 2
4 2 1 3
3 4 1 2
2 4 3 1

5
Ethan
Naman
Aditya
Bob
Charlie
4 5 2 1 3
4 5 2 3 1
5 4 1 2 3
1 3 2 5 4
1 5 3 4 2
5 2 4 1 3
2 4 5 1 3
4 5 3 2 1
1 4 3 2 5
2 1 4 3 5
3 4 2 1 5
1 4 2 5 3
5 4 1 2 3
2 3 1 4 5
3 5 2 4 1
3 2 4 1 5
4 5 2 1 3
2 4 3 1 5
3 4 2 5 1
1 2 3 5 4
1 2 3 4 5
5 2 3 1 4
5 4 1 3 2

5
Diana
Aarush
Charlie
Ayush
Naman
5 3 1 2 4
2 3 5 4 1
4 5 2 1 3
5 1 4 2 3
1 5 3 4 2
5 3 2 4 1
5 3 4 1 2
1 2 3 5 4
3 4 1 5 2
1 5 4 2 3
3 5 4 1 2
1 4 5 2 3
2 5 1 3 4
4 2 5 1 3
5 2 4 3 1
5 4 1 2 3
1 4 2 3 5
5 4 3 2 1
1 3 5 4 2
2 4 3 5 1
5 4 1 3 2
3 2 1 4 5
5 4 1 2 3
3 1 5 2 4
1 2 4 5 3
2 4 1 3 5
2 5 4 3 1
2 4 3 5 1
1 5 4 2 3
4 3 5 1 2
5 4 2 1 3
1 5 4 3 2
2 4 5 1 3
5 4 3 2 1
2 3 1 5 4
1 5 4 2 3
2 4 3 5 1
4 2 5 1 3
4 3 5 1 2
5 4 3 1 2

8
Alice
Naman
Aarush
Ethan
Ayush
Bob
Diana
Aditya
2 4 8 7 1 5 3 6
7 2 3 5 1 8 4 6
8 3 7 6 5 4 1 2
6 8 5 2 7 3 1 4
4 5 8 2 6 3 7 1
6 3 1 5 7 8 4 2
1 8 7 6 5 2 3 4
8 2 1 4 5 7 6 3
5 1 6 3 8 7 4 2
6 7 8 1 4 3 5 2
3 6 5 1 4 8 2 7
4 6 7 1 3 5 2 8
5 4 3 6 8 2 1 7
4 2 8 1 5 6 3 7
6 8 4 1 7 5 3 2
7 4 3 5 1 2 6 8
3 2 1 8 7 6 4 5
5 2 6 7 1 8 4 3
3 1 8 5 2 7 4 6
3 8 2 4 5 6 7 1
4 8 7 3 5 2 6 1
5 1 8 2 6 7 4 3
1 3 7 6 8 5 4 2
7 2 1 4 5 8 3 6
2 6 7 3 4 5 8 1
5 8 2 4 6 7 1 3
5 4 1 7 3 6 2 8
8 1 6 5 7 2 3 4
7 5 8 2 4 6 1 3
8 3 4 1 7 2 6 5
6 8 5 2 3 1 4 7
4 6 1 7 3 2 5 8
1 7 5 8 3 6 4 2
7 6 1 4 5 8 2 3
5 6 7 1 8 4 3 2
8 1 2 4 5 6 3 7

7
Charlie
Alice
Naman
Ayush
Aarush
Bob
Diana
5 1 6 4 2 7 3
4 7 6 2 5 1 3
2 7 6 5 1 3 4
4 7 3 6 2 1 5
2 5 4 3 6 1 7
3 2 1 7 4 6 5
3 4 2 1 7 6 5
3 1 6 5 7 2 4
4 1 5 7 3 2 6
5 4 6 7 3 1 2
5 1 2 3 6 4 7
4 1 6 5 7 2 3
6 4 2 1 7 5 3
4 3 5 7 2 6 1
4 5 3 7 6 2 1
5 4 3 7 1 6 2
2 6 7 4 5 1 3
4 5 3 1 6 7 2
2 3 1 6 7 4 5
3 2 7 5 4 6 1
6 7 4 2 1 3 5
7 1 2 4 6 5 3
2 7 5 6 3 4 1
3 4 1 2 7 5 6
3 5 1 6 7 2 4
3 5 4 1 6 2 7
7 1 5 2 4 6 3
6 4 1 2 3 7 5
1 5 6 7 4 3 2
2 6 5 3 1 7 4
1 2 6 7 5 4 3
5 6 3 2 4 7 1
6 4 3 2 1 5 7
5 7 3 6 2 1 4
3 7 2 1 4 5 6
5 4 2 3 7 6 1
6 2 1 5 7 3 4
6 4 3 5 1 2 7
2 4 6 7 5 1 3
2 4 1 7 3 6 5
5 1 2 4 3 7 6
6 4 7 1 2 5 3
2 7 3 1 6 4 5
7 4 1 2 3 5 6
7 5 4 2 6 3 1

6
Diana
Naman
Alice
Charlie
Ethan
Ayush
4 1 6 5 2 3
2 6 4 1 3 5
1 5 6 4 3 2
2 4 1 3 5 6
5 3 6 1 2 4
1 3 4 5 6 2
3 2 1 6 5 4
1 5 3 4 6 2
1 5 3 6 2 4
6 4 5 2 1 3
5 4 2 3 1 6
1 5 2 6 3 4
3 2 1 4 6 5
6 4 1 5 3 2
4 3 1 5 2 6

5
Aditya
Ethan
Bob
Aarush
Naman
3 4 2 5 1
4 3 5 1 2
4 2 3 5 1
4 3 2 5 1
4 1 3 2 5
2 1 3 5 4
4 2 3 5 1
2 1 4 3 5
3 5 4 1 2
3 4 5 2 1
5 4 3 1 2
5 2 3 1 4
4 2 5 1 3
1 3 2 5 4
4 3 1 2 5
2 5 4 3 1
5 1 2 3 4
5 3 4 2 1
5 2 1 3 4
4 5 2 1 3
3 5 2 4 1
1 5 2 3 4
2 4 1 5 3
5 3 2 1 4
2 3 1 4 5
1 2 4 3 5
1 5 4 3 2
4 5 3 2 1
3 5 2 4 1
3 5 2 4 1
2 5 1 3 4
3 2 4 1 5
5 1 3 4 2
5 3 4 1 2
5 3 2 1 4
2 5 4 1 3
5 3 4 1 2
5 1 3 4 2
1 5 2 3 4
2 1 4 5 3
4 5 3 1 2
1 5 4 2 3
3 5 4 1 2
5 3 1 2 4

3
Ayush
Naman
Bob
1 2 3
1 3 2
3 2 1
3 2 1
1 2 3
2 1 3
2 1 3
1 3 2
2 3 1
2 1 3
3 2 1
3 1 2
2 1 3
2 3 1
2 1 3
1 2 3
1 3 2

5
Charlie
Diana
Alice
Naman
Bob
2 4 1 3 5
1 5 3 2 4
1 3 2 4 5
5 4 3 1 2
3 5 2 4 1
4 3 5 1 2
3 5 1 4 2
3 4 2 1 5
1 5 4 2 3
1 2 4 3 5
2 5 4 3 1
5 3 2 1 4
1 4 3 5 2
4 2 1 5 3
4 1 2 3 5
4 3 5 1 2
3 1 2 4 5

4
Alice
Diana
Ethan
Aarush
1 4 2 3
2 4 3 1
4 1 3 2
4 2 1 3
3 2 4 1
4 2 1 3
1 2 4 3
3 4 1 2
3 2 4 1
4 2 3 1
3 2 1 4

4
Aarush
Charlie
Naman
Aditya
3 2 1 4
2 3 4 1
4 3 2 1
3 1 4 2
1 4 2 3
2 3 4 1
1 4 2 3
3 2 4 1
1 3 2 4
3 4 2 1
1 4 2 3
3 1 2 4
4 3 1 2
3 2 4 1
4 1 2 3
3 2 1 4
3 1 2 4
3 1 2 4
2 3 4 1
3 1 2 4
4 1 3 2
1 3 2 4
1 2 3 4
3 1 2 4

4
Diana
Aarush
Bob
Aditya
2 4 1 3
1 3 2 4
3 4 2 1
2 3 1 4
1 3 2 4
4 3 1 2
1 2 3 4
1 2 4 3
1 4 3 2
4 2 1 3
1 2 3 4
1 3 2 4

3
Naman
Diana
Bob
3 1 2
2 3 1
3 1 2
2 1 3
3 1 2
2 3 1
2 3 1
3 1 2
3 2 1
3 1 2
2 1 3
3 1 2
2 3 1
2 3 1
3 2 1
2 3 1
3 1 2
2 3 1
3 2 1
1 3 2
1 2 3
2 1 3
2 1 3

8
Naman
Ethan
Aarush
Alice
Diana
Ayush
Bob
Aditya
7 8 5 1 6 4 3 2
3 7 8 5 1 2 6 4
7 8 6 5 4 3 1 2
1 4 6 7 5 8 2 3
6 2 4 1 7 3 8 5
3 5 4 1 7 8 2 6
1 2 6 3 4 7 5 8
7 2 8 1 4 5 6 3
5 7 2 6 1 8 3 4
4 2 7 5 3 1 6 8
3 7 2 5 1 4 6 8
6 8 5 4 1 2 3 7
8 4 7 3 5 2 1 6
3 8 2 7 6 4 1 5
2 8 5 3 6 7 4 1
8 4 2 5 1 3 6 7
3 2 1 7 6 4 8 5
6 3 5 7 8 2 4 1
4 5 3 1 7 6 2 8
3 2 7 4 6 1 8 5
6 8 5 4 7 2 3 1
8 5 4 1 2 6 3 7
6 7 2 4 1 5 8 3
8 4 3 2 5 7 1 6
2 6 1 7 8 4 3 5
6 5 4 8 2 1 7 3
8 7 4 2 5 1 3 6
3 5 1 8 2 7 4 6
8 7 6 2 4 3 1 5
3 6 8 4 2 7 5 1
8 6 5 1 4 2 7 3
5 3 1 8 4 2 6 7
6 1 3 8 5 2 7 4
1 8 3 7 5 6 2 4
6 4 1 7 3 5 2 8
3 1 5 8 7 6 2 4
6 5 7 2 4 8 3 1
6 8 2 3 7 5 4 1
8 7 6 5 4 3 1 2
1 3 8 7 6 2 5 4
3 6 4 2 7 8 5 1
5 8 3 1 2 4 6 7
5 2 3 8 4 6 1 7
3 2 1 8 6 4 5 7
3 8 1 2 4 6 7 5
2 4 1 6 3 5 7 8
6 2 7 5 3 4 1 8
8 7 3 1 2 5 4 6
7 3 1 5 2 6 8 4
6 2 3 4 1 8 7 5
2 6 3 5 4 7 1 8
3 5 8 4 6 7 2 1
3 5 1 2 8 4 6 7
5 8 4 7 1 2 6 3
1 3 5 7 8 6 2 4
2 6 5 3 1 8 4 7
5 1 7 2 8 4 6 3
7 6 8 4 3 1 2 5
6 5 4 2 8 1 3 7
4 8 3 1 5 6 7 2
8 1 4 6 7 2 3 5
2 6 8 1 3 5 7 4
4 2 6 7 8 1 3 5
3 5 6 4 7 8 1 2
3 4 6 1 8 2 5 7
7 2 3 4 1 5 8 6
6 7 2 8 3 4 1 5
1 8 7 5 3 4 2 6
5 7 6 3 2 4 1 8
4 3 1 7 6 8 2 5
7 1 5 8 3 6 2 4
5 7 2 4 6 3 1 8
1 2 3 8 6 5 4 7
